%!PS-Adobe-2.0 EPSF-2.0
%%Title: grid.eps
%%Creator: gnuplot 5.0 patchlevel 2
%%CreationDate: Fri Jul  1 14:57:39 2016
%%DocumentFonts: (atend)
%%BoundingBox: 50 50 410 302
%%EndComments
%%BeginProlog
/gnudict 256 dict def
gnudict begin
%
% The following true/false flags may be edited by hand if desired.
% The unit line width and grayscale image gamma correction may also be changed.
%
/Color true def
/Blacktext false def
/Solid false def
/Dashlength 2 def
/Landscape false def
/Level1 false def
/Level3 false def
/Rounded false def
/ClipToBoundingBox false def
/SuppressPDFMark false def
/TransparentPatterns false def
/gnulinewidth 5.000 def
/userlinewidth gnulinewidth def
/Gamma 1.0 def
/BackgroundColor {-1.000 -1.000 -1.000} def
%
/vshift -66 def
/dl1 {
  10.0 Dashlength userlinewidth gnulinewidth div mul mul mul
  Rounded { currentlinewidth 0.75 mul sub dup 0 le { pop 0.01 } if } if
} def
/dl2 {
  10.0 Dashlength userlinewidth gnulinewidth div mul mul mul
  Rounded { currentlinewidth 0.75 mul add } if
} def
/hpt_ 31.5 def
/vpt_ 31.5 def
/hpt hpt_ def
/vpt vpt_ def
/doclip {
  ClipToBoundingBox {
    newpath 50 50 moveto 410 50 lineto 410 302 lineto 50 302 lineto closepath
    clip
  } if
} def
%
% Gnuplot Prolog Version 5.1 (Oct 2015)
%
%/SuppressPDFMark true def
%
/M {moveto} bind def
/L {lineto} bind def
/R {rmoveto} bind def
/V {rlineto} bind def
/N {newpath moveto} bind def
/Z {closepath} bind def
/C {setrgbcolor} bind def
/f {rlineto fill} bind def
/g {setgray} bind def
/Gshow {show} def   % May be redefined later in the file to support UTF-8
/vpt2 vpt 2 mul def
/hpt2 hpt 2 mul def
/Lshow {currentpoint stroke M 0 vshift R 
	Blacktext {gsave 0 setgray textshow grestore} {textshow} ifelse} def
/Rshow {currentpoint stroke M dup stringwidth pop neg vshift R
	Blacktext {gsave 0 setgray textshow grestore} {textshow} ifelse} def
/Cshow {currentpoint stroke M dup stringwidth pop -2 div vshift R 
	Blacktext {gsave 0 setgray textshow grestore} {textshow} ifelse} def
/UP {dup vpt_ mul /vpt exch def hpt_ mul /hpt exch def
  /hpt2 hpt 2 mul def /vpt2 vpt 2 mul def} def
/DL {Color {setrgbcolor Solid {pop []} if 0 setdash}
 {pop pop pop 0 setgray Solid {pop []} if 0 setdash} ifelse} def
/BL {stroke userlinewidth 2 mul setlinewidth
	Rounded {1 setlinejoin 1 setlinecap} if} def
/AL {stroke userlinewidth 2 div setlinewidth
	Rounded {1 setlinejoin 1 setlinecap} if} def
/UL {dup gnulinewidth mul /userlinewidth exch def
	dup 1 lt {pop 1} if 10 mul /udl exch def} def
/PL {stroke userlinewidth setlinewidth
	Rounded {1 setlinejoin 1 setlinecap} if} def
3.8 setmiterlimit
% Classic Line colors (version 5.0)
/LCw {1 1 1} def
/LCb {0 0 0} def
/LCa {0 0 0} def
/LC0 {1 0 0} def
/LC1 {0 1 0} def
/LC2 {0 0 1} def
/LC3 {1 0 1} def
/LC4 {0 1 1} def
/LC5 {1 1 0} def
/LC6 {0 0 0} def
/LC7 {1 0.3 0} def
/LC8 {0.5 0.5 0.5} def
% Default dash patterns (version 5.0)
/LTB {BL [] LCb DL} def
/LTw {PL [] 1 setgray} def
/LTb {PL [] LCb DL} def
/LTa {AL [1 udl mul 2 udl mul] 0 setdash LCa setrgbcolor} def
/LT0 {PL [] LC0 DL} def
/LT1 {PL [2 dl1 3 dl2] LC1 DL} def
/LT2 {PL [1 dl1 1.5 dl2] LC2 DL} def
/LT3 {PL [6 dl1 2 dl2 1 dl1 2 dl2] LC3 DL} def
/LT4 {PL [1 dl1 2 dl2 6 dl1 2 dl2 1 dl1 2 dl2] LC4 DL} def
/LT5 {PL [4 dl1 2 dl2] LC5 DL} def
/LT6 {PL [1.5 dl1 1.5 dl2 1.5 dl1 1.5 dl2 1.5 dl1 6 dl2] LC6 DL} def
/LT7 {PL [3 dl1 3 dl2 1 dl1 3 dl2] LC7 DL} def
/LT8 {PL [2 dl1 2 dl2 2 dl1 6 dl2] LC8 DL} def
/SL {[] 0 setdash} def
/Pnt {stroke [] 0 setdash gsave 1 setlinecap M 0 0 V stroke grestore} def
/Dia {stroke [] 0 setdash 2 copy vpt add M
  hpt neg vpt neg V hpt vpt neg V
  hpt vpt V hpt neg vpt V closepath stroke
  Pnt} def
/Pls {stroke [] 0 setdash vpt sub M 0 vpt2 V
  currentpoint stroke M
  hpt neg vpt neg R hpt2 0 V stroke
 } def
/Box {stroke [] 0 setdash 2 copy exch hpt sub exch vpt add M
  0 vpt2 neg V hpt2 0 V 0 vpt2 V
  hpt2 neg 0 V closepath stroke
  Pnt} def
/Crs {stroke [] 0 setdash exch hpt sub exch vpt add M
  hpt2 vpt2 neg V currentpoint stroke M
  hpt2 neg 0 R hpt2 vpt2 V stroke} def
/TriU {stroke [] 0 setdash 2 copy vpt 1.12 mul add M
  hpt neg vpt -1.62 mul V
  hpt 2 mul 0 V
  hpt neg vpt 1.62 mul V closepath stroke
  Pnt} def
/Star {2 copy Pls Crs} def
/BoxF {stroke [] 0 setdash exch hpt sub exch vpt add M
  0 vpt2 neg V hpt2 0 V 0 vpt2 V
  hpt2 neg 0 V closepath fill} def
/TriUF {stroke [] 0 setdash vpt 1.12 mul add M
  hpt neg vpt -1.62 mul V
  hpt 2 mul 0 V
  hpt neg vpt 1.62 mul V closepath fill} def
/TriD {stroke [] 0 setdash 2 copy vpt 1.12 mul sub M
  hpt neg vpt 1.62 mul V
  hpt 2 mul 0 V
  hpt neg vpt -1.62 mul V closepath stroke
  Pnt} def
/TriDF {stroke [] 0 setdash vpt 1.12 mul sub M
  hpt neg vpt 1.62 mul V
  hpt 2 mul 0 V
  hpt neg vpt -1.62 mul V closepath fill} def
/DiaF {stroke [] 0 setdash vpt add M
  hpt neg vpt neg V hpt vpt neg V
  hpt vpt V hpt neg vpt V closepath fill} def
/Pent {stroke [] 0 setdash 2 copy gsave
  translate 0 hpt M 4 {72 rotate 0 hpt L} repeat
  closepath stroke grestore Pnt} def
/PentF {stroke [] 0 setdash gsave
  translate 0 hpt M 4 {72 rotate 0 hpt L} repeat
  closepath fill grestore} def
/Circle {stroke [] 0 setdash 2 copy
  hpt 0 360 arc stroke Pnt} def
/CircleF {stroke [] 0 setdash hpt 0 360 arc fill} def
/C0 {BL [] 0 setdash 2 copy moveto vpt 90 450 arc} bind def
/C1 {BL [] 0 setdash 2 copy moveto
	2 copy vpt 0 90 arc closepath fill
	vpt 0 360 arc closepath} bind def
/C2 {BL [] 0 setdash 2 copy moveto
	2 copy vpt 90 180 arc closepath fill
	vpt 0 360 arc closepath} bind def
/C3 {BL [] 0 setdash 2 copy moveto
	2 copy vpt 0 180 arc closepath fill
	vpt 0 360 arc closepath} bind def
/C4 {BL [] 0 setdash 2 copy moveto
	2 copy vpt 180 270 arc closepath fill
	vpt 0 360 arc closepath} bind def
/C5 {BL [] 0 setdash 2 copy moveto
	2 copy vpt 0 90 arc
	2 copy moveto
	2 copy vpt 180 270 arc closepath fill
	vpt 0 360 arc} bind def
/C6 {BL [] 0 setdash 2 copy moveto
	2 copy vpt 90 270 arc closepath fill
	vpt 0 360 arc closepath} bind def
/C7 {BL [] 0 setdash 2 copy moveto
	2 copy vpt 0 270 arc closepath fill
	vpt 0 360 arc closepath} bind def
/C8 {BL [] 0 setdash 2 copy moveto
	2 copy vpt 270 360 arc closepath fill
	vpt 0 360 arc closepath} bind def
/C9 {BL [] 0 setdash 2 copy moveto
	2 copy vpt 270 450 arc closepath fill
	vpt 0 360 arc closepath} bind def
/C10 {BL [] 0 setdash 2 copy 2 copy moveto vpt 270 360 arc closepath fill
	2 copy moveto
	2 copy vpt 90 180 arc closepath fill
	vpt 0 360 arc closepath} bind def
/C11 {BL [] 0 setdash 2 copy moveto
	2 copy vpt 0 180 arc closepath fill
	2 copy moveto
	2 copy vpt 270 360 arc closepath fill
	vpt 0 360 arc closepath} bind def
/C12 {BL [] 0 setdash 2 copy moveto
	2 copy vpt 180 360 arc closepath fill
	vpt 0 360 arc closepath} bind def
/C13 {BL [] 0 setdash 2 copy moveto
	2 copy vpt 0 90 arc closepath fill
	2 copy moveto
	2 copy vpt 180 360 arc closepath fill
	vpt 0 360 arc closepath} bind def
/C14 {BL [] 0 setdash 2 copy moveto
	2 copy vpt 90 360 arc closepath fill
	vpt 0 360 arc} bind def
/C15 {BL [] 0 setdash 2 copy vpt 0 360 arc closepath fill
	vpt 0 360 arc closepath} bind def
/Rec {newpath 4 2 roll moveto 1 index 0 rlineto 0 exch rlineto
	neg 0 rlineto closepath} bind def
/Square {dup Rec} bind def
/Bsquare {vpt sub exch vpt sub exch vpt2 Square} bind def
/S0 {BL [] 0 setdash 2 copy moveto 0 vpt rlineto BL Bsquare} bind def
/S1 {BL [] 0 setdash 2 copy vpt Square fill Bsquare} bind def
/S2 {BL [] 0 setdash 2 copy exch vpt sub exch vpt Square fill Bsquare} bind def
/S3 {BL [] 0 setdash 2 copy exch vpt sub exch vpt2 vpt Rec fill Bsquare} bind def
/S4 {BL [] 0 setdash 2 copy exch vpt sub exch vpt sub vpt Square fill Bsquare} bind def
/S5 {BL [] 0 setdash 2 copy 2 copy vpt Square fill
	exch vpt sub exch vpt sub vpt Square fill Bsquare} bind def
/S6 {BL [] 0 setdash 2 copy exch vpt sub exch vpt sub vpt vpt2 Rec fill Bsquare} bind def
/S7 {BL [] 0 setdash 2 copy exch vpt sub exch vpt sub vpt vpt2 Rec fill
	2 copy vpt Square fill Bsquare} bind def
/S8 {BL [] 0 setdash 2 copy vpt sub vpt Square fill Bsquare} bind def
/S9 {BL [] 0 setdash 2 copy vpt sub vpt vpt2 Rec fill Bsquare} bind def
/S10 {BL [] 0 setdash 2 copy vpt sub vpt Square fill 2 copy exch vpt sub exch vpt Square fill
	Bsquare} bind def
/S11 {BL [] 0 setdash 2 copy vpt sub vpt Square fill 2 copy exch vpt sub exch vpt2 vpt Rec fill
	Bsquare} bind def
/S12 {BL [] 0 setdash 2 copy exch vpt sub exch vpt sub vpt2 vpt Rec fill Bsquare} bind def
/S13 {BL [] 0 setdash 2 copy exch vpt sub exch vpt sub vpt2 vpt Rec fill
	2 copy vpt Square fill Bsquare} bind def
/S14 {BL [] 0 setdash 2 copy exch vpt sub exch vpt sub vpt2 vpt Rec fill
	2 copy exch vpt sub exch vpt Square fill Bsquare} bind def
/S15 {BL [] 0 setdash 2 copy Bsquare fill Bsquare} bind def
/D0 {gsave translate 45 rotate 0 0 S0 stroke grestore} bind def
/D1 {gsave translate 45 rotate 0 0 S1 stroke grestore} bind def
/D2 {gsave translate 45 rotate 0 0 S2 stroke grestore} bind def
/D3 {gsave translate 45 rotate 0 0 S3 stroke grestore} bind def
/D4 {gsave translate 45 rotate 0 0 S4 stroke grestore} bind def
/D5 {gsave translate 45 rotate 0 0 S5 stroke grestore} bind def
/D6 {gsave translate 45 rotate 0 0 S6 stroke grestore} bind def
/D7 {gsave translate 45 rotate 0 0 S7 stroke grestore} bind def
/D8 {gsave translate 45 rotate 0 0 S8 stroke grestore} bind def
/D9 {gsave translate 45 rotate 0 0 S9 stroke grestore} bind def
/D10 {gsave translate 45 rotate 0 0 S10 stroke grestore} bind def
/D11 {gsave translate 45 rotate 0 0 S11 stroke grestore} bind def
/D12 {gsave translate 45 rotate 0 0 S12 stroke grestore} bind def
/D13 {gsave translate 45 rotate 0 0 S13 stroke grestore} bind def
/D14 {gsave translate 45 rotate 0 0 S14 stroke grestore} bind def
/D15 {gsave translate 45 rotate 0 0 S15 stroke grestore} bind def
/DiaE {stroke [] 0 setdash vpt add M
  hpt neg vpt neg V hpt vpt neg V
  hpt vpt V hpt neg vpt V closepath stroke} def
/BoxE {stroke [] 0 setdash exch hpt sub exch vpt add M
  0 vpt2 neg V hpt2 0 V 0 vpt2 V
  hpt2 neg 0 V closepath stroke} def
/TriUE {stroke [] 0 setdash vpt 1.12 mul add M
  hpt neg vpt -1.62 mul V
  hpt 2 mul 0 V
  hpt neg vpt 1.62 mul V closepath stroke} def
/TriDE {stroke [] 0 setdash vpt 1.12 mul sub M
  hpt neg vpt 1.62 mul V
  hpt 2 mul 0 V
  hpt neg vpt -1.62 mul V closepath stroke} def
/PentE {stroke [] 0 setdash gsave
  translate 0 hpt M 4 {72 rotate 0 hpt L} repeat
  closepath stroke grestore} def
/CircE {stroke [] 0 setdash 
  hpt 0 360 arc stroke} def
/Opaque {gsave closepath 1 setgray fill grestore 0 setgray closepath} def
/DiaW {stroke [] 0 setdash vpt add M
  hpt neg vpt neg V hpt vpt neg V
  hpt vpt V hpt neg vpt V Opaque stroke} def
/BoxW {stroke [] 0 setdash exch hpt sub exch vpt add M
  0 vpt2 neg V hpt2 0 V 0 vpt2 V
  hpt2 neg 0 V Opaque stroke} def
/TriUW {stroke [] 0 setdash vpt 1.12 mul add M
  hpt neg vpt -1.62 mul V
  hpt 2 mul 0 V
  hpt neg vpt 1.62 mul V Opaque stroke} def
/TriDW {stroke [] 0 setdash vpt 1.12 mul sub M
  hpt neg vpt 1.62 mul V
  hpt 2 mul 0 V
  hpt neg vpt -1.62 mul V Opaque stroke} def
/PentW {stroke [] 0 setdash gsave
  translate 0 hpt M 4 {72 rotate 0 hpt L} repeat
  Opaque stroke grestore} def
/CircW {stroke [] 0 setdash 
  hpt 0 360 arc Opaque stroke} def
/BoxFill {gsave Rec 1 setgray fill grestore} def
/Density {
  /Fillden exch def
  currentrgbcolor
  /ColB exch def /ColG exch def /ColR exch def
  /ColR ColR Fillden mul Fillden sub 1 add def
  /ColG ColG Fillden mul Fillden sub 1 add def
  /ColB ColB Fillden mul Fillden sub 1 add def
  ColR ColG ColB setrgbcolor} def
/BoxColFill {gsave Rec PolyFill} def
/PolyFill {gsave Density fill grestore grestore} def
/h {rlineto rlineto rlineto gsave closepath fill grestore} bind def
%
% PostScript Level 1 Pattern Fill routine for rectangles
% Usage: x y w h s a XX PatternFill
%	x,y = lower left corner of box to be filled
%	w,h = width and height of box
%	  a = angle in degrees between lines and x-axis
%	 XX = 0/1 for no/yes cross-hatch
%
/PatternFill {gsave /PFa [ 9 2 roll ] def
  PFa 0 get PFa 2 get 2 div add PFa 1 get PFa 3 get 2 div add translate
  PFa 2 get -2 div PFa 3 get -2 div PFa 2 get PFa 3 get Rec
  TransparentPatterns {} {gsave 1 setgray fill grestore} ifelse
  clip
  currentlinewidth 0.5 mul setlinewidth
  /PFs PFa 2 get dup mul PFa 3 get dup mul add sqrt def
  0 0 M PFa 5 get rotate PFs -2 div dup translate
  0 1 PFs PFa 4 get div 1 add floor cvi
	{PFa 4 get mul 0 M 0 PFs V} for
  0 PFa 6 get ne {
	0 1 PFs PFa 4 get div 1 add floor cvi
	{PFa 4 get mul 0 2 1 roll M PFs 0 V} for
 } if
  stroke grestore} def
%
/languagelevel where
 {pop languagelevel} {1} ifelse
dup 2 lt
	{/InterpretLevel1 true def
	 /InterpretLevel3 false def}
	{/InterpretLevel1 Level1 def
	 2 gt
	    {/InterpretLevel3 Level3 def}
	    {/InterpretLevel3 false def}
	 ifelse }
 ifelse
%
% PostScript level 2 pattern fill definitions
%
/Level2PatternFill {
/Tile8x8 {/PaintType 2 /PatternType 1 /TilingType 1 /BBox [0 0 8 8] /XStep 8 /YStep 8}
	bind def
/KeepColor {currentrgbcolor [/Pattern /DeviceRGB] setcolorspace} bind def
<< Tile8x8
 /PaintProc {0.5 setlinewidth pop 0 0 M 8 8 L 0 8 M 8 0 L stroke} 
>> matrix makepattern
/Pat1 exch def
<< Tile8x8
 /PaintProc {0.5 setlinewidth pop 0 0 M 8 8 L 0 8 M 8 0 L stroke
	0 4 M 4 8 L 8 4 L 4 0 L 0 4 L stroke}
>> matrix makepattern
/Pat2 exch def
<< Tile8x8
 /PaintProc {0.5 setlinewidth pop 0 0 M 0 8 L
	8 8 L 8 0 L 0 0 L fill}
>> matrix makepattern
/Pat3 exch def
<< Tile8x8
 /PaintProc {0.5 setlinewidth pop -4 8 M 8 -4 L
	0 12 M 12 0 L stroke}
>> matrix makepattern
/Pat4 exch def
<< Tile8x8
 /PaintProc {0.5 setlinewidth pop -4 0 M 8 12 L
	0 -4 M 12 8 L stroke}
>> matrix makepattern
/Pat5 exch def
<< Tile8x8
 /PaintProc {0.5 setlinewidth pop -2 8 M 4 -4 L
	0 12 M 8 -4 L 4 12 M 10 0 L stroke}
>> matrix makepattern
/Pat6 exch def
<< Tile8x8
 /PaintProc {0.5 setlinewidth pop -2 0 M 4 12 L
	0 -4 M 8 12 L 4 -4 M 10 8 L stroke}
>> matrix makepattern
/Pat7 exch def
<< Tile8x8
 /PaintProc {0.5 setlinewidth pop 8 -2 M -4 4 L
	12 0 M -4 8 L 12 4 M 0 10 L stroke}
>> matrix makepattern
/Pat8 exch def
<< Tile8x8
 /PaintProc {0.5 setlinewidth pop 0 -2 M 12 4 L
	-4 0 M 12 8 L -4 4 M 8 10 L stroke}
>> matrix makepattern
/Pat9 exch def
/Pattern1 {PatternBgnd KeepColor Pat1 setpattern} bind def
/Pattern2 {PatternBgnd KeepColor Pat2 setpattern} bind def
/Pattern3 {PatternBgnd KeepColor Pat3 setpattern} bind def
/Pattern4 {PatternBgnd KeepColor Landscape {Pat5} {Pat4} ifelse setpattern} bind def
/Pattern5 {PatternBgnd KeepColor Landscape {Pat4} {Pat5} ifelse setpattern} bind def
/Pattern6 {PatternBgnd KeepColor Landscape {Pat9} {Pat6} ifelse setpattern} bind def
/Pattern7 {PatternBgnd KeepColor Landscape {Pat8} {Pat7} ifelse setpattern} bind def
} def
%
%
%End of PostScript Level 2 code
%
/PatternBgnd {
  TransparentPatterns {} {gsave 1 setgray fill grestore} ifelse
} def
%
% Substitute for Level 2 pattern fill codes with
% grayscale if Level 2 support is not selected.
%
/Level1PatternFill {
/Pattern1 {0.250 Density} bind def
/Pattern2 {0.500 Density} bind def
/Pattern3 {0.750 Density} bind def
/Pattern4 {0.125 Density} bind def
/Pattern5 {0.375 Density} bind def
/Pattern6 {0.625 Density} bind def
/Pattern7 {0.875 Density} bind def
} def
%
% Now test for support of Level 2 code
%
Level1 {Level1PatternFill} {Level2PatternFill} ifelse
%
/Symbol-Oblique /Symbol findfont [1 0 .167 1 0 0] makefont
dup length dict begin {1 index /FID eq {pop pop} {def} ifelse} forall
currentdict end definefont pop
%
/MFshow {
   { dup 5 get 3 ge
     { 5 get 3 eq {gsave} {grestore} ifelse }
     {dup dup 0 get findfont exch 1 get scalefont setfont
     [ currentpoint ] exch dup 2 get 0 exch R dup 5 get 2 ne {dup dup 6
     get exch 4 get {textshow} {stringwidth pop 0 R} ifelse }if dup 5 get 0 eq
     {dup 3 get {2 get neg 0 exch R pop} {pop aload pop M} ifelse} {dup 5
     get 1 eq {dup 2 get exch dup 3 get exch 6 get stringwidth pop -2 div
     dup 0 R} {dup 6 get stringwidth pop -2 div 0 R 6 get
     textshow 2 index {aload pop M neg 3 -1 roll neg R pop pop} {pop pop pop
     pop aload pop M} ifelse }ifelse }ifelse }
     ifelse }
   forall} def
/Gswidth {dup type /stringtype eq {stringwidth} {pop (n) stringwidth} ifelse} def
/MFwidth {0 exch { dup 5 get 3 ge { 5 get 3 eq { 0 } { pop } ifelse }
 {dup 3 get{dup dup 0 get findfont exch 1 get scalefont setfont
     6 get Gswidth pop add} {pop} ifelse} ifelse} forall} def
/MLshow { currentpoint stroke M
  0 exch R
  Blacktext {gsave 0 setgray MFshow grestore} {MFshow} ifelse } bind def
/MRshow { currentpoint stroke M
  exch dup MFwidth neg 3 -1 roll R
  Blacktext {gsave 0 setgray MFshow grestore} {MFshow} ifelse } bind def
/MCshow { currentpoint stroke M
  exch dup MFwidth -2 div 3 -1 roll R
  Blacktext {gsave 0 setgray MFshow grestore} {MFshow} ifelse } bind def
/XYsave    { [( ) 1 2 true false 3 ()] } bind def
/XYrestore { [( ) 1 2 true false 4 ()] } bind def
Level1 SuppressPDFMark or 
{} {
/SDict 10 dict def
systemdict /pdfmark known not {
  userdict /pdfmark systemdict /cleartomark get put
} if
SDict begin [
  /Title (grid.eps)
  /Subject (gnuplot plot)
  /Creator (gnuplot 5.0 patchlevel 2)
  /Author (jwe)
%  /Producer (gnuplot)
%  /Keywords ()
  /CreationDate (Fri Jul  1 14:57:39 2016)
  /DOCINFO pdfmark
end
} ifelse
%
% Support for boxed text - Ethan A Merritt May 2005
%
/InitTextBox { userdict /TBy2 3 -1 roll put userdict /TBx2 3 -1 roll put
           userdict /TBy1 3 -1 roll put userdict /TBx1 3 -1 roll put
	   /Boxing true def } def
/ExtendTextBox { Boxing
    { gsave dup false charpath pathbbox
      dup TBy2 gt {userdict /TBy2 3 -1 roll put} {pop} ifelse
      dup TBx2 gt {userdict /TBx2 3 -1 roll put} {pop} ifelse
      dup TBy1 lt {userdict /TBy1 3 -1 roll put} {pop} ifelse
      dup TBx1 lt {userdict /TBx1 3 -1 roll put} {pop} ifelse
      grestore } if } def
/PopTextBox { newpath TBx1 TBxmargin sub TBy1 TBymargin sub M
               TBx1 TBxmargin sub TBy2 TBymargin add L
	       TBx2 TBxmargin add TBy2 TBymargin add L
	       TBx2 TBxmargin add TBy1 TBymargin sub L closepath } def
/DrawTextBox { PopTextBox stroke /Boxing false def} def
/FillTextBox { gsave PopTextBox 1 1 1 setrgbcolor fill grestore /Boxing false def} def
0 0 0 0 InitTextBox
/TBxmargin 20 def
/TBymargin 20 def
/Boxing false def
/textshow { ExtendTextBox Gshow } def
%
% redundant definitions for compatibility with prologue.ps older than 5.0.2
/LTB {BL [] LCb DL} def
/LTb {PL [] LCb DL} def
end
%%EndProlog
%%Page: 1 1
gnudict begin
gsave
doclip
50 50 translate
0.050 0.050 scale
0 setgray
newpath
(Helvetica) findfont 200 scalefont setfont
BackgroundColor 0 lt 3 1 roll 0 lt exch 0 lt or or not {BackgroundColor C 1.000 0 0 7200.00 5040.00 BoxColFill} if
gsave % colour palette begin
/maxcolors 64 def
/HSV2RGB {  exch dup 0.0 eq {pop exch pop dup dup} % achromatic gray
  { /HSVs exch def /HSVv exch def 6.0 mul dup floor dup 3 1 roll sub
     /HSVf exch def /HSVi exch cvi def /HSVp HSVv 1.0 HSVs sub mul def
	 /HSVq HSVv 1.0 HSVs HSVf mul sub mul def 
	 /HSVt HSVv 1.0 HSVs 1.0 HSVf sub mul sub mul def
	 /HSVi HSVi 6 mod def 0 HSVi eq {HSVv HSVt HSVp}
	 {1 HSVi eq {HSVq HSVv HSVp}{2 HSVi eq {HSVp HSVv HSVt}
	 {3 HSVi eq {HSVp HSVq HSVv}{4 HSVi eq {HSVt HSVp HSVv}
	 {HSVv HSVp HSVq} ifelse} ifelse} ifelse} ifelse} ifelse
  } ifelse} def
/Constrain {
  dup 0 lt {0 exch pop}{dup 1 gt {1 exch pop} if} ifelse} def
/YIQ2RGB {
  3 copy -1.702 mul exch -1.105 mul add add Constrain 4 1 roll
  3 copy -0.647 mul exch -0.272 mul add add Constrain 5 1 roll
  0.621 mul exch -0.956 mul add add Constrain 3 1 roll } def
/CMY2RGB {  1 exch sub exch 1 exch sub 3 2 roll 1 exch sub 3 1 roll exch } def
/XYZ2RGB {  3 copy -0.9017 mul exch -0.1187 mul add exch 0.0585 mul exch add
  Constrain 4 1 roll 3 copy -0.0279 mul exch 1.999 mul add exch
  -0.9844 mul add Constrain 5 1 roll -0.2891 mul exch -0.5338 mul add
  exch 1.91 mul exch add Constrain 3 1 roll} def
/SelectSpace {ColorSpace (HSV) eq {HSV2RGB}{ColorSpace (XYZ) eq {
  XYZ2RGB}{ColorSpace (CMY) eq {CMY2RGB}{ColorSpace (YIQ) eq {YIQ2RGB}
  if} ifelse} ifelse} ifelse} def
/InterpolatedColor true def
/grayindex {/gidx 0 def
  {GrayA gidx get grayv ge {exit} if /gidx gidx 1 add def} loop} def
/dgdx {grayv GrayA gidx get sub GrayA gidx 1 sub get
  GrayA gidx get sub div} def 
/redvalue {RedA gidx get RedA gidx 1 sub get
  RedA gidx get sub dgdxval mul add} def
/greenvalue {GreenA gidx get GreenA gidx 1 sub get
  GreenA gidx get sub dgdxval mul add} def
/bluevalue {BlueA gidx get BlueA gidx 1 sub get
  BlueA gidx get sub dgdxval mul add} def
/interpolate {
  grayindex grayv GrayA gidx get sub abs 1e-5 le
    {RedA gidx get GreenA gidx get BlueA gidx get}
    {/dgdxval dgdx def redvalue greenvalue bluevalue} ifelse} def
/GrayA [0 .0159 .0317 .0476 .0635 .0794 .0952 .1111 .127 .1429 .1587 .1746 
  .1905 .2063 .2222 .2381 .254 .2698 .2857 .3016 .3175 .3333 .3492 .3651 
  .381 .3968 .4127 .4286 .4444 .4603 .4762 .4921 .5079 .5238 .5397 .5556 
  .5714 .5873 .6032 .619 .6349 .6508 .6667 .6825 .6984 .7143 .7302 .746 
  .7619 .7778 .7937 .8095 .8254 .8413 .8571 .873 .8889 .9048 .9206 .9365 
  .9524 .9683 .9841 1 ] def
/RedA [0 0 0 0 0 0 0 0 0 0 0 0 0 0 0 0 0 0 0 0 0 0 0 0 .0238 .0873 .1508 
  .2143 .2778 .3413 .4048 .4683 .5317 .5952 .6587 .7222 .7857 .8492 .9127 
  .9762 1 1 1 1 1 1 1 1 1 1 1 1 1 1 1 1 .9444 .881 .8175 .754 .6905 .627 
  .5635 .5 ] def
/GreenA [0 0 0 0 0 0 0 0 .0079 .0714 .1349 .1984 .2619 .3254 .3889 .4524 
  .5159 .5794 .6429 .7063 .7698 .8333 .8968 .9603 1 1 1 1 1 1 1 1 1 1 1 1 1 
  1 1 1 .9603 .8968 .8333 .7698 .7063 .6429 .5794 .5159 .4524 .3889 .3254 
  .2619 .1984 .1349 .0714 .0079 0 0 0 0 0 0 0 0 ] def
/BlueA [.5 .5635 .627 .6905 .754 .8175 .881 .9444 1 1 1 1 1 1 1 1 1 1 1 1 1 
  1 1 1 .9762 .9127 .8492 .7857 .7222 .6587 .5952 .5317 .4683 .4048 .3413 
  .2778 .2143 .1508 .0873 .0238 0 0 0 0 0 0 0 0 0 0 0 0 0 0 0 0 0 0 0 0 0 0 
  0 0 ] def
/pm3dround {maxcolors 0 gt {dup 1 ge
	{pop 1} {maxcolors mul floor maxcolors 1 sub div} ifelse} if} def
/pm3dGamma 1.0 1.5 Gamma mul div def
/ColorSpace (RGB) def
Color InterpolatedColor or { % COLOUR vs. GRAY map
  InterpolatedColor { %% Interpolation vs. RGB-Formula
    /g {stroke pm3dround /grayv exch def interpolate
        SelectSpace setrgbcolor} bind def
  }{
  /g {stroke pm3dround dup cF7 Constrain exch dup cF5 Constrain exch cF15 Constrain 
       SelectSpace setrgbcolor} bind def
  } ifelse
}{
  /g {stroke pm3dround pm3dGamma exp setgray} bind def
} ifelse
1.000 UL
LTb
1.00 1.00 1.00 C 0.500 UL
LTb
LCb setrgbcolor
0.500 UL
LTb
LCb setrgbcolor
1418 1599 M
3710 73 V
stroke
LTb
LCb setrgbcolor
5782 1258 M
-654 414 V
stroke
LTb
LCb setrgbcolor
1418 1599 M
0 2383 V
stroke
LTb
LCb setrgbcolor
5128 1672 M
0 2383 V
stroke
LTb
LCb setrgbcolor
5782 1258 M
0 2383 V
stroke
LTb
LCb setrgbcolor
1418 3982 M
3710 73 V
stroke
LTb
LCb setrgbcolor
5782 3641 M
-654 414 V
stroke
LTb
LCb setrgbcolor
1418 1599 M
-135 -3 V
stroke
LTb
LCb setrgbcolor
5128 1672 M
135 3 V
stroke
0.00 0.00 0.00 C 1099 1590 M
[ [({}) 200.0 0.0 true true 0 (1)]
] -66.7 MRshow
0.500 UL
LTb
LCb setrgbcolor
0.500 UL
LTb
LCb setrgbcolor
1549 1516 M
-135 -3 V
stroke
LTb
LCb setrgbcolor
5259 1589 M
135 3 V
stroke
0.00 0.00 0.00 C 1230 1507 M
[ [({}) 200.0 0.0 true true 0 (1.2)]
] -66.7 MRshow
0.500 UL
LTb
LCb setrgbcolor
0.500 UL
LTb
LCb setrgbcolor
1680 1433 M
-135 -2 V
stroke
LTb
LCb setrgbcolor
5389 1506 M
136 3 V
stroke
0.00 0.00 0.00 C 1361 1425 M
[ [({}) 200.0 0.0 true true 0 (1.4)]
] -66.7 MRshow
0.500 UL
LTb
LCb setrgbcolor
0.500 UL
LTb
LCb setrgbcolor
1811 1350 M
-136 -2 V
stroke
LTb
LCb setrgbcolor
5520 1423 M
135 3 V
stroke
0.00 0.00 0.00 C 1491 1342 M
[ [({}) 200.0 0.0 true true 0 (1.6)]
] -66.7 MRshow
0.500 UL
LTb
LCb setrgbcolor
0.500 UL
LTb
LCb setrgbcolor
1941 1268 M
-135 -3 V
stroke
LTb
LCb setrgbcolor
5651 1341 M
135 2 V
stroke
0.00 0.00 0.00 C 1622 1259 M
[ [({}) 200.0 0.0 true true 0 (1.8)]
] -66.7 MRshow
0.500 UL
LTb
LCb setrgbcolor
0.500 UL
LTb
LCb setrgbcolor
2072 1185 M
-135 -3 V
stroke
LTb
LCb setrgbcolor
5782 1258 M
135 3 V
stroke
0.00 0.00 0.00 C 1753 1176 M
[ [({}) 200.0 0.0 true true 0 (2)]
] -66.7 MRshow
0.500 UL
LTb
LCb setrgbcolor
0.500 UL
LTb
LCb setrgbcolor
2072 1185 M
16 -10 V
stroke
LTb
LCb setrgbcolor
1418 1599 M
-15 10 V
stroke
0.00 0.00 0.00 C 2108 1153 M
[ [({}) 200.0 0.0 true true 0 (1)]
] -66.7 MCshow
0.500 UL
LTb
LCb setrgbcolor
0.500 UL
LTb
LCb setrgbcolor
2814 1199 M
16 -9 V
stroke
LTb
LCb setrgbcolor
2160 1613 M
-15 10 V
stroke
0.00 0.00 0.00 C 2851 1168 M
[ [({}) 200.0 0.0 true true 0 (1.2)]
] -66.7 MCshow
0.500 UL
LTb
LCb setrgbcolor
0.500 UL
LTb
LCb setrgbcolor
3557 1214 M
15 -10 V
stroke
LTb
LCb setrgbcolor
2902 1628 M
-15 10 V
stroke
0.00 0.00 0.00 C 3593 1182 M
[ [({}) 200.0 0.0 true true 0 (1.4)]
] -66.7 MCshow
0.500 UL
LTb
LCb setrgbcolor
0.500 UL
LTb
LCb setrgbcolor
4298 1229 M
15 -10 V
stroke
LTb
LCb setrgbcolor
3643 1643 M
-15 9 V
stroke
0.00 0.00 0.00 C 4334 1197 M
[ [({}) 200.0 0.0 true true 0 (1.6)]
] -66.7 MCshow
0.500 UL
LTb
LCb setrgbcolor
0.500 UL
LTb
LCb setrgbcolor
5040 1243 M
15 -9 V
stroke
LTb
LCb setrgbcolor
4386 1657 M
-16 10 V
stroke
0.00 0.00 0.00 C 5076 1212 M
[ [({}) 200.0 0.0 true true 0 (1.8)]
] -66.7 MCshow
0.500 UL
LTb
LCb setrgbcolor
0.500 UL
LTb
LCb setrgbcolor
5782 1258 M
15 -10 V
stroke
LTb
LCb setrgbcolor
5128 1672 M
-16 10 V
stroke
0.00 0.00 0.00 C 5818 1226 M
[ [({}) 200.0 0.0 true true 0 (2)]
] -66.7 MCshow
0.500 UL
LTb
LCb setrgbcolor
0.500 UL
LTb
LCb setrgbcolor
1418 1599 M
-88 0 V
stroke
0.00 0.00 0.00 C 1203 1599 M
[ [({}) 200.0 0.0 true true 0 (10)]
] -66.7 MRshow
0.500 UL
LTb
LCb setrgbcolor
0.500 UL
LTb
LCb setrgbcolor
5782 1258 M
88 0 V
stroke
LTb
LCb setrgbcolor
1418 2076 M
-88 0 V
stroke
0.00 0.00 0.00 C 1203 2076 M
[ [({}) 200.0 0.0 true true 0 (12)]
] -66.7 MRshow
0.500 UL
LTb
LCb setrgbcolor
0.500 UL
LTb
LCb setrgbcolor
5782 1735 M
88 0 V
stroke
LTb
LCb setrgbcolor
1418 2553 M
-88 0 V
stroke
0.00 0.00 0.00 C 1203 2553 M
[ [({}) 200.0 0.0 true true 0 (14)]
] -66.7 MRshow
0.500 UL
LTb
LCb setrgbcolor
0.500 UL
LTb
LCb setrgbcolor
5782 2212 M
88 0 V
stroke
LTb
LCb setrgbcolor
1418 3028 M
-88 0 V
stroke
0.00 0.00 0.00 C 1203 3028 M
[ [({}) 200.0 0.0 true true 0 (16)]
] -66.7 MRshow
0.500 UL
LTb
LCb setrgbcolor
0.500 UL
LTb
LCb setrgbcolor
5782 2687 M
88 0 V
stroke
LTb
LCb setrgbcolor
1418 3505 M
-88 0 V
stroke
0.00 0.00 0.00 C 1203 3505 M
[ [({}) 200.0 0.0 true true 0 (18)]
] -66.7 MRshow
0.500 UL
LTb
LCb setrgbcolor
0.500 UL
LTb
LCb setrgbcolor
5782 3164 M
88 0 V
stroke
LTb
LCb setrgbcolor
1418 3982 M
-88 0 V
stroke
0.00 0.00 0.00 C 1203 3982 M
[ [({}) 200.0 0.0 true true 0 (20)]
] -66.7 MRshow
0.500 UL
LTb
LCb setrgbcolor
0.500 UL
LTb
LCb setrgbcolor
5782 3641 M
88 0 V
1.000 UP
% Begin plot #1
%pm3d_map_begin
stroke
LTb
0.00 0.00 1.00 C %pm3d_map_end
0.500 UL
LTb
0.00 0.00 1.00 C 0.00 0.00 1.00 C 1418 1599 M
742 14 V
-709 164 V
-33 -178 V
% End plot #1
% Begin plot #2
%pm3d_map_begin
stroke
LTb
0.00 0.50 0.00 C %pm3d_map_end
0.500 UL
LTb
0.00 0.50 0.00 C 0.00 0.50 0.00 C 2160 1613 M
1113 22 V
2193 1791 L
-33 -178 V
% End plot #2
% Begin plot #3
%pm3d_map_begin
stroke
LTb
1.00 0.00 0.00 C %pm3d_map_end
0.500 UL
LTb
1.00 0.00 0.00 C 1.00 0.00 0.00 C 3273 1635 M
1113 22 V
3306 1813 L
-33 -178 V
% End plot #3
% Begin plot #4
%pm3d_map_begin
stroke
LTb
0.00 0.75 0.75 C %pm3d_map_end
0.500 UL
LTb
0.00 0.75 0.75 C 0.00 0.75 0.75 C 4386 1657 M
742 15 V
-710 163 V
-32 -178 V
% End plot #4
% Begin plot #5
%pm3d_map_begin
stroke
LTb
0.75 0.00 0.75 C %pm3d_map_end
0.500 UL
LTb
0.75 0.00 0.75 C 0.75 0.00 0.75 C 2160 1613 M
33 178 V
-742 -14 V
709 -164 V
% End plot #5
% Begin plot #6
%pm3d_map_begin
stroke
LTb
0.75 0.75 0.00 C %pm3d_map_end
0.500 UL
LTb
0.75 0.75 0.00 C 0.75 0.75 0.00 C 3273 1635 M
33 178 V
2193 1791 L
3273 1635 L
% End plot #6
% Begin plot #7
%pm3d_map_begin
stroke
LTb
0.25 0.25 0.25 C %pm3d_map_end
0.500 UL
LTb
0.25 0.25 0.25 C 0.25 0.25 0.25 C 4386 1657 M
32 178 V
3306 1813 L
4386 1657 L
% End plot #7
% Begin plot #8
%pm3d_map_begin
stroke
LTb
0.00 0.00 1.00 C %pm3d_map_end
0.500 UL
LTb
0.00 0.00 1.00 C 0.00 0.00 1.00 C 5128 1672 M
32 178 V
-742 -15 V
710 -163 V
% End plot #8
% Begin plot #9
%pm3d_map_begin
stroke
LTb
0.00 0.50 0.00 C %pm3d_map_end
0.500 UL
LTb
0.00 0.50 0.00 C 0.00 0.50 0.00 C 1451 1777 M
742 14 V
-710 164 V
-32 -178 V
% End plot #9
% Begin plot #10
%pm3d_map_begin
stroke
LTb
1.00 0.00 0.00 C %pm3d_map_end
0.500 UL
LTb
1.00 0.00 0.00 C 1.00 0.00 0.00 C 2193 1791 M
1113 22 V
2226 1969 L
-33 -178 V
% End plot #10
% Begin plot #11
%pm3d_map_begin
stroke
LTb
0.00 0.75 0.75 C %pm3d_map_end
0.500 UL
LTb
0.00 0.75 0.75 C 0.00 0.75 0.75 C 3306 1813 M
1112 22 V
3339 1991 L
-33 -178 V
% End plot #11
% Begin plot #12
%pm3d_map_begin
stroke
LTb
0.75 0.00 0.75 C %pm3d_map_end
0.500 UL
LTb
0.75 0.00 0.75 C 0.75 0.00 0.75 C 4418 1835 M
742 15 V
-709 163 V
-33 -178 V
% End plot #12
% Begin plot #13
%pm3d_map_begin
stroke
LTb
0.75 0.75 0.00 C %pm3d_map_end
0.500 UL
LTb
0.75 0.75 0.00 C 0.75 0.75 0.00 C 2193 1791 M
33 178 V
-743 -14 V
710 -164 V
% End plot #13
% Begin plot #14
%pm3d_map_begin
stroke
LTb
0.25 0.25 0.25 C %pm3d_map_end
0.500 UL
LTb
0.25 0.25 0.25 C 0.25 0.25 0.25 C 3306 1813 M
33 178 V
2226 1969 L
3306 1813 L
% End plot #14
% Begin plot #15
%pm3d_map_begin
stroke
LTb
0.00 0.00 1.00 C %pm3d_map_end
0.500 UL
LTb
0.00 0.00 1.00 C 0.00 0.00 1.00 C 4418 1835 M
33 178 V
3339 1991 L
4418 1835 L
% End plot #15
% Begin plot #16
%pm3d_map_begin
stroke
LTb
0.00 0.50 0.00 C %pm3d_map_end
0.500 UL
LTb
0.00 0.50 0.00 C 0.00 0.50 0.00 C 5160 1850 M
33 178 V
-742 -15 V
709 -163 V
% End plot #16
% Begin plot #17
%pm3d_map_begin
stroke
LTb
1.00 0.00 0.00 C %pm3d_map_end
0.500 UL
LTb
1.00 0.00 0.00 C 1.00 0.00 0.00 C 1483 1955 M
743 14 V
-677 143 V
-66 -157 V
% End plot #17
% Begin plot #18
%pm3d_map_begin
stroke
LTb
0.00 0.75 0.75 C %pm3d_map_end
0.500 UL
LTb
0.00 0.75 0.75 C 0.00 0.75 0.75 C 2226 1969 M
1113 22 V
2291 2127 L
-65 -158 V
% End plot #18
% Begin plot #19
%pm3d_map_begin
stroke
LTb
0.75 0.00 0.75 C %pm3d_map_end
0.500 UL
LTb
0.75 0.00 0.75 C 0.75 0.00 0.75 C 3339 1991 M
1112 22 V
3404 2149 L
-65 -158 V
% End plot #19
% Begin plot #20
%pm3d_map_begin
stroke
LTb
0.75 0.75 0.00 C %pm3d_map_end
0.500 UL
LTb
0.75 0.75 0.00 C 0.75 0.75 0.00 C 4451 2013 M
742 15 V
-677 143 V
-65 -158 V
% End plot #20
% Begin plot #21
%pm3d_map_begin
stroke
LTb
0.25 0.25 0.25 C %pm3d_map_end
0.500 UL
LTb
0.25 0.25 0.25 C 0.25 0.25 0.25 C 2226 1969 M
65 158 V
-742 -15 V
677 -143 V
% End plot #21
% Begin plot #22
%pm3d_map_begin
stroke
LTb
0.00 0.00 1.00 C %pm3d_map_end
0.500 UL
LTb
0.00 0.00 1.00 C 0.00 0.00 1.00 C 3339 1991 M
65 158 V
2291 2127 L
3339 1991 L
% End plot #22
% Begin plot #23
%pm3d_map_begin
stroke
LTb
0.00 0.50 0.00 C %pm3d_map_end
0.500 UL
LTb
0.00 0.50 0.00 C 0.00 0.50 0.00 C 4451 2013 M
65 158 V
3404 2149 L
4451 2013 L
% End plot #23
% Begin plot #24
%pm3d_map_begin
stroke
LTb
1.00 0.00 0.00 C %pm3d_map_end
0.500 UL
LTb
1.00 0.00 0.00 C 1.00 0.00 0.00 C 5193 2028 M
66 157 V
-743 -14 V
677 -143 V
% End plot #24
% Begin plot #25
%pm3d_map_begin
stroke
LTb
0.00 0.75 0.75 C %pm3d_map_end
0.500 UL
LTb
0.00 0.75 0.75 C 0.00 0.75 0.75 C 1549 2112 M
742 15 V
-677 142 V
-65 -157 V
% End plot #25
% Begin plot #26
%pm3d_map_begin
stroke
LTb
0.75 0.00 0.75 C %pm3d_map_end
0.500 UL
LTb
0.75 0.00 0.75 C 0.75 0.00 0.75 C 2291 2127 M
1113 22 V
2356 2284 L
-65 -157 V
% End plot #26
% Begin plot #27
%pm3d_map_begin
stroke
LTb
0.75 0.75 0.00 C %pm3d_map_end
0.500 UL
LTb
0.75 0.75 0.00 C 0.75 0.75 0.00 C 3404 2149 M
1112 22 V
3470 2306 L
-66 -157 V
% End plot #27
% Begin plot #28
%pm3d_map_begin
stroke
LTb
0.25 0.25 0.25 C %pm3d_map_end
0.500 UL
LTb
0.25 0.25 0.25 C 0.25 0.25 0.25 C 4516 2171 M
743 14 V
-677 143 V
-66 -157 V
% End plot #28
% Begin plot #29
%pm3d_map_begin
stroke
LTb
0.00 0.00 1.00 C %pm3d_map_end
0.500 UL
LTb
0.00 0.00 1.00 C 0.00 0.00 1.00 C 2291 2127 M
65 157 V
-742 -15 V
677 -142 V
% End plot #29
% Begin plot #30
%pm3d_map_begin
stroke
LTb
0.00 0.50 0.00 C %pm3d_map_end
0.500 UL
LTb
0.00 0.50 0.00 C 0.00 0.50 0.00 C 3404 2149 M
66 157 V
2356 2284 L
3404 2149 L
% End plot #30
% Begin plot #31
%pm3d_map_begin
stroke
LTb
1.00 0.00 0.00 C %pm3d_map_end
0.500 UL
LTb
1.00 0.00 0.00 C 1.00 0.00 0.00 C 4516 2171 M
66 157 V
3470 2306 L
4516 2171 L
% End plot #31
% Begin plot #32
%pm3d_map_begin
stroke
LTb
0.00 0.75 0.75 C %pm3d_map_end
0.500 UL
LTb
0.00 0.75 0.75 C 0.00 0.75 0.75 C 5259 2185 M
65 157 V
-742 -14 V
677 -143 V
% End plot #32
% Begin plot #33
%pm3d_map_begin
stroke
LTb
0.75 0.00 0.75 C %pm3d_map_end
0.500 UL
LTb
0.75 0.00 0.75 C 0.75 0.00 0.75 C 1614 2269 M
742 15 V
-611 300 V
1614 2269 L
% End plot #33
% Begin plot #34
%pm3d_map_begin
stroke
LTb
0.75 0.75 0.00 C %pm3d_map_end
0.500 UL
LTb
0.75 0.75 0.00 C 0.75 0.75 0.00 C 2356 2284 M
1114 22 V
-983 293 V
2356 2284 L
% End plot #34
% Begin plot #35
%pm3d_map_begin
stroke
LTb
0.25 0.25 0.25 C %pm3d_map_end
0.500 UL
LTb
0.25 0.25 0.25 C 0.25 0.25 0.25 C 3470 2306 M
1112 22 V
-982 292 V
3470 2306 L
% End plot #35
% Begin plot #36
%pm3d_map_begin
stroke
LTb
0.00 0.00 1.00 C %pm3d_map_end
0.500 UL
LTb
0.00 0.00 1.00 C 0.00 0.00 1.00 C 4582 2328 M
742 14 V
-611 299 V
4582 2328 L
% End plot #36
% Begin plot #37
%pm3d_map_begin
stroke
LTb
0.00 0.50 0.00 C %pm3d_map_end
0.500 UL
LTb
0.00 0.50 0.00 C 0.00 0.50 0.00 C 2356 2284 M
131 315 V
-742 -15 V
611 -300 V
% End plot #37
% Begin plot #38
%pm3d_map_begin
stroke
LTb
1.00 0.00 0.00 C %pm3d_map_end
0.500 UL
LTb
1.00 0.00 0.00 C 1.00 0.00 0.00 C 3470 2306 M
130 314 V
2487 2599 L
983 -293 V
% End plot #38
% Begin plot #39
%pm3d_map_begin
stroke
LTb
0.00 0.75 0.75 C %pm3d_map_end
0.500 UL
LTb
0.00 0.75 0.75 C 0.00 0.75 0.75 C 4582 2328 M
131 313 V
3600 2620 L
982 -292 V
% End plot #39
% Begin plot #40
%pm3d_map_begin
stroke
LTb
0.75 0.00 0.75 C %pm3d_map_end
0.500 UL
LTb
0.75 0.00 0.75 C 0.75 0.00 0.75 C 5324 2342 M
131 314 V
-742 -15 V
611 -299 V
% End plot #40
% Begin plot #41
%pm3d_map_begin
stroke
LTb
0.75 0.75 0.00 C %pm3d_map_end
0.500 UL
LTb
0.75 0.75 0.00 C 0.75 0.75 0.00 C 1745 2584 M
742 15 V
-611 299 V
1745 2584 L
% End plot #41
% Begin plot #42
%pm3d_map_begin
stroke
LTb
0.25 0.25 0.25 C %pm3d_map_end
0.500 UL
LTb
0.25 0.25 0.25 C 0.25 0.25 0.25 C 2487 2599 M
1113 21 V
-982 292 V
2487 2599 L
% End plot #42
% Begin plot #43
%pm3d_map_begin
stroke
LTb
0.00 0.00 1.00 C %pm3d_map_end
0.500 UL
LTb
0.00 0.00 1.00 C 0.00 0.00 1.00 C 3600 2620 M
1113 21 V
-983 293 V
3600 2620 L
% End plot #43
% Begin plot #44
%pm3d_map_begin
stroke
LTb
0.00 0.50 0.00 C %pm3d_map_end
0.500 UL
LTb
0.00 0.50 0.00 C 0.00 0.50 0.00 C 4713 2641 M
742 15 V
-611 300 V
4713 2641 L
% End plot #44
% Begin plot #45
%pm3d_map_begin
stroke
LTb
1.00 0.00 0.00 C %pm3d_map_end
0.500 UL
LTb
1.00 0.00 0.00 C 1.00 0.00 0.00 C 2487 2599 M
131 313 V
-742 -14 V
611 -299 V
% End plot #45
% Begin plot #46
%pm3d_map_begin
stroke
LTb
0.00 0.75 0.75 C %pm3d_map_end
0.500 UL
LTb
0.00 0.75 0.75 C 0.00 0.75 0.75 C 3600 2620 M
130 314 V
2618 2912 L
982 -292 V
% End plot #46
% Begin plot #47
%pm3d_map_begin
stroke
LTb
0.75 0.00 0.75 C %pm3d_map_end
0.500 UL
LTb
0.75 0.00 0.75 C 0.75 0.00 0.75 C 4713 2641 M
131 315 V
3730 2934 L
983 -293 V
% End plot #47
% Begin plot #48
%pm3d_map_begin
stroke
LTb
0.75 0.75 0.00 C %pm3d_map_end
0.500 UL
LTb
0.75 0.75 0.00 C 0.75 0.75 0.00 C 5455 2656 M
131 315 V
-742 -15 V
611 -300 V
% End plot #48
% Begin plot #49
%pm3d_map_begin
stroke
LTb
0.25 0.25 0.25 C %pm3d_map_end
0.500 UL
LTb
0.25 0.25 0.25 C 0.25 0.25 0.25 C 1876 2898 M
742 14 V
-677 143 V
-65 -157 V
% End plot #49
% Begin plot #50
%pm3d_map_begin
stroke
LTb
0.00 0.00 1.00 C %pm3d_map_end
0.500 UL
LTb
0.00 0.00 1.00 C 0.00 0.00 1.00 C 2618 2912 M
1112 22 V
2684 3069 L
-66 -157 V
% End plot #50
% Begin plot #51
%pm3d_map_begin
stroke
LTb
0.00 0.50 0.00 C %pm3d_map_end
0.500 UL
LTb
0.00 0.50 0.00 C 0.00 0.50 0.00 C 3730 2934 M
1114 22 V
3796 3091 L
-66 -157 V
% End plot #51
% Begin plot #52
%pm3d_map_begin
stroke
LTb
1.00 0.00 0.00 C %pm3d_map_end
0.500 UL
LTb
1.00 0.00 0.00 C 1.00 0.00 0.00 C 4844 2956 M
742 15 V
-677 142 V
-65 -157 V
% End plot #52
% Begin plot #53
%pm3d_map_begin
stroke
LTb
0.00 0.75 0.75 C %pm3d_map_end
0.500 UL
LTb
0.00 0.75 0.75 C 0.00 0.75 0.75 C 2618 2912 M
66 157 V
-743 -14 V
677 -143 V
% End plot #53
% Begin plot #54
%pm3d_map_begin
stroke
LTb
0.75 0.00 0.75 C %pm3d_map_end
0.500 UL
LTb
0.75 0.00 0.75 C 0.75 0.00 0.75 C 3730 2934 M
66 157 V
2684 3069 L
3730 2934 L
% End plot #54
% Begin plot #55
%pm3d_map_begin
stroke
LTb
0.75 0.75 0.00 C %pm3d_map_end
0.500 UL
LTb
0.75 0.75 0.00 C 0.75 0.75 0.00 C 4844 2956 M
65 157 V
3796 3091 L
4844 2956 L
% End plot #55
% Begin plot #56
%pm3d_map_begin
stroke
LTb
0.25 0.25 0.25 C %pm3d_map_end
0.500 UL
LTb
0.25 0.25 0.25 C 0.25 0.25 0.25 C 5586 2971 M
65 157 V
-742 -15 V
677 -142 V
% End plot #56
% Begin plot #57
%pm3d_map_begin
stroke
LTb
0.00 0.00 1.00 C %pm3d_map_end
0.500 UL
LTb
0.00 0.00 1.00 C 0.00 0.00 1.00 C 1941 3055 M
743 14 V
-677 143 V
-66 -157 V
% End plot #57
% Begin plot #58
%pm3d_map_begin
stroke
LTb
0.00 0.50 0.00 C %pm3d_map_end
0.500 UL
LTb
0.00 0.50 0.00 C 0.00 0.50 0.00 C 2684 3069 M
1112 22 V
2749 3227 L
-65 -158 V
% End plot #58
% Begin plot #59
%pm3d_map_begin
stroke
LTb
1.00 0.00 0.00 C %pm3d_map_end
0.500 UL
LTb
1.00 0.00 0.00 C 1.00 0.00 0.00 C 3796 3091 M
1113 22 V
3861 3249 L
-65 -158 V
% End plot #59
% Begin plot #60
%pm3d_map_begin
stroke
LTb
0.00 0.75 0.75 C %pm3d_map_end
0.500 UL
LTb
0.00 0.75 0.75 C 0.00 0.75 0.75 C 4909 3113 M
742 15 V
-677 143 V
-65 -158 V
% End plot #60
% Begin plot #61
%pm3d_map_begin
stroke
LTb
0.75 0.00 0.75 C %pm3d_map_end
0.500 UL
LTb
0.75 0.00 0.75 C 0.75 0.00 0.75 C 2684 3069 M
65 158 V
-742 -15 V
677 -143 V
% End plot #61
% Begin plot #62
%pm3d_map_begin
stroke
LTb
0.75 0.75 0.00 C %pm3d_map_end
0.500 UL
LTb
0.75 0.75 0.00 C 0.75 0.75 0.00 C 3796 3091 M
65 158 V
2749 3227 L
3796 3091 L
% End plot #62
% Begin plot #63
%pm3d_map_begin
stroke
LTb
0.25 0.25 0.25 C %pm3d_map_end
0.500 UL
LTb
0.25 0.25 0.25 C 0.25 0.25 0.25 C 4909 3113 M
65 158 V
3861 3249 L
4909 3113 L
% End plot #63
% Begin plot #64
%pm3d_map_begin
stroke
LTb
0.00 0.00 1.00 C %pm3d_map_end
0.500 UL
LTb
0.00 0.00 1.00 C 0.00 0.00 1.00 C 5651 3128 M
66 157 V
-743 -14 V
677 -143 V
% End plot #64
% Begin plot #65
%pm3d_map_begin
stroke
LTb
0.00 0.50 0.00 C %pm3d_map_end
0.500 UL
LTb
0.00 0.50 0.00 C 0.00 0.50 0.00 C 2007 3212 M
742 15 V
-709 163 V
-33 -178 V
% End plot #65
% Begin plot #66
%pm3d_map_begin
stroke
LTb
1.00 0.00 0.00 C %pm3d_map_end
0.500 UL
LTb
1.00 0.00 0.00 C 1.00 0.00 0.00 C 2749 3227 M
1112 22 V
2782 3405 L
-33 -178 V
% End plot #66
% Begin plot #67
%pm3d_map_begin
stroke
LTb
0.00 0.75 0.75 C %pm3d_map_end
0.500 UL
LTb
0.00 0.75 0.75 C 0.00 0.75 0.75 C 3861 3249 M
1113 22 V
3894 3427 L
-33 -178 V
% End plot #67
% Begin plot #68
%pm3d_map_begin
stroke
LTb
0.75 0.00 0.75 C %pm3d_map_end
0.500 UL
LTb
0.75 0.00 0.75 C 0.75 0.00 0.75 C 4974 3271 M
743 14 V
-710 164 V
-33 -178 V
% End plot #68
% Begin plot #69
%pm3d_map_begin
stroke
LTb
0.75 0.75 0.00 C %pm3d_map_end
0.500 UL
LTb
0.75 0.75 0.00 C 0.75 0.75 0.00 C 2749 3227 M
33 178 V
-742 -15 V
709 -163 V
% End plot #69
% Begin plot #70
%pm3d_map_begin
stroke
LTb
0.25 0.25 0.25 C %pm3d_map_end
0.500 UL
LTb
0.25 0.25 0.25 C 0.25 0.25 0.25 C 3861 3249 M
33 178 V
2782 3405 L
3861 3249 L
% End plot #70
% Begin plot #71
%pm3d_map_begin
stroke
LTb
0.00 0.00 1.00 C %pm3d_map_end
0.500 UL
LTb
0.00 0.00 1.00 C 0.00 0.00 1.00 C 4974 3271 M
33 178 V
3894 3427 L
4974 3271 L
% End plot #71
% Begin plot #72
%pm3d_map_begin
stroke
LTb
0.00 0.50 0.00 C %pm3d_map_end
0.500 UL
LTb
0.00 0.50 0.00 C 0.00 0.50 0.00 C 5717 3285 M
32 178 V
-742 -14 V
710 -164 V
% End plot #72
% Begin plot #73
%pm3d_map_begin
stroke
LTb
1.00 0.00 0.00 C %pm3d_map_end
0.500 UL
LTb
1.00 0.00 0.00 C 1.00 0.00 0.00 C 2040 3390 M
742 15 V
-710 163 V
-32 -178 V
% End plot #73
% Begin plot #74
%pm3d_map_begin
stroke
LTb
0.00 0.75 0.75 C %pm3d_map_end
0.500 UL
LTb
0.00 0.75 0.75 C 0.00 0.75 0.75 C 2782 3405 M
1112 22 V
2814 3583 L
-32 -178 V
% End plot #74
% Begin plot #75
%pm3d_map_begin
stroke
LTb
0.75 0.00 0.75 C %pm3d_map_end
0.500 UL
LTb
0.75 0.00 0.75 C 0.75 0.00 0.75 C 3894 3427 M
1113 22 V
3927 3605 L
-33 -178 V
% End plot #75
% Begin plot #76
%pm3d_map_begin
stroke
LTb
0.75 0.75 0.00 C %pm3d_map_end
0.500 UL
LTb
0.75 0.75 0.00 C 0.75 0.75 0.00 C 5007 3449 M
742 14 V
-709 164 V
-33 -178 V
% End plot #76
% Begin plot #77
%pm3d_map_begin
stroke
LTb
0.25 0.25 0.25 C %pm3d_map_end
0.500 UL
LTb
0.25 0.25 0.25 C 0.25 0.25 0.25 C 2782 3405 M
32 178 V
-742 -15 V
710 -163 V
% End plot #77
% Begin plot #78
%pm3d_map_begin
stroke
LTb
0.00 0.00 1.00 C %pm3d_map_end
0.500 UL
LTb
0.00 0.00 1.00 C 0.00 0.00 1.00 C 3894 3427 M
33 178 V
2814 3583 L
3894 3427 L
% End plot #78
% Begin plot #79
%pm3d_map_begin
stroke
LTb
0.00 0.50 0.00 C %pm3d_map_end
0.500 UL
LTb
0.00 0.50 0.00 C 0.00 0.50 0.00 C 5007 3449 M
33 178 V
3927 3605 L
5007 3449 L
% End plot #79
% Begin plot #80
%pm3d_map_begin
stroke
LTb
1.00 0.00 0.00 C %pm3d_map_end
0.500 UL
LTb
1.00 0.00 0.00 C 1.00 0.00 0.00 C 5749 3463 M
33 178 V
-742 -14 V
709 -164 V
% End plot #80
stroke
LTb
LCb setrgbcolor
5782 1258 M
2072 1185 L
stroke
LTb
LCb setrgbcolor
1418 1599 M
654 -414 V
stroke
LTb
LCb setrgbcolor
2072 1185 M
0 2383 V
stroke
LTb
LCb setrgbcolor
1418 3982 M
654 -414 V
stroke
LTb
LCb setrgbcolor
5782 3641 M
2072 3568 L
1.000 UP
stroke
grestore % colour palette end
stroke
grestore
end
showpage
%%Trailer
%%DocumentFonts: Helvetica
