%!PS-Adobe-2.0 EPSF-2.0
%%Title: griddata.eps
%%Creator: gnuplot 5.0 patchlevel 2
%%CreationDate: Fri Jul  1 14:57:35 2016
%%DocumentFonts: (atend)
%%BoundingBox: 50 50 410 302
%%EndComments
%%BeginProlog
/gnudict 256 dict def
gnudict begin
%
% The following true/false flags may be edited by hand if desired.
% The unit line width and grayscale image gamma correction may also be changed.
%
/Color true def
/Blacktext false def
/Solid false def
/Dashlength 2 def
/Landscape false def
/Level1 false def
/Level3 false def
/Rounded false def
/ClipToBoundingBox false def
/SuppressPDFMark false def
/TransparentPatterns false def
/gnulinewidth 5.000 def
/userlinewidth gnulinewidth def
/Gamma 1.0 def
/BackgroundColor {-1.000 -1.000 -1.000} def
%
/vshift -66 def
/dl1 {
  10.0 Dashlength userlinewidth gnulinewidth div mul mul mul
  Rounded { currentlinewidth 0.75 mul sub dup 0 le { pop 0.01 } if } if
} def
/dl2 {
  10.0 Dashlength userlinewidth gnulinewidth div mul mul mul
  Rounded { currentlinewidth 0.75 mul add } if
} def
/hpt_ 31.5 def
/vpt_ 31.5 def
/hpt hpt_ def
/vpt vpt_ def
/doclip {
  ClipToBoundingBox {
    newpath 50 50 moveto 410 50 lineto 410 302 lineto 50 302 lineto closepath
    clip
  } if
} def
%
% Gnuplot Prolog Version 5.1 (Oct 2015)
%
%/SuppressPDFMark true def
%
/M {moveto} bind def
/L {lineto} bind def
/R {rmoveto} bind def
/V {rlineto} bind def
/N {newpath moveto} bind def
/Z {closepath} bind def
/C {setrgbcolor} bind def
/f {rlineto fill} bind def
/g {setgray} bind def
/Gshow {show} def   % May be redefined later in the file to support UTF-8
/vpt2 vpt 2 mul def
/hpt2 hpt 2 mul def
/Lshow {currentpoint stroke M 0 vshift R 
	Blacktext {gsave 0 setgray textshow grestore} {textshow} ifelse} def
/Rshow {currentpoint stroke M dup stringwidth pop neg vshift R
	Blacktext {gsave 0 setgray textshow grestore} {textshow} ifelse} def
/Cshow {currentpoint stroke M dup stringwidth pop -2 div vshift R 
	Blacktext {gsave 0 setgray textshow grestore} {textshow} ifelse} def
/UP {dup vpt_ mul /vpt exch def hpt_ mul /hpt exch def
  /hpt2 hpt 2 mul def /vpt2 vpt 2 mul def} def
/DL {Color {setrgbcolor Solid {pop []} if 0 setdash}
 {pop pop pop 0 setgray Solid {pop []} if 0 setdash} ifelse} def
/BL {stroke userlinewidth 2 mul setlinewidth
	Rounded {1 setlinejoin 1 setlinecap} if} def
/AL {stroke userlinewidth 2 div setlinewidth
	Rounded {1 setlinejoin 1 setlinecap} if} def
/UL {dup gnulinewidth mul /userlinewidth exch def
	dup 1 lt {pop 1} if 10 mul /udl exch def} def
/PL {stroke userlinewidth setlinewidth
	Rounded {1 setlinejoin 1 setlinecap} if} def
3.8 setmiterlimit
% Classic Line colors (version 5.0)
/LCw {1 1 1} def
/LCb {0 0 0} def
/LCa {0 0 0} def
/LC0 {1 0 0} def
/LC1 {0 1 0} def
/LC2 {0 0 1} def
/LC3 {1 0 1} def
/LC4 {0 1 1} def
/LC5 {1 1 0} def
/LC6 {0 0 0} def
/LC7 {1 0.3 0} def
/LC8 {0.5 0.5 0.5} def
% Default dash patterns (version 5.0)
/LTB {BL [] LCb DL} def
/LTw {PL [] 1 setgray} def
/LTb {PL [] LCb DL} def
/LTa {AL [1 udl mul 2 udl mul] 0 setdash LCa setrgbcolor} def
/LT0 {PL [] LC0 DL} def
/LT1 {PL [2 dl1 3 dl2] LC1 DL} def
/LT2 {PL [1 dl1 1.5 dl2] LC2 DL} def
/LT3 {PL [6 dl1 2 dl2 1 dl1 2 dl2] LC3 DL} def
/LT4 {PL [1 dl1 2 dl2 6 dl1 2 dl2 1 dl1 2 dl2] LC4 DL} def
/LT5 {PL [4 dl1 2 dl2] LC5 DL} def
/LT6 {PL [1.5 dl1 1.5 dl2 1.5 dl1 1.5 dl2 1.5 dl1 6 dl2] LC6 DL} def
/LT7 {PL [3 dl1 3 dl2 1 dl1 3 dl2] LC7 DL} def
/LT8 {PL [2 dl1 2 dl2 2 dl1 6 dl2] LC8 DL} def
/SL {[] 0 setdash} def
/Pnt {stroke [] 0 setdash gsave 1 setlinecap M 0 0 V stroke grestore} def
/Dia {stroke [] 0 setdash 2 copy vpt add M
  hpt neg vpt neg V hpt vpt neg V
  hpt vpt V hpt neg vpt V closepath stroke
  Pnt} def
/Pls {stroke [] 0 setdash vpt sub M 0 vpt2 V
  currentpoint stroke M
  hpt neg vpt neg R hpt2 0 V stroke
 } def
/Box {stroke [] 0 setdash 2 copy exch hpt sub exch vpt add M
  0 vpt2 neg V hpt2 0 V 0 vpt2 V
  hpt2 neg 0 V closepath stroke
  Pnt} def
/Crs {stroke [] 0 setdash exch hpt sub exch vpt add M
  hpt2 vpt2 neg V currentpoint stroke M
  hpt2 neg 0 R hpt2 vpt2 V stroke} def
/TriU {stroke [] 0 setdash 2 copy vpt 1.12 mul add M
  hpt neg vpt -1.62 mul V
  hpt 2 mul 0 V
  hpt neg vpt 1.62 mul V closepath stroke
  Pnt} def
/Star {2 copy Pls Crs} def
/BoxF {stroke [] 0 setdash exch hpt sub exch vpt add M
  0 vpt2 neg V hpt2 0 V 0 vpt2 V
  hpt2 neg 0 V closepath fill} def
/TriUF {stroke [] 0 setdash vpt 1.12 mul add M
  hpt neg vpt -1.62 mul V
  hpt 2 mul 0 V
  hpt neg vpt 1.62 mul V closepath fill} def
/TriD {stroke [] 0 setdash 2 copy vpt 1.12 mul sub M
  hpt neg vpt 1.62 mul V
  hpt 2 mul 0 V
  hpt neg vpt -1.62 mul V closepath stroke
  Pnt} def
/TriDF {stroke [] 0 setdash vpt 1.12 mul sub M
  hpt neg vpt 1.62 mul V
  hpt 2 mul 0 V
  hpt neg vpt -1.62 mul V closepath fill} def
/DiaF {stroke [] 0 setdash vpt add M
  hpt neg vpt neg V hpt vpt neg V
  hpt vpt V hpt neg vpt V closepath fill} def
/Pent {stroke [] 0 setdash 2 copy gsave
  translate 0 hpt M 4 {72 rotate 0 hpt L} repeat
  closepath stroke grestore Pnt} def
/PentF {stroke [] 0 setdash gsave
  translate 0 hpt M 4 {72 rotate 0 hpt L} repeat
  closepath fill grestore} def
/Circle {stroke [] 0 setdash 2 copy
  hpt 0 360 arc stroke Pnt} def
/CircleF {stroke [] 0 setdash hpt 0 360 arc fill} def
/C0 {BL [] 0 setdash 2 copy moveto vpt 90 450 arc} bind def
/C1 {BL [] 0 setdash 2 copy moveto
	2 copy vpt 0 90 arc closepath fill
	vpt 0 360 arc closepath} bind def
/C2 {BL [] 0 setdash 2 copy moveto
	2 copy vpt 90 180 arc closepath fill
	vpt 0 360 arc closepath} bind def
/C3 {BL [] 0 setdash 2 copy moveto
	2 copy vpt 0 180 arc closepath fill
	vpt 0 360 arc closepath} bind def
/C4 {BL [] 0 setdash 2 copy moveto
	2 copy vpt 180 270 arc closepath fill
	vpt 0 360 arc closepath} bind def
/C5 {BL [] 0 setdash 2 copy moveto
	2 copy vpt 0 90 arc
	2 copy moveto
	2 copy vpt 180 270 arc closepath fill
	vpt 0 360 arc} bind def
/C6 {BL [] 0 setdash 2 copy moveto
	2 copy vpt 90 270 arc closepath fill
	vpt 0 360 arc closepath} bind def
/C7 {BL [] 0 setdash 2 copy moveto
	2 copy vpt 0 270 arc closepath fill
	vpt 0 360 arc closepath} bind def
/C8 {BL [] 0 setdash 2 copy moveto
	2 copy vpt 270 360 arc closepath fill
	vpt 0 360 arc closepath} bind def
/C9 {BL [] 0 setdash 2 copy moveto
	2 copy vpt 270 450 arc closepath fill
	vpt 0 360 arc closepath} bind def
/C10 {BL [] 0 setdash 2 copy 2 copy moveto vpt 270 360 arc closepath fill
	2 copy moveto
	2 copy vpt 90 180 arc closepath fill
	vpt 0 360 arc closepath} bind def
/C11 {BL [] 0 setdash 2 copy moveto
	2 copy vpt 0 180 arc closepath fill
	2 copy moveto
	2 copy vpt 270 360 arc closepath fill
	vpt 0 360 arc closepath} bind def
/C12 {BL [] 0 setdash 2 copy moveto
	2 copy vpt 180 360 arc closepath fill
	vpt 0 360 arc closepath} bind def
/C13 {BL [] 0 setdash 2 copy moveto
	2 copy vpt 0 90 arc closepath fill
	2 copy moveto
	2 copy vpt 180 360 arc closepath fill
	vpt 0 360 arc closepath} bind def
/C14 {BL [] 0 setdash 2 copy moveto
	2 copy vpt 90 360 arc closepath fill
	vpt 0 360 arc} bind def
/C15 {BL [] 0 setdash 2 copy vpt 0 360 arc closepath fill
	vpt 0 360 arc closepath} bind def
/Rec {newpath 4 2 roll moveto 1 index 0 rlineto 0 exch rlineto
	neg 0 rlineto closepath} bind def
/Square {dup Rec} bind def
/Bsquare {vpt sub exch vpt sub exch vpt2 Square} bind def
/S0 {BL [] 0 setdash 2 copy moveto 0 vpt rlineto BL Bsquare} bind def
/S1 {BL [] 0 setdash 2 copy vpt Square fill Bsquare} bind def
/S2 {BL [] 0 setdash 2 copy exch vpt sub exch vpt Square fill Bsquare} bind def
/S3 {BL [] 0 setdash 2 copy exch vpt sub exch vpt2 vpt Rec fill Bsquare} bind def
/S4 {BL [] 0 setdash 2 copy exch vpt sub exch vpt sub vpt Square fill Bsquare} bind def
/S5 {BL [] 0 setdash 2 copy 2 copy vpt Square fill
	exch vpt sub exch vpt sub vpt Square fill Bsquare} bind def
/S6 {BL [] 0 setdash 2 copy exch vpt sub exch vpt sub vpt vpt2 Rec fill Bsquare} bind def
/S7 {BL [] 0 setdash 2 copy exch vpt sub exch vpt sub vpt vpt2 Rec fill
	2 copy vpt Square fill Bsquare} bind def
/S8 {BL [] 0 setdash 2 copy vpt sub vpt Square fill Bsquare} bind def
/S9 {BL [] 0 setdash 2 copy vpt sub vpt vpt2 Rec fill Bsquare} bind def
/S10 {BL [] 0 setdash 2 copy vpt sub vpt Square fill 2 copy exch vpt sub exch vpt Square fill
	Bsquare} bind def
/S11 {BL [] 0 setdash 2 copy vpt sub vpt Square fill 2 copy exch vpt sub exch vpt2 vpt Rec fill
	Bsquare} bind def
/S12 {BL [] 0 setdash 2 copy exch vpt sub exch vpt sub vpt2 vpt Rec fill Bsquare} bind def
/S13 {BL [] 0 setdash 2 copy exch vpt sub exch vpt sub vpt2 vpt Rec fill
	2 copy vpt Square fill Bsquare} bind def
/S14 {BL [] 0 setdash 2 copy exch vpt sub exch vpt sub vpt2 vpt Rec fill
	2 copy exch vpt sub exch vpt Square fill Bsquare} bind def
/S15 {BL [] 0 setdash 2 copy Bsquare fill Bsquare} bind def
/D0 {gsave translate 45 rotate 0 0 S0 stroke grestore} bind def
/D1 {gsave translate 45 rotate 0 0 S1 stroke grestore} bind def
/D2 {gsave translate 45 rotate 0 0 S2 stroke grestore} bind def
/D3 {gsave translate 45 rotate 0 0 S3 stroke grestore} bind def
/D4 {gsave translate 45 rotate 0 0 S4 stroke grestore} bind def
/D5 {gsave translate 45 rotate 0 0 S5 stroke grestore} bind def
/D6 {gsave translate 45 rotate 0 0 S6 stroke grestore} bind def
/D7 {gsave translate 45 rotate 0 0 S7 stroke grestore} bind def
/D8 {gsave translate 45 rotate 0 0 S8 stroke grestore} bind def
/D9 {gsave translate 45 rotate 0 0 S9 stroke grestore} bind def
/D10 {gsave translate 45 rotate 0 0 S10 stroke grestore} bind def
/D11 {gsave translate 45 rotate 0 0 S11 stroke grestore} bind def
/D12 {gsave translate 45 rotate 0 0 S12 stroke grestore} bind def
/D13 {gsave translate 45 rotate 0 0 S13 stroke grestore} bind def
/D14 {gsave translate 45 rotate 0 0 S14 stroke grestore} bind def
/D15 {gsave translate 45 rotate 0 0 S15 stroke grestore} bind def
/DiaE {stroke [] 0 setdash vpt add M
  hpt neg vpt neg V hpt vpt neg V
  hpt vpt V hpt neg vpt V closepath stroke} def
/BoxE {stroke [] 0 setdash exch hpt sub exch vpt add M
  0 vpt2 neg V hpt2 0 V 0 vpt2 V
  hpt2 neg 0 V closepath stroke} def
/TriUE {stroke [] 0 setdash vpt 1.12 mul add M
  hpt neg vpt -1.62 mul V
  hpt 2 mul 0 V
  hpt neg vpt 1.62 mul V closepath stroke} def
/TriDE {stroke [] 0 setdash vpt 1.12 mul sub M
  hpt neg vpt 1.62 mul V
  hpt 2 mul 0 V
  hpt neg vpt -1.62 mul V closepath stroke} def
/PentE {stroke [] 0 setdash gsave
  translate 0 hpt M 4 {72 rotate 0 hpt L} repeat
  closepath stroke grestore} def
/CircE {stroke [] 0 setdash 
  hpt 0 360 arc stroke} def
/Opaque {gsave closepath 1 setgray fill grestore 0 setgray closepath} def
/DiaW {stroke [] 0 setdash vpt add M
  hpt neg vpt neg V hpt vpt neg V
  hpt vpt V hpt neg vpt V Opaque stroke} def
/BoxW {stroke [] 0 setdash exch hpt sub exch vpt add M
  0 vpt2 neg V hpt2 0 V 0 vpt2 V
  hpt2 neg 0 V Opaque stroke} def
/TriUW {stroke [] 0 setdash vpt 1.12 mul add M
  hpt neg vpt -1.62 mul V
  hpt 2 mul 0 V
  hpt neg vpt 1.62 mul V Opaque stroke} def
/TriDW {stroke [] 0 setdash vpt 1.12 mul sub M
  hpt neg vpt 1.62 mul V
  hpt 2 mul 0 V
  hpt neg vpt -1.62 mul V Opaque stroke} def
/PentW {stroke [] 0 setdash gsave
  translate 0 hpt M 4 {72 rotate 0 hpt L} repeat
  Opaque stroke grestore} def
/CircW {stroke [] 0 setdash 
  hpt 0 360 arc Opaque stroke} def
/BoxFill {gsave Rec 1 setgray fill grestore} def
/Density {
  /Fillden exch def
  currentrgbcolor
  /ColB exch def /ColG exch def /ColR exch def
  /ColR ColR Fillden mul Fillden sub 1 add def
  /ColG ColG Fillden mul Fillden sub 1 add def
  /ColB ColB Fillden mul Fillden sub 1 add def
  ColR ColG ColB setrgbcolor} def
/BoxColFill {gsave Rec PolyFill} def
/PolyFill {gsave Density fill grestore grestore} def
/h {rlineto rlineto rlineto gsave closepath fill grestore} bind def
%
% PostScript Level 1 Pattern Fill routine for rectangles
% Usage: x y w h s a XX PatternFill
%	x,y = lower left corner of box to be filled
%	w,h = width and height of box
%	  a = angle in degrees between lines and x-axis
%	 XX = 0/1 for no/yes cross-hatch
%
/PatternFill {gsave /PFa [ 9 2 roll ] def
  PFa 0 get PFa 2 get 2 div add PFa 1 get PFa 3 get 2 div add translate
  PFa 2 get -2 div PFa 3 get -2 div PFa 2 get PFa 3 get Rec
  TransparentPatterns {} {gsave 1 setgray fill grestore} ifelse
  clip
  currentlinewidth 0.5 mul setlinewidth
  /PFs PFa 2 get dup mul PFa 3 get dup mul add sqrt def
  0 0 M PFa 5 get rotate PFs -2 div dup translate
  0 1 PFs PFa 4 get div 1 add floor cvi
	{PFa 4 get mul 0 M 0 PFs V} for
  0 PFa 6 get ne {
	0 1 PFs PFa 4 get div 1 add floor cvi
	{PFa 4 get mul 0 2 1 roll M PFs 0 V} for
 } if
  stroke grestore} def
%
/languagelevel where
 {pop languagelevel} {1} ifelse
dup 2 lt
	{/InterpretLevel1 true def
	 /InterpretLevel3 false def}
	{/InterpretLevel1 Level1 def
	 2 gt
	    {/InterpretLevel3 Level3 def}
	    {/InterpretLevel3 false def}
	 ifelse }
 ifelse
%
% PostScript level 2 pattern fill definitions
%
/Level2PatternFill {
/Tile8x8 {/PaintType 2 /PatternType 1 /TilingType 1 /BBox [0 0 8 8] /XStep 8 /YStep 8}
	bind def
/KeepColor {currentrgbcolor [/Pattern /DeviceRGB] setcolorspace} bind def
<< Tile8x8
 /PaintProc {0.5 setlinewidth pop 0 0 M 8 8 L 0 8 M 8 0 L stroke} 
>> matrix makepattern
/Pat1 exch def
<< Tile8x8
 /PaintProc {0.5 setlinewidth pop 0 0 M 8 8 L 0 8 M 8 0 L stroke
	0 4 M 4 8 L 8 4 L 4 0 L 0 4 L stroke}
>> matrix makepattern
/Pat2 exch def
<< Tile8x8
 /PaintProc {0.5 setlinewidth pop 0 0 M 0 8 L
	8 8 L 8 0 L 0 0 L fill}
>> matrix makepattern
/Pat3 exch def
<< Tile8x8
 /PaintProc {0.5 setlinewidth pop -4 8 M 8 -4 L
	0 12 M 12 0 L stroke}
>> matrix makepattern
/Pat4 exch def
<< Tile8x8
 /PaintProc {0.5 setlinewidth pop -4 0 M 8 12 L
	0 -4 M 12 8 L stroke}
>> matrix makepattern
/Pat5 exch def
<< Tile8x8
 /PaintProc {0.5 setlinewidth pop -2 8 M 4 -4 L
	0 12 M 8 -4 L 4 12 M 10 0 L stroke}
>> matrix makepattern
/Pat6 exch def
<< Tile8x8
 /PaintProc {0.5 setlinewidth pop -2 0 M 4 12 L
	0 -4 M 8 12 L 4 -4 M 10 8 L stroke}
>> matrix makepattern
/Pat7 exch def
<< Tile8x8
 /PaintProc {0.5 setlinewidth pop 8 -2 M -4 4 L
	12 0 M -4 8 L 12 4 M 0 10 L stroke}
>> matrix makepattern
/Pat8 exch def
<< Tile8x8
 /PaintProc {0.5 setlinewidth pop 0 -2 M 12 4 L
	-4 0 M 12 8 L -4 4 M 8 10 L stroke}
>> matrix makepattern
/Pat9 exch def
/Pattern1 {PatternBgnd KeepColor Pat1 setpattern} bind def
/Pattern2 {PatternBgnd KeepColor Pat2 setpattern} bind def
/Pattern3 {PatternBgnd KeepColor Pat3 setpattern} bind def
/Pattern4 {PatternBgnd KeepColor Landscape {Pat5} {Pat4} ifelse setpattern} bind def
/Pattern5 {PatternBgnd KeepColor Landscape {Pat4} {Pat5} ifelse setpattern} bind def
/Pattern6 {PatternBgnd KeepColor Landscape {Pat9} {Pat6} ifelse setpattern} bind def
/Pattern7 {PatternBgnd KeepColor Landscape {Pat8} {Pat7} ifelse setpattern} bind def
} def
%
%
%End of PostScript Level 2 code
%
/PatternBgnd {
  TransparentPatterns {} {gsave 1 setgray fill grestore} ifelse
} def
%
% Substitute for Level 2 pattern fill codes with
% grayscale if Level 2 support is not selected.
%
/Level1PatternFill {
/Pattern1 {0.250 Density} bind def
/Pattern2 {0.500 Density} bind def
/Pattern3 {0.750 Density} bind def
/Pattern4 {0.125 Density} bind def
/Pattern5 {0.375 Density} bind def
/Pattern6 {0.625 Density} bind def
/Pattern7 {0.875 Density} bind def
} def
%
% Now test for support of Level 2 code
%
Level1 {Level1PatternFill} {Level2PatternFill} ifelse
%
/Symbol-Oblique /Symbol findfont [1 0 .167 1 0 0] makefont
dup length dict begin {1 index /FID eq {pop pop} {def} ifelse} forall
currentdict end definefont pop
%
/MFshow {
   { dup 5 get 3 ge
     { 5 get 3 eq {gsave} {grestore} ifelse }
     {dup dup 0 get findfont exch 1 get scalefont setfont
     [ currentpoint ] exch dup 2 get 0 exch R dup 5 get 2 ne {dup dup 6
     get exch 4 get {textshow} {stringwidth pop 0 R} ifelse }if dup 5 get 0 eq
     {dup 3 get {2 get neg 0 exch R pop} {pop aload pop M} ifelse} {dup 5
     get 1 eq {dup 2 get exch dup 3 get exch 6 get stringwidth pop -2 div
     dup 0 R} {dup 6 get stringwidth pop -2 div 0 R 6 get
     textshow 2 index {aload pop M neg 3 -1 roll neg R pop pop} {pop pop pop
     pop aload pop M} ifelse }ifelse }ifelse }
     ifelse }
   forall} def
/Gswidth {dup type /stringtype eq {stringwidth} {pop (n) stringwidth} ifelse} def
/MFwidth {0 exch { dup 5 get 3 ge { 5 get 3 eq { 0 } { pop } ifelse }
 {dup 3 get{dup dup 0 get findfont exch 1 get scalefont setfont
     6 get Gswidth pop add} {pop} ifelse} ifelse} forall} def
/MLshow { currentpoint stroke M
  0 exch R
  Blacktext {gsave 0 setgray MFshow grestore} {MFshow} ifelse } bind def
/MRshow { currentpoint stroke M
  exch dup MFwidth neg 3 -1 roll R
  Blacktext {gsave 0 setgray MFshow grestore} {MFshow} ifelse } bind def
/MCshow { currentpoint stroke M
  exch dup MFwidth -2 div 3 -1 roll R
  Blacktext {gsave 0 setgray MFshow grestore} {MFshow} ifelse } bind def
/XYsave    { [( ) 1 2 true false 3 ()] } bind def
/XYrestore { [( ) 1 2 true false 4 ()] } bind def
Level1 SuppressPDFMark or 
{} {
/SDict 10 dict def
systemdict /pdfmark known not {
  userdict /pdfmark systemdict /cleartomark get put
} if
SDict begin [
  /Title (griddata.eps)
  /Subject (gnuplot plot)
  /Creator (gnuplot 5.0 patchlevel 2)
  /Author (jwe)
%  /Producer (gnuplot)
%  /Keywords ()
  /CreationDate (Fri Jul  1 14:57:35 2016)
  /DOCINFO pdfmark
end
} ifelse
%
% Support for boxed text - Ethan A Merritt May 2005
%
/InitTextBox { userdict /TBy2 3 -1 roll put userdict /TBx2 3 -1 roll put
           userdict /TBy1 3 -1 roll put userdict /TBx1 3 -1 roll put
	   /Boxing true def } def
/ExtendTextBox { Boxing
    { gsave dup false charpath pathbbox
      dup TBy2 gt {userdict /TBy2 3 -1 roll put} {pop} ifelse
      dup TBx2 gt {userdict /TBx2 3 -1 roll put} {pop} ifelse
      dup TBy1 lt {userdict /TBy1 3 -1 roll put} {pop} ifelse
      dup TBx1 lt {userdict /TBx1 3 -1 roll put} {pop} ifelse
      grestore } if } def
/PopTextBox { newpath TBx1 TBxmargin sub TBy1 TBymargin sub M
               TBx1 TBxmargin sub TBy2 TBymargin add L
	       TBx2 TBxmargin add TBy2 TBymargin add L
	       TBx2 TBxmargin add TBy1 TBymargin sub L closepath } def
/DrawTextBox { PopTextBox stroke /Boxing false def} def
/FillTextBox { gsave PopTextBox 1 1 1 setrgbcolor fill grestore /Boxing false def} def
0 0 0 0 InitTextBox
/TBxmargin 20 def
/TBymargin 20 def
/Boxing false def
/textshow { ExtendTextBox Gshow } def
%
% redundant definitions for compatibility with prologue.ps older than 5.0.2
/LTB {BL [] LCb DL} def
/LTb {PL [] LCb DL} def
end
%%EndProlog
%%Page: 1 1
gnudict begin
gsave
doclip
50 50 translate
0.050 0.050 scale
0 setgray
newpath
(Helvetica) findfont 200 scalefont setfont
BackgroundColor 0 lt 3 1 roll 0 lt exch 0 lt or or not {BackgroundColor C 1.000 0 0 7200.00 5040.00 BoxColFill} if
gsave % colour palette begin
/maxcolors 64 def
/HSV2RGB {  exch dup 0.0 eq {pop exch pop dup dup} % achromatic gray
  { /HSVs exch def /HSVv exch def 6.0 mul dup floor dup 3 1 roll sub
     /HSVf exch def /HSVi exch cvi def /HSVp HSVv 1.0 HSVs sub mul def
	 /HSVq HSVv 1.0 HSVs HSVf mul sub mul def 
	 /HSVt HSVv 1.0 HSVs 1.0 HSVf sub mul sub mul def
	 /HSVi HSVi 6 mod def 0 HSVi eq {HSVv HSVt HSVp}
	 {1 HSVi eq {HSVq HSVv HSVp}{2 HSVi eq {HSVp HSVv HSVt}
	 {3 HSVi eq {HSVp HSVq HSVv}{4 HSVi eq {HSVt HSVp HSVv}
	 {HSVv HSVp HSVq} ifelse} ifelse} ifelse} ifelse} ifelse
  } ifelse} def
/Constrain {
  dup 0 lt {0 exch pop}{dup 1 gt {1 exch pop} if} ifelse} def
/YIQ2RGB {
  3 copy -1.702 mul exch -1.105 mul add add Constrain 4 1 roll
  3 copy -0.647 mul exch -0.272 mul add add Constrain 5 1 roll
  0.621 mul exch -0.956 mul add add Constrain 3 1 roll } def
/CMY2RGB {  1 exch sub exch 1 exch sub 3 2 roll 1 exch sub 3 1 roll exch } def
/XYZ2RGB {  3 copy -0.9017 mul exch -0.1187 mul add exch 0.0585 mul exch add
  Constrain 4 1 roll 3 copy -0.0279 mul exch 1.999 mul add exch
  -0.9844 mul add Constrain 5 1 roll -0.2891 mul exch -0.5338 mul add
  exch 1.91 mul exch add Constrain 3 1 roll} def
/SelectSpace {ColorSpace (HSV) eq {HSV2RGB}{ColorSpace (XYZ) eq {
  XYZ2RGB}{ColorSpace (CMY) eq {CMY2RGB}{ColorSpace (YIQ) eq {YIQ2RGB}
  if} ifelse} ifelse} ifelse} def
/InterpolatedColor true def
/grayindex {/gidx 0 def
  {GrayA gidx get grayv ge {exit} if /gidx gidx 1 add def} loop} def
/dgdx {grayv GrayA gidx get sub GrayA gidx 1 sub get
  GrayA gidx get sub div} def 
/redvalue {RedA gidx get RedA gidx 1 sub get
  RedA gidx get sub dgdxval mul add} def
/greenvalue {GreenA gidx get GreenA gidx 1 sub get
  GreenA gidx get sub dgdxval mul add} def
/bluevalue {BlueA gidx get BlueA gidx 1 sub get
  BlueA gidx get sub dgdxval mul add} def
/interpolate {
  grayindex grayv GrayA gidx get sub abs 1e-5 le
    {RedA gidx get GreenA gidx get BlueA gidx get}
    {/dgdxval dgdx def redvalue greenvalue bluevalue} ifelse} def
/GrayA [0 .0159 .0317 .0476 .0635 .0794 .0952 .1111 .127 .1429 .1587 .1746 
  .1905 .2063 .2222 .2381 .254 .2698 .2857 .3016 .3175 .3333 .3492 .3651 
  .381 .3968 .4127 .4286 .4444 .4603 .4762 .4921 .5079 .5238 .5397 .5556 
  .5714 .5873 .6032 .619 .6349 .6508 .6667 .6825 .6984 .7143 .7302 .746 
  .7619 .7778 .7937 .8095 .8254 .8413 .8571 .873 .8889 .9048 .9206 .9365 
  .9524 .9683 .9841 1 ] def
/RedA [0 0 0 0 0 0 0 0 0 0 0 0 0 0 0 0 0 0 0 0 0 0 0 0 .0238 .0873 .1508 
  .2143 .2778 .3413 .4048 .4683 .5317 .5952 .6587 .7222 .7857 .8492 .9127 
  .9762 1 1 1 1 1 1 1 1 1 1 1 1 1 1 1 1 .9444 .881 .8175 .754 .6905 .627 
  .5635 .5 ] def
/GreenA [0 0 0 0 0 0 0 0 .0079 .0714 .1349 .1984 .2619 .3254 .3889 .4524 
  .5159 .5794 .6429 .7063 .7698 .8333 .8968 .9603 1 1 1 1 1 1 1 1 1 1 1 1 1 
  1 1 1 .9603 .8968 .8333 .7698 .7063 .6429 .5794 .5159 .4524 .3889 .3254 
  .2619 .1984 .1349 .0714 .0079 0 0 0 0 0 0 0 0 ] def
/BlueA [.5 .5635 .627 .6905 .754 .8175 .881 .9444 1 1 1 1 1 1 1 1 1 1 1 1 1 
  1 1 1 .9762 .9127 .8492 .7857 .7222 .6587 .5952 .5317 .4683 .4048 .3413 
  .2778 .2143 .1508 .0873 .0238 0 0 0 0 0 0 0 0 0 0 0 0 0 0 0 0 0 0 0 0 0 0 
  0 0 ] def
/pm3dround {maxcolors 0 gt {dup 1 ge
	{pop 1} {maxcolors mul floor maxcolors 1 sub div} ifelse} if} def
/pm3dGamma 1.0 1.5 Gamma mul div def
/ColorSpace (RGB) def
Color InterpolatedColor or { % COLOUR vs. GRAY map
  InterpolatedColor { %% Interpolation vs. RGB-Formula
    /g {stroke pm3dround /grayv exch def interpolate
        SelectSpace setrgbcolor} bind def
  }{
  /g {stroke pm3dround dup cF7 Constrain exch dup cF5 Constrain exch cF15 Constrain 
       SelectSpace setrgbcolor} bind def
  } ifelse
}{
  /g {stroke pm3dround pm3dGamma exp setgray} bind def
} ifelse
1.000 UL
LTb
1.00 1.00 1.00 C 0.500 UL
LTb
LCb setrgbcolor
1.000 UP
% Begin plot #1
1.000 UL
LTb
.0847 g 1203 2054 M
-74 -307 V
stroke
LTb
.0835 g 1226 2104 M
-97 -357 V
stroke
LTb
.2494 g 1300 2413 M
-74 -309 V
stroke
LTb
.2448 g 1322 2449 M
-96 -345 V
stroke
LTb
.2477 g 1277 2346 M
-74 -292 V
stroke
LTb
.2506 g 1300 2413 M
-97 -359 V
stroke
LTb
.3962 g 1388 2713 M
-66 -264 V
stroke
LTb
.3918 g 1419 2746 M
-97 -297 V
stroke
LTb
.6087 g 3723 3199 M
-42 -60 V
stroke
LTb
.6138 g 3553 3229 M
41 -91 V
stroke
LTb
.0854 g 5997 1906 M
74 -364 V
stroke
LTb
.0856 g 5974 1852 M
97 -310 V
stroke
LTb
.6174 g 3893 3215 M
-42 -71 V
stroke
LTb
.61 g 3723 3199 M
28 -56 V
stroke
LTb
.9907 g 3642 4171 M
-73 39 V
stroke
LTb
.9891 g 3739 4188 M
-170 22 V
stroke
LTb
.9962 g 3473 4200 M
96 10 V
stroke
LTb
.9896 g 3813 4174 M
-74 14 V
stroke
LTb
.987 g 3642 4171 M
97 17 V
stroke
LTb
.6175 g 3287 3210 M
27 -67 V
stroke
LTb
.6153 g 3553 3229 M
-88 -90 V
stroke
LTb
.6335 g 3383 3309 M
71 -170 V
stroke
LTb
.6519 g 3819 3348 M
-96 -149 V
stroke
LTb
.6513 g 3649 3353 M
74 -154 V
stroke
LTb
.6569 g 3649 3353 M
-96 -124 V
stroke
LTb
.6687 g 3479 3408 M
74 -179 V
stroke
LTb
.9741 g 2939 4123 M
-74 15 V
stroke
LTb
.9815 g 3036 4177 M
-171 -39 V
stroke
LTb
.9674 g 2778 4105 M
87 33 V
stroke
LTb
.9885 g 4153 4160 M
-73 9 V
stroke
LTb
.9889 g 3983 4169 M
97 0 V
stroke
LTb
.3576 g 1323 2503 M
-23 -90 V
stroke
LTb
.3952 g 1378 2683 M
-78 -270 V
stroke
LTb
.7114 g 3745 3498 M
-96 -145 V
stroke
LTb
.7163 g 3576 3524 M
73 -171 V
stroke
LTb
.9778 g 4320 4125 M
-70 22 V
stroke
LTb
.985 g 4153 4160 M
97 -13 V
stroke
LTb
.988 g 3376 4140 M
-74 57 V
stroke
LTb
.997 g 3473 4200 M
-171 -3 V
stroke
LTb
.9958 g 3206 4179 M
96 18 V
stroke
LTb
.6347 g 4064 3267 M
-69 -126 V
stroke
LTb
.6181 g 3893 3215 M
46 -77 V
stroke
LTb
.6676 g 3990 3382 M
-97 -167 V
stroke
LTb
.6576 g 3819 3348 M
74 -133 V
stroke
LTb
.5035 g 1460 2907 M
-41 -161 V
stroke
LTb
.5225 g 1515 3026 M
-96 -280 V
stroke
LTb
.6497 g 3383 3309 M
-96 -99 V
stroke
LTb
.6717 g 3213 3406 M
74 -196 V
stroke
LTb
.6216 g 3204 3151 M
83 59 V
stroke
LTb
.6867 g 3479 3408 M
-96 -99 V
stroke
LTb
.7063 g 3309 3495 M
74 -186 V
stroke
LTb
.7185 g 3916 3516 M
-97 -168 V
stroke
LTb
.7121 g 3745 3498 M
74 -150 V
stroke
LTb
.7281 g 3576 3524 M
-97 -116 V
stroke
LTb
.7415 g 3405 3586 M
74 -178 V
stroke
LTb
.984 g 3716 4121 M
-74 50 V
stroke
LTb
.9858 g 3547 4135 M
95 36 V
stroke
LTb
.9913 g 3547 4135 M
-74 65 V
stroke
LTb
.9906 g 3376 4140 M
97 60 V
stroke
LTb
.6279 g 4138 3172 M
-6 -10 V
stroke
LTb
.6544 g 3116 3347 M
70 -194 V
stroke
LTb
.7751 g 3671 3646 M
-95 -122 V
stroke
LTb
.7855 g 3502 3696 M
74 -172 V
stroke
LTb
.7704 g 3842 3640 M
-97 -142 V
stroke
LTb
.7702 g 3671 3646 M
74 -148 V
stroke
LTb
.9934 g 3110 4148 M
-74 29 V
stroke
LTb
.995 g 3206 4179 M
-170 -2 V
stroke
LTb
.9854 g 2939 4123 M
97 54 V
stroke
LTb
.9841 g 3887 4103 M
-74 71 V
stroke
LTb
.9943 g 3983 4169 M
-170 5 V
stroke
LTb
.9866 g 3716 4121 M
97 53 V
stroke
LTb
.9731 g 3450 4074 M
-74 66 V
stroke
LTb
.9751 g 3280 4090 M
96 50 V
stroke
LTb
.8264 g 3768 3780 M
-97 -134 V
stroke
LTb
.832 g 3598 3810 M
73 -164 V
stroke
LTb
.7989 g 3502 3696 M
-97 -110 V
stroke
LTb
.8136 g 3331 3762 M
74 -176 V
stroke
LTb
.7611 g 3309 3495 M
96 91 V
stroke
LTb
.9829 g 3280 4090 M
-74 89 V
stroke
LTb
.9955 g 3110 4148 M
96 31 V
stroke
LTb
.7823 g 3235 3679 M
74 -184 V
stroke
LTb
.7283 g 3213 3406 M
96 89 V
stroke
LTb
.6823 g 4064 3267 M
-74 115 V
stroke
LTb
.7404 g 4086 3557 M
-96 -175 V
stroke
LTb
.7284 g 3916 3516 M
74 -134 V
stroke
LTb
.753 g 3139 3602 M
74 -196 V
stroke
LTb
.7037 g 3116 3347 M
97 59 V
stroke
LTb
.989 g 4057 4114 M
-74 55 V
stroke
LTb
.9845 g 3887 4103 M
96 66 V
stroke
LTb
.981 g 3013 4104 M
-74 19 V
stroke
LTb
.9783 g 2843 4100 M
96 23 V
stroke
LTb
.8424 g 3598 3810 M
-96 -114 V
stroke
LTb
.8492 g 3428 3845 M
74 -149 V
stroke
LTb
.6458 g 4138 3172 M
-74 95 V
stroke
LTb
.7011 g 4160 3451 M
-96 -184 V
stroke
LTb
.7768 g 3916 3516 M
-74 124 V
stroke
LTb
.8311 g 3938 3791 M
-96 -151 V
stroke
LTb
.8266 g 3768 3780 M
74 -140 V
stroke
LTb
.9693 g 3620 4049 M
-73 86 V
stroke
LTb
.9738 g 3450 4074 M
97 61 V
stroke
LTb
.7872 g 4012 3675 M
-96 -159 V
stroke
LTb
.6564 g 3020 3301 M
49 -133 V
stroke
LTb
.9834 g 4398 4108 M
-74 16 V
stroke
LTb
.9849 g 4227 4121 M
97 3 V
stroke
LTb
.9623 g 3790 4021 M
-74 100 V
stroke
LTb
.9675 g 3620 4049 M
96 72 V
stroke
LTb
.992 g 4227 4121 M
-74 39 V
stroke
LTb
.9886 g 4057 4114 M
96 46 V
stroke
LTb
.8808 g 3864 3914 M
-96 -134 V
stroke
LTb
.8818 g 3694 3925 M
74 -145 V
stroke
LTb
.8873 g 3694 3925 M
-96 -115 V
stroke
LTb
.8921 g 3524 3952 M
74 -142 V
stroke
LTb
.9552 g 3354 4004 M
-74 86 V
stroke
LTb
.96 g 3184 4031 M
96 59 V
stroke
LTb
.899 g 3524 3952 M
-96 -107 V
stroke
LTb
.91 g 3354 4004 M
74 -159 V
stroke
LTb
.8639 g 3331 3762 M
97 83 V
stroke
LTb
.9618 g 3961 4021 M
-74 82 V
stroke
LTb
.9597 g 3790 4021 M
97 82 V
stroke
LTb
.629 g 4145 3165 M
-7 7 V
stroke
LTb
.671 g 4234 3362 M
-96 -190 V
stroke
LTb
.7367 g 3042 3547 M
74 -200 V
stroke
LTb
.6896 g 3020 3301 M
96 46 V
stroke
LTb
.9421 g 3524 3952 M
-74 122 V
stroke
LTb
.9531 g 3354 4004 M
96 70 V
stroke
LTb
.9376 g 3620 4049 M
-96 -97 V
stroke
LTb
.8827 g 3258 3928 M
73 -166 V
stroke
LTb
.8348 g 3235 3679 M
96 83 V
stroke
LTb
.9328 g 3694 3925 M
-74 124 V
stroke
LTb
.9266 g 3864 3914 M
-74 107 V
stroke
LTb
.9276 g 3694 3925 M
96 96 V
stroke
LTb
.8557 g 3161 3854 M
74 -175 V
stroke
LTb
.807 g 3139 3602 M
96 77 V
stroke
LTb
.9726 g 3184 4031 M
-74 117 V
stroke
LTb
.9889 g 3013 4104 M
97 44 V
stroke
LTb
.9845 g 2746 4095 M
-74 19 V
stroke
LTb
.98 g 2843 4100 M
-171 14 V
stroke
LTb
.9827 g 2576 4095 M
96 19 V
stroke
LTb
.3983 g 1351 2603 M
-74 -257 V
stroke
LTb
.4099 g 1374 2704 M
-97 -358 V
stroke
LTb
.3928 g 1353 2608 M
-76 -262 V
stroke
LTb
.8854 g 3938 3791 M
-74 123 V
stroke
LTb
.9286 g 3961 4021 M
-97 -107 V
stroke
LTb
.8415 g 4012 3675 M
-74 116 V
stroke
LTb
.8928 g 4035 3937 M
-97 -146 V
stroke
LTb
.9337 g 3258 3928 M
-74 103 V
stroke
LTb
.9484 g 3087 3995 M
97 36 V
stroke
LTb
.9289 g 3258 3928 M
96 76 V
stroke
LTb
.7991 g 4086 3557 M
-74 118 V
stroke
LTb
.8523 g 4109 3828 M
-97 -153 V
stroke
LTb
.9744 g 4131 4048 M
-74 66 V
stroke
LTb
.9662 g 3961 4021 M
96 93 V
stroke
LTb
.8324 g 3065 3789 M
74 -187 V
stroke
LTb
.786 g 3042 3547 M
97 55 V
stroke
LTb
.9361 g 4035 3937 M
-74 84 V
stroke
LTb
.9812 g 2917 4080 M
-74 20 V
stroke
LTb
.983 g 2746 4095 M
97 5 V
stroke
LTb
.7592 g 4160 3451 M
-74 106 V
stroke
LTb
.814 g 4183 3728 M
-97 -171 V
stroke
LTb
.6647 g 2923 3279 M
36 -97 V
stroke
LTb
.6681 g 4308 3291 M
-55 -112 V
stroke
LTb
.2464 g 5923 2257 M
74 -351 V
stroke
LTb
.2529 g 5900 2229 M
97 -323 V
stroke
LTb
.9036 g 3161 3854 M
97 74 V
stroke
LTb
.7259 g 2946 3502 M
74 -201 V
stroke
LTb
.6846 g 2923 3279 M
97 22 V
stroke
LTb
.7263 g 4234 3362 M
-74 89 V
stroke
LTb
.7793 g 4257 3632 M
-97 -181 V
stroke
LTb
.9183 g 3087 3995 M
74 -141 V
stroke
LTb
.8811 g 3065 3789 M
96 65 V
stroke
LTb
.9862 g 4301 4074 M
-74 47 V
stroke
LTb
.9778 g 4131 4048 M
96 73 V
stroke
LTb
.9647 g 3087 3995 M
-74 109 V
stroke
LTb
.9839 g 2917 4080 M
96 24 V
stroke
LTb
.8155 g 2968 3729 M
74 -182 V
stroke
LTb
.773 g 2946 3502 M
96 45 V
stroke
LTb
.9036 g 4109 3828 M
-74 109 V
stroke
LTb
.9443 g 4131 4048 M
-96 -111 V
stroke
LTb
.9411 g 2991 3954 M
96 41 V
stroke
LTb
.9898 g 4472 4088 M
-74 20 V
stroke
LTb
.985 g 4568 4092 M
-170 16 V
stroke
LTb
.9847 g 4301 4074 M
97 34 V
stroke
LTb
.8672 g 4183 3728 M
-74 100 V
stroke
LTb
.9106 g 4205 3959 M
-96 -131 V
stroke
LTb
.9513 g 4205 3959 M
-74 89 V
stroke
LTb
.7022 g 4308 3291 M
-74 71 V
stroke
LTb
.7529 g 4331 3551 M
-97 -189 V
stroke
LTb
.9882 g 2650 4081 M
-74 14 V
stroke
LTb
.9847 g 2479 4074 M
97 21 V
stroke
LTb
.9038 g 2991 3954 M
74 -165 V
stroke
LTb
.8618 g 2968 3729 M
97 60 V
stroke
LTb
.9895 g 4642 4088 M
-74 4 V
stroke
LTb
.9877 g 4472 4088 M
96 4 V
stroke
LTb
.8341 g 4257 3632 M
-74 96 V
stroke
LTb
.8785 g 4279 3867 M
-96 -139 V
stroke
LTb
.6718 g 4382 3240 M
-24 -48 V
stroke
LTb
.7283 g 2849 3486 M
74 -207 V
stroke
LTb
.6896 g 2827 3274 M
96 5 V
stroke
LTb
.8085 g 2872 3698 M
74 -196 V
stroke
LTb
.7696 g 2849 3486 M
97 16 V
stroke
LTb
.9219 g 4279 3867 M
-74 92 V
stroke
LTb
.9597 g 4301 4074 M
-96 -115 V
stroke
LTb
.9818 g 2820 4041 M
-74 54 V
stroke
LTb
.99 g 2650 4081 M
96 14 V
stroke
LTb
.8891 g 2894 3907 M
74 -178 V
stroke
LTb
.851 g 2872 3698 M
96 31 V
stroke
LTb
.9603 g 2917 4080 M
74 -126 V
stroke
LTb
.9311 g 2894 3907 M
97 47 V
stroke
LTb
.98 g 2820 4041 M
97 39 V
stroke
LTb
.8059 g 4331 3551 M
-74 81 V
stroke
LTb
.8546 g 4353 3804 M
-96 -172 V
stroke
LTb
.6873 g 4382 3240 M
-74 51 V
stroke
LTb
.7369 g 4405 3496 M
-97 -205 V
stroke
LTb
.6766 g 2827 3274 M
33 -85 V
stroke
LTb
.9716 g 4375 4000 M
-74 74 V
stroke
LTb
.8991 g 4353 3804 M
-74 63 V
stroke
LTb
.9339 g 4375 4000 M
-96 -133 V
stroke
LTb
.9908 g 2553 4065 M
-74 9 V
stroke
LTb
.9846 g 2383 4047 M
96 27 V
stroke
LTb
.7876 g 4405 3496 M
-74 55 V
stroke
LTb
.8334 g 4427 3736 M
-96 -185 V
stroke
LTb
.9508 g 2820 4041 M
74 -134 V
stroke
LTb
.9234 g 2798 3875 M
96 32 V
stroke
LTb
.991 g 4546 4051 M
-74 37 V
stroke
LTb
.9767 g 4375 4000 M
97 88 V
stroke
LTb
.952 g 4449 3933 M
-74 67 V
stroke
LTb
.8853 g 2798 3875 M
74 -177 V
stroke
LTb
.9747 g 2724 4011 M
96 30 V
stroke
LTb
.8496 g 2775 3675 M
97 23 V
stroke
LTb
.9783 g 4887 4014 M
-74 30 V
stroke
LTb
.9868 g 4716 4056 M
97 -12 V
stroke
LTb
.9871 g 4642 4088 M
171 -44 V
stroke
LTb
.8107 g 2775 3675 M
74 -189 V
stroke
LTb
.7736 g 2753 3470 M
96 16 V
stroke
LTb
.9829 g 2724 4011 M
-74 70 V
stroke
LTb
.9944 g 2553 4065 M
97 16 V
stroke
LTb
.6834 g 4456 3215 M
-4 -9 V
stroke
LTb
.735 g 2753 3470 M
74 -196 V
stroke
LTb
.703 g 2730 3286 M
97 -12 V
stroke
LTb
.2531 g 5900 2229 M
74 -377 V
stroke
LTb
.2466 g 5878 2148 M
96 -296 V
stroke
LTb
.6837 g 4456 3215 M
-74 25 V
stroke
LTb
.7258 g 4479 3440 M
-97 -200 V
stroke
LTb
.9958 g 4716 4056 M
-74 32 V
stroke
LTb
.9929 g 4546 4051 M
96 37 V
stroke
LTb
.8821 g 4427 3736 M
-74 68 V
stroke
LTb
.9172 g 4449 3933 M
-96 -129 V
stroke
LTb
.2923 g 3736 2168 M
-74 -18 V
stroke
LTb
.2913 g 3833 2188 M
-171 -38 V
stroke
LTb
.9913 g 2457 4046 M
-74 1 V
stroke
LTb
.9815 g 2287 4014 M
96 33 V
stroke
LTb
.6943 g 2730 3286 M
33 -85 V
stroke
LTb
.9473 g 2724 4011 M
74 -136 V
stroke
LTb
.9197 g 2701 3844 M
97 31 V
stroke
LTb
.9379 g 4523 3880 M
-74 53 V
stroke
LTb
.9664 g 4546 4051 M
-97 -118 V
stroke
LTb
.7754 g 4479 3440 M
-74 56 V
stroke
LTb
.8192 g 4501 3672 M
-96 -176 V
stroke
LTb
.9732 g 2627 3987 M
97 24 V
stroke
LTb
.884 g 2701 3844 M
74 -169 V
stroke
LTb
.8536 g 2679 3666 M
96 9 V
stroke
LTb
.3936 g 5849 2565 M
74 -308 V
stroke
LTb
.4096 g 5826 2575 M
97 -318 V
stroke
LTb
.8649 g 4501 3672 M
-74 64 V
stroke
LTb
.9028 g 4523 3880 M
-96 -144 V
stroke
LTb
.9862 g 4620 4006 M
-74 45 V
stroke
LTb
.8165 g 2679 3666 M
74 -196 V
stroke
LTb
.785 g 2656 3484 M
97 -14 V
stroke
LTb
.557 g 1448 2934 M
-74 -230 V
stroke
LTb
.5629 g 1470 3013 M
-96 -309 V
stroke
LTb
.9847 g 2627 3987 M
-74 78 V
stroke
LTb
.9975 g 2457 4046 M
96 19 V
stroke
LTb
.3223 g 3907 2237 M
-74 -49 V
stroke
LTb
.3272 g 4003 2281 M
-170 -93 V
stroke
LTb
.3034 g 3736 2168 M
97 20 V
stroke
LTb
.9811 g 4961 3994 M
-74 20 V
stroke
LTb
.9891 g 4790 4033 M
97 -19 V
stroke
LTb
.9896 g 2361 4025 M
-74 -11 V
stroke
LTb
.9738 g 2205 3972 M
82 42 V
stroke
LTb
.9976 g 4790 4033 M
-74 23 V
stroke
LTb
.9892 g 4620 4006 M
96 50 V
stroke
LTb
.9455 g 2627 3987 M
74 -143 V
stroke
LTb
.9196 g 2605 3827 M
96 17 V
stroke
LTb
.6862 g 4477 3210 M
-21 5 V
stroke
LTb
.7278 g 4553 3411 M
-97 -196 V
stroke
LTb
.7531 g 2656 3484 M
74 -198 V
stroke
LTb
.7264 g 2634 3321 M
96 -35 V
stroke
LTb
.7699 g 4553 3411 M
-74 29 V
stroke
LTb
.8097 g 4575 3627 M
-96 -187 V
stroke
LTb
.9294 g 4597 3837 M
-74 43 V
stroke
LTb
.9577 g 4620 4006 M
-97 -126 V
stroke
LTb
.9744 g 2531 3969 M
96 18 V
stroke
LTb
.8534 g 4575 3627 M
-74 45 V
stroke
LTb
.8915 g 4597 3837 M
-96 -165 V
stroke
LTb
.9798 g 4694 3963 M
-74 43 V
stroke
LTb
.8892 g 2605 3827 M
74 -161 V
stroke
LTb
.8636 g 2582 3669 M
97 -3 V
stroke
LTb
.9873 g 2531 3969 M
-74 77 V
stroke
LTb
.9994 g 2361 4025 M
96 21 V
stroke
LTb
.3224 g 3810 2210 M
-74 -42 V
stroke
LTb
.3086 g 3667 2168 M
69 0 V
stroke
LTb
.7213 g 2634 3321 M
38 -95 V
stroke
LTb
.8322 g 2582 3669 M
74 -185 V
stroke
LTb
.8064 g 2560 3509 M
96 -25 V
stroke
LTb
.9485 g 2531 3969 M
74 -142 V
stroke
LTb
.9285 g 2508 3833 M
97 -6 V
stroke
LTb
.9831 g 5035 3960 M
-74 34 V
stroke
LTb
.9909 g 4864 3999 M
97 -5 V
stroke
LTb
.5319 g 1425 2825 M
-74 -222 V
stroke
LTb
.5454 g 1448 2934 M
-97 -331 V
stroke
LTb
.9241 g 4671 3797 M
-74 40 V
stroke
LTb
.9515 g 4694 3963 M
-97 -126 V
stroke
LTb
.976 g 2434 3946 M
97 23 V
stroke
LTb
.9989 g 4864 3999 M
-74 34 V
stroke
LTb
.9882 g 4694 3963 M
96 70 V
stroke
LTb
.85 g 4649 3597 M
-74 30 V
stroke
LTb
.886 g 4671 3797 M
-96 -170 V
stroke
LTb
.7736 g 4627 3393 M
-74 18 V
stroke
LTb
.8103 g 4649 3597 M
-96 -186 V
stroke
LTb
.3767 g 4077 2350 M
-74 -69 V
stroke
LTb
.3898 g 4174 2427 M
4003 2281 L
stroke
LTb
.3471 g 3907 2237 M
96 44 V
stroke
LTb
.7397 g 4627 3393 M
-85 -171 V
stroke
LTb
.975 g 4768 3924 M
-74 39 V
stroke
LTb
.9881 g 2434 3946 M
-73 79 V
stroke
LTb
.9976 g 2264 3992 M
97 33 V
stroke
LTb
.7797 g 2560 3509 M
74 -188 V
stroke
LTb
.7591 g 2538 3371 M
96 -50 V
stroke
LTb
.9029 g 2508 3833 M
74 -164 V
stroke
LTb
.881 g 2486 3690 M
96 -21 V
stroke
LTb
.5281 g 5775 2863 M
74 -298 V
stroke
LTb
.537 g 5752 2845 M
97 -280 V
stroke
LTb
.4161 g 5826 2575 M
74 -346 V
stroke
LTb
.4165 g 5804 2522 M
96 -293 V
stroke
LTb
.3431 g 3714 2210 M
-38 -22 V
stroke
LTb
.3672 g 3981 2308 M
-74 -71 V
stroke
LTb
.3413 g 3810 2210 M
97 27 V
stroke
LTb
.956 g 2508 3833 M
-74 113 V
stroke
LTb
.9805 g 2338 3940 M
96 6 V
stroke
LTb
.921 g 4745 3762 M
-74 35 V
stroke
LTb
.9476 g 4768 3924 M
-97 -127 V
stroke
LTb
.9777 g 5109 3910 M
-74 50 V
stroke
LTb
.9908 g 4938 3970 M
97 -10 V
stroke
LTb
.9426 g 2412 3837 M
96 -4 V
stroke
LTb
.99 g 2338 3940 M
-74 52 V
stroke
LTb
.9932 g 2168 3960 M
96 32 V
stroke
LTb
.6928 g 1544 3223 M
-74 -210 V
stroke
LTb
.7436 g 1567 3287 M
-21 -58 V
stroke
LTb
.9986 g 4938 3970 M
-74 29 V
stroke
LTb
.9856 g 4768 3924 M
96 75 V
stroke
LTb
.853 g 4723 3577 M
-74 20 V
stroke
LTb
.885 g 4745 3762 M
-96 -165 V
stroke
LTb
.8553 g 2486 3690 M
74 -181 V
stroke
LTb
.8346 g 2464 3551 M
96 -42 V
stroke
LTb
.9732 g 4842 3894 M
-74 30 V
stroke
LTb
.7857 g 4701 3398 M
-74 -5 V
stroke
LTb
.8164 g 4723 3577 M
-96 -184 V
stroke
LTb
.3669 g 3884 2286 M
-74 -76 V
stroke
LTb
.3465 g 3714 2210 M
96 0 V
stroke
LTb
.7525 g 2538 3371 M
50 -121 V
stroke
LTb
.7612 g 4701 3398 M
-79 -155 V
stroke
LTb
.9929 g 2242 3936 M
-74 24 V
stroke
LTb
.983 g 2071 3903 M
97 57 V
stroke
LTb
.9753 g 5183 3888 M
-74 22 V
stroke
LTb
.9808 g 5012 3918 M
97 -8 V
stroke
LTb
.9208 g 2412 3837 M
74 -147 V
stroke
LTb
.9031 g 2390 3710 M
96 -20 V
stroke
LTb
.9672 g 2412 3837 M
-74 103 V
stroke
LTb
.9898 g 2242 3936 M
96 4 V
stroke
LTb
.9235 g 4819 3745 M
-74 17 V
stroke
LTb
.9466 g 4842 3894 M
-97 -132 V
stroke
LTb
.4919 g 4344 2611 M
-74 -91 V
stroke
LTb
.5137 g 4440 2722 M
4270 2520 L
stroke
LTb
.4448 g 4174 2427 M
96 93 V
stroke
LTb
.9577 g 2316 3846 M
96 -9 V
stroke
LTb
.8139 g 2464 3551 M
74 -180 V
stroke
LTb
.7978 g 2441 3431 M
97 -60 V
stroke
LTb
.4558 g 4248 2510 M
-74 -83 V
stroke
LTb
.4145 g 4077 2350 M
97 77 V
stroke
LTb
.9938 g 5012 3918 M
-74 52 V
stroke
LTb
.9862 g 4842 3894 M
96 76 V
stroke
LTb
.9875 g 2145 3923 M
-74 -20 V
stroke
LTb
.9744 g 2065 3899 M
6 4 V
stroke
LTb
.41 g 5804 2522 M
74 -374 V
stroke
LTb
.3968 g 5781 2413 M
97 -265 V
stroke
LTb
.4333 g 4151 2448 M
-74 -98 V
stroke
LTb
.3969 g 3981 2308 M
96 42 V
stroke
LTb
.8626 g 4797 3573 M
-74 4 V
stroke
LTb
.8915 g 4819 3745 M
-96 -168 V
stroke
LTb
.9752 g 4916 3871 M
-74 23 V
stroke
LTb
.5479 g 2789 2687 M
19 -24 V
stroke
LTb
.6444 g 5701 3097 M
74 -234 V
stroke
LTb
.6609 g 5678 3109 M
97 -246 V
stroke
LTb
.3775 g 3788 2281 M
-74 -71 V
stroke
LTb
.3564 g 3689 2221 M
25 -11 V
stroke
LTb
.6798 g 1522 3140 M
-74 -206 V
stroke
LTb
.6869 g 1544 3223 M
-96 -289 V
stroke
LTb
.8824 g 2390 3710 M
74 -159 V
stroke
LTb
.8673 g 2367 3595 M
97 -44 V
stroke
LTb
.8066 g 4775 3416 M
-74 -18 V
stroke
LTb
.8319 g 4797 3573 M
-96 -175 V
stroke
LTb
.9803 g 2316 3846 M
-74 90 V
stroke
LTb
.9974 g 2145 3923 M
97 13 V
stroke
LTb
.4204 g 4055 2391 M
-74 -83 V
stroke
LTb
.3928 g 3884 2286 M
97 22 V
stroke
LTb
.9528 g 1949 3826 M
-51 -35 V
stroke
LTb
.9799 g 2049 3894 M
-100 -67 V
stroke
LTb
.9745 g 5257 3845 M
-74 43 V
stroke
LTb
.985 g 5086 3894 M
97 -6 V
stroke
LTb
.9905 g 5086 3894 M
-74 24 V
stroke
LTb
.9829 g 4916 3871 M
96 47 V
stroke
LTb
.8065 g 1641 3458 M
-74 -171 V
stroke
LTb
.94 g 2316 3846 M
74 -136 V
stroke
LTb
.9269 g 2293 3739 M
97 -29 V
stroke
LTb
.9319 g 4893 3734 M
-74 11 V
stroke
LTb
.9521 g 4916 3871 M
-97 -126 V
stroke
LTb
.553 g 5752 2845 M
74 -270 V
stroke
LTb
.5664 g 5730 2844 M
96 -269 V
stroke
LTb
.9743 g 2219 3857 M
97 -11 V
stroke
LTb
.7865 g 2441 3431 M
68 -158 V
stroke
LTb
.7811 g 2419 3343 M
76 -67 V
stroke
LTb
.7552 g 4698 3272 M
-4 -8 V
stroke
LTb
.7879 g 4775 3416 M
-76 -144 V
stroke
LTb
.9798 g 4990 3851 M
-74 20 V
stroke
LTb
.8802 g 4871 3587 M
-74 -14 V
stroke
LTb
.9031 g 4893 3734 M
-96 -161 V
stroke
LTb
.4223 g 3958 2373 M
-74 -87 V
stroke
LTb
.3979 g 3788 2281 M
96 5 V
stroke
LTb
.7343 g 5627 3290 M
74 -193 V
stroke
LTb
.7513 g 5604 3304 M
97 -207 V
stroke
LTb
.9914 g 2219 3857 M
-74 66 V
stroke
LTb
.9989 g 2049 3894 M
96 29 V
stroke
LTb
.963 g 5331 3779 M
-74 66 V
stroke
LTb
.9836 g 5160 3870 M
97 -25 V
stroke
LTb
.8512 g 2367 3595 M
74 -164 V
stroke
LTb
.8416 g 2345 3501 M
96 -70 V
stroke
LTb
.6453 g 1499 3000 M
-74 -175 V
stroke
LTb
.6664 g 1522 3140 M
-97 -315 V
stroke
LTb
.9941 g 5160 3870 M
-74 24 V
stroke
LTb
.9875 g 4990 3851 M
96 43 V
stroke
LTb
.9083 g 1759 3651 M
-11 -21 V
stroke
LTb
.9118 g 2293 3739 M
74 -144 V
stroke
LTb
.8997 g 2271 3635 M
96 -40 V
stroke
LTb
.8334 g 4849 3445 M
-74 -29 V
stroke
LTb
.8549 g 4871 3587 M
-96 -171 V
stroke
LTb
.9413 g 4967 3721 M
-74 13 V
stroke
LTb
.9597 g 4990 3851 M
-97 -117 V
stroke
LTb
.519 g 4322 2620 M
-74 -110 V
stroke
LTb
.5029 g 4344 2611 M
-96 -101 V
stroke
LTb
.4745 g 4151 2448 M
97 62 V
stroke
LTb
.9612 g 2293 3739 M
-74 118 V
stroke
LTb
.985 g 2123 3842 M
96 15 V
stroke
LTb
.9435 g 5384 3713 M
-53 66 V
stroke
LTb
.9285 g 5405 3687 M
-21 26 V
stroke
LTb
.9735 g 5234 3833 M
97 -54 V
stroke
LTb
.5551 g 4418 2713 M
-74 -102 V
stroke
LTb
.5437 g 4440 2722 M
-96 -111 V
stroke
LTb
.9533 g 2197 3770 M
96 -31 V
stroke
LTb
.9925 g 2123 3842 M
-74 52 V
stroke
LTb
.9869 g 1952 3827 M
97 67 V
stroke
LTb
.8313 g 5530 3498 M
97 -208 V
stroke
LTb
.5705 g 2789 2687 M
-74 94 V
stroke
LTb
.6241 g 2618 2911 M
97 -130 V
stroke
LTb
.9841 g 5064 3826 M
-74 25 V
stroke
LTb
.5983 g 4514 2824 M
-74 -102 V
stroke
LTb
.6243 g 4611 2953 M
4440 2722 L
stroke
LTb
.4317 g 3862 2369 M
-74 -88 V
stroke
LTb
.4121 g 3724 2304 M
64 -23 V
stroke
LTb
.6698 g 5678 3109 M
74 -264 V
stroke
LTb
.6854 g 5656 3118 M
96 -273 V
stroke
LTb
.4985 g 4225 2553 M
-74 -105 V
stroke
LTb
.4569 g 4055 2391 M
96 57 V
stroke
LTb
.7936 g 1618 3360 M
-74 -137 V
stroke
LTb
.8042 g 1641 3458 M
-97 -235 V
stroke
LTb
.9873 g 2026 3841 M
-74 -14 V
stroke
LTb
.9756 g 1948 3824 M
4 3 V
stroke
LTb
.9659 g 1856 3764 M
91 59 V
stroke
LTb
.8812 g 5479 3598 M
33 -72 V
stroke
LTb
.5521 g 2805 2669 M
-16 18 V
stroke
LTb
.5926 g 2692 2816 M
97 -129 V
stroke
LTb
.7916 g 2419 3343 M
26 -53 V
stroke
LTb
.5667 g 5730 2844 M
74 -322 V
stroke
LTb
.56 g 5707 2762 M
97 -240 V
stroke
LTb
.9252 g 1798 3685 M
-39 -34 V
stroke
LTb
.9494 g 1833 3718 M
-35 -33 V
stroke
LTb
.9193 g 1788 3684 M
-29 -33 V
stroke
LTb
.9414 g 1856 3764 M
-68 -79 V
stroke
LTb
.9941 g 5234 3833 M
-74 37 V
stroke
LTb
.9907 g 5064 3826 M
96 44 V
stroke
LTb
.9017 g 4945 3599 M
-74 -12 V
stroke
LTb
.9185 g 4967 3721 M
-96 -134 V
stroke
LTb
.9752 g 1930 3807 M
-74 -43 V
stroke
LTb
.4838 g 4129 2503 M
-74 -112 V
stroke
LTb
.4499 g 3958 2373 M
97 18 V
stroke
LTb
.9299 g 5382 3714 M
97 -116 V
stroke
LTb
.8019 g 4826 3331 M
-61 -44 V
stroke
LTb
.7801 g 4756 3285 M
0 -2 V
stroke
LTb
.8144 g 4849 3445 M
-93 -160 V
stroke
LTb
.8334 g 2345 3501 M
74 -158 V
stroke
LTb
.8294 g 2322 3430 M
97 -87 V
stroke
LTb
.9771 g 2197 3770 M
-74 72 V
stroke
LTb
.9928 g 2026 3841 M
97 1 V
stroke
LTb
.6046 g 2766 2742 M
11 -15 V
stroke
LTb
.954 g 5041 3724 M
-74 -3 V
stroke
LTb
.9657 g 5064 3826 M
-97 -105 V
stroke
LTb
.8901 g 2271 3635 M
74 -134 V
stroke
LTb
.8869 g 2248 3567 M
97 -66 V
stroke
LTb
.9899 g 5138 3812 M
-74 14 V
stroke
LTb
.9412 g 2197 3770 M
74 -135 V
stroke
LTb
.9355 g 2174 3692 M
97 -57 V
stroke
LTb
.9764 g 2100 3785 M
97 -15 V
stroke
LTb
.8653 g 4923 3483 M
-74 -38 V
stroke
LTb
.8802 g 4945 3599 M
-96 -154 V
stroke
LTb
.4854 g 4032 2480 M
-74 -107 V
stroke
LTb
.4561 g 3862 2369 M
96 4 V
stroke
LTb
.9885 g 5308 3785 M
-74 48 V
stroke
LTb
.9933 g 5138 3812 M
96 21 V
stroke
LTb
.5468 g 5707 2762 M
74 -349 V
stroke
LTb
.5328 g 5685 2651 M
96 -238 V
stroke
LTb
.7774 g 1596 3268 M
-74 -128 V
stroke
LTb
.7866 g 1618 3360 M
-96 -220 V
stroke
LTb
.8882 g 1715 3556 M
-74 -98 V
stroke
LTb
.8902 g 1737 3619 M
-96 -161 V
stroke
LTb
.7678 g 5604 3304 M
74 -195 V
stroke
LTb
.7867 g 5582 3326 M
96 -217 V
stroke
LTb
.9921 g 2100 3785 M
-74 56 V
stroke
LTb
.996 g 1930 3807 M
96 34 V
stroke
LTb
.813 g 4826 3331 M
-17 -29 V
stroke
LTb
.927 g 5019 3627 M
-74 -28 V
stroke
LTb
.9372 g 5041 3724 M
-96 -125 V
stroke
LTb
.9954 g 5212 3786 M
-74 26 V
stroke
LTb
.9781 g 5041 3724 M
97 88 V
stroke
LTb
.9744 g 5382 3714 M
-74 71 V
stroke
LTb
.9905 g 5212 3786 M
96 -1 V
stroke
LTb
.6252 g 4492 2832 M
-74 -119 V
stroke
LTb
.6097 g 4514 2824 M
-96 -111 V
stroke
LTb
.5711 g 4322 2620 M
96 93 V
stroke
LTb
.9728 g 5115 3736 M
-74 -12 V
stroke
LTb
.5922 g 4396 2744 M
-74 -124 V
stroke
LTb
.5429 g 4225 2553 M
97 67 V
stroke
LTb
.6462 g 2692 2816 M
-74 95 V
stroke
LTb
.701 g 2522 3046 M
96 -135 V
stroke
LTb
.992 g 2004 3770 M
-74 37 V
stroke
LTb
.9773 g 1833 3718 M
97 89 V
stroke
LTb
.4972 g 3936 2484 M
-74 -115 V
stroke
LTb
.4743 g 3766 2399 M
96 -30 V
stroke
LTb
.9484 g 1811 3687 M
-74 -68 V
stroke
LTb
.9366 g 1802 3686 M
-65 -67 V
stroke
LTb
.9551 g 1833 3718 M
-31 -32 V
stroke
LTb
.9721 g 1907 3732 M
-74 -14 V
stroke
LTb
.9708 g 2174 3692 M
-74 93 V
stroke
LTb
.9882 g 2004 3770 M
96 15 V
stroke
LTb
.8483 g 5530 3498 M
74 -194 V
stroke
LTb
.8356 g 5555 3403 M
49 -99 V
stroke
LTb
.889 g 5508 3496 M
46 -92 V
stroke
LTb
.8339 g 2322 3430 M
63 -119 V
stroke
LTb
.8415 g 2300 3387 M
68 -68 V
stroke
LTb
.7348 g 1573 3126 M
-74 -126 V
stroke
LTb
.7564 g 1596 3268 M
-97 -268 V
stroke
LTb
.6667 g 4588 2937 M
-74 -113 V
stroke
LTb
.657 g 4611 2953 M
-97 -129 V
stroke
LTb
.6988 g 5656 3118 M
74 -274 V
stroke
LTb
.691 g 5633 3031 M
97 -187 V
stroke
LTb
.8416 g 4900 3391 M
-74 -60 V
stroke
LTb
.8508 g 4923 3483 M
-97 -152 V
stroke
LTb
.8828 g 2248 3567 M
74 -137 V
stroke
LTb
.8821 g 2226 3509 M
96 -79 V
stroke
LTb
.57 g 4299 2675 M
-74 -122 V
stroke
LTb
.5254 g 4129 2503 M
96 50 V
stroke
LTb
.6197 g 2766 2742 M
-74 74 V
stroke
LTb
.6718 g 2596 2960 M
96 -144 V
stroke
LTb
.9324 g 2174 3692 M
74 -125 V
stroke
LTb
.9298 g 2152 3627 M
96 -60 V
stroke
LTb
.9693 g 2078 3724 M
96 -32 V
stroke
LTb
.9478 g 5456 3615 M
-74 99 V
stroke
LTb
.9805 g 5286 3755 M
96 -41 V
stroke
LTb
.716 g 4685 3056 M
-74 -103 V
stroke
LTb
.866 g 1692 3455 M
-74 -95 V
stroke
LTb
.8776 g 1715 3556 M
-97 -196 V
stroke
LTb
.5583 g 4203 2630 M
-74 -127 V
stroke
LTb
.5192 g 4032 2480 M
97 23 V
stroke
LTb
.9098 g 5530 3498 M
-74 117 V
stroke
LTb
.9582 g 5360 3701 M
96 -86 V
stroke
LTb
.9012 g 4997 3529 M
-74 -46 V
stroke
LTb
.9121 g 5019 3627 M
-96 -144 V
stroke
LTb
.9233 g 5434 3616 M
96 -118 V
stroke
LTb
.6087 g 2772 2738 M
-6 4 V
stroke
LTb
.6507 g 2670 2887 M
96 -145 V
stroke
LTb
.9868 g 2078 3724 M
-74 46 V
stroke
LTb
.9868 g 1907 3732 M
97 38 V
stroke
LTb
.9967 g 5286 3755 M
-74 31 V
stroke
LTb
.99 g 5115 3736 M
97 50 V
stroke
LTb
.9534 g 5093 3643 M
-74 -16 V
stroke
LTb
.9626 g 5115 3736 M
-96 -109 V
stroke
LTb
.5243 g 3839 2511 M
-71 -108 V
stroke
LTb
.9869 g 5189 3719 M
-74 17 V
stroke
LTb
.5588 g 4106 2609 M
-74 -129 V
stroke
LTb
.5264 g 3936 2484 M
96 -4 V
stroke
LTb
.9832 g 1981 3701 M
-74 31 V
stroke
LTb
.9779 g 1811 3687 M
96 45 V
stroke
LTb
.8486 g 4900 3391 M
-48 -74 V
stroke
LTb
.6842 g 5633 3031 M
74 -269 V
stroke
LTb
.6826 g 5611 2970 M
96 -208 V
stroke
LTb
.9445 g 1789 3624 M
-74 -68 V
stroke
LTb
.9464 g 1811 3687 M
-96 -131 V
stroke
LTb
.8023 g 5582 3326 M
74 -208 V
stroke
LTb
.8055 g 5559 3284 M
97 -166 V
stroke
LTb
.9667 g 2152 3627 M
-74 97 V
stroke
LTb
.9831 g 1981 3701 M
97 23 V
stroke
LTb
.9909 g 5360 3701 M
-74 54 V
stroke
LTb
.9935 g 5189 3719 M
97 36 V
stroke
LTb
.8478 g 1670 3363 M
-74 -95 V
stroke
LTb
.8569 g 1692 3455 M
-96 -187 V
stroke
LTb
.929 g 2226 3509 M
-74 118 V
stroke
LTb
.9625 g 2055 3652 M
97 -25 V
stroke
LTb
.9821 g 1885 3694 M
-74 -7 V
stroke
LTb
.8849 g 2300 3387 M
-74 122 V
stroke
LTb
.9314 g 2129 3582 M
97 -73 V
stroke
LTb
.8858 g 4974 3449 M
-74 -58 V
stroke
LTb
.8921 g 4997 3529 M
-97 -138 V
stroke
LTb
.8528 g 2333 3334 M
-33 53 V
stroke
LTb
.8881 g 2203 3467 M
97 -80 V
stroke
LTb
.8761 g 2277 3375 M
23 -25 V
stroke
LTb
.7266 g 2596 2960 M
-74 86 V
stroke
LTb
.7707 g 2451 3153 M
71 -107 V
stroke
LTb
.7699 g 2428 3171 M
94 -125 V
stroke
LTb
.979 g 2055 3652 M
-74 49 V
stroke
LTb
.9874 g 1885 3694 M
96 7 V
stroke
LTb
.7022 g 4566 2963 M
-74 -131 V
stroke
LTb
.6823 g 4588 2937 M
-96 -105 V
stroke
LTb
.6463 g 4396 2744 M
96 88 V
stroke
LTb
.9936 g 5263 3701 M
-74 18 V
stroke
LTb
.9776 g 5093 3643 M
96 76 V
stroke
LTb
.9376 g 5071 3569 M
-74 -40 V
stroke
LTb
.9425 g 5093 3643 M
-96 -114 V
stroke
LTb
.5711 g 4010 2606 M
-74 -122 V
stroke
LTb
.5458 g 3839 2511 M
97 -27 V
stroke
LTb
.6714 g 4470 2879 M
-74 -135 V
stroke
LTb
.6193 g 4299 2675 M
97 69 V
stroke
LTb
.8803 g 5508 3496 M
74 -170 V
stroke
LTb
.8858 g 5485 3464 M
97 -138 V
stroke
LTb
.7398 g 4662 3058 M
-74 -121 V
stroke
LTb
.7257 g 4685 3056 M
-97 -119 V
stroke
LTb
.9717 g 5434 3616 M
-74 85 V
stroke
LTb
.9909 g 5263 3701 M
97 0 V
stroke
LTb
.6686 g 5611 2970 M
74 -319 V
stroke
LTb
.6464 g 5589 2825 M
96 -174 V
stroke
LTb
.9757 g 5167 3656 M
-74 -13 V
stroke
LTb
.8105 g 1647 3245 M
-74 -119 V
stroke
LTb
.8262 g 1670 3363 M
-97 -237 V
stroke
LTb
.7027 g 2670 2887 M
-74 73 V
stroke
LTb
.7545 g 2499 3104 M
97 -144 V
stroke
LTb
.6502 g 4373 2815 M
-74 -140 V
stroke
LTb
.6028 g 4203 2630 M
96 45 V
stroke
LTb
.7841 g 4759 3167 M
-74 -111 V
stroke
LTb
.7894 g 4806 3214 M
4685 3056 L
stroke
LTb
.9273 g 1766 3546 M
-74 -91 V
stroke
LTb
.9147 g 1740 3538 M
-48 -83 V
stroke
LTb
.9507 g 1789 3624 M
-49 -86 V
stroke
LTb
.9367 g 5507 3497 M
-73 119 V
stroke
LTb
.9724 g 5338 3649 M
96 -33 V
stroke
LTb
.9419 g 5411 3583 M
97 -87 V
stroke
LTb
.7976 g 5559 3284 M
74 -253 V
stroke
LTb
.7962 g 5537 3223 M
96 -192 V
stroke
LTb
.9649 g 2129 3582 M
-74 70 V
stroke
LTb
.9817 g 1959 3657 M
96 -5 V
stroke
LTb
.6911 g 2688 2875 M
-18 12 V
stroke
LTb
.7345 g 2573 3034 M
97 -147 V
stroke
LTb
.6402 g 4277 2772 M
-74 -142 V
stroke
LTb
.5979 g 4106 2609 M
97 21 V
stroke
LTb
.9902 g 1959 3657 M
-74 37 V
stroke
LTb
.9803 g 1789 3624 M
96 70 V
stroke
LTb
.9918 g 5337 3649 M
-74 52 V
stroke
LTb
.9916 g 5167 3656 M
96 45 V
stroke
LTb
.9774 g 1863 3628 M
-74 -4 V
stroke
LTb
.8934 g 4952 3401 M
-50 -51 V
stroke
LTb
.8653 g 4893 3345 M
-3 -5 V
stroke
LTb
.887 g 4974 3449 M
-80 -104 V
stroke
LTb
.5966 g 3913 2635 M
-74 -124 V
stroke
LTb
.5603 g 3826 2516 M
13 -5 V
stroke
LTb
.9345 g 2203 3467 M
-74 115 V
stroke
LTb
.965 g 2033 3598 M
96 -16 V
stroke
LTb
.9003 g 2270 3385 M
-67 82 V
stroke
LTb
.8851 g 2277 3375 M
-7 9 V
stroke
LTb
.9372 g 2107 3538 M
96 -71 V
stroke
LTb
.9292 g 5048 3505 M
-74 -56 V
stroke
LTb
.9313 g 5071 3569 M
-97 -120 V
stroke
LTb
.6404 g 4180 2748 M
-74 -139 V
stroke
LTb
.6034 g 4010 2606 M
96 3 V
stroke
LTb
.9923 g 5241 3649 M
-74 7 V
stroke
LTb
.9708 g 5071 3569 M
96 87 V
stroke
LTb
.9026 g 1744 3428 M
-74 -65 V
stroke
LTb
.9182 g 1766 3546 M
-96 -183 V
stroke
LTb
.9683 g 5145 3591 M
-74 -22 V
stroke
LTb
.8807 g 2290 3358 M
-13 17 V
stroke
LTb
.8874 g 2264 3387 M
13 -12 V
stroke
LTb
.9152 g 2181 3463 M
82 -75 V
stroke
LTb
.9818 g 2033 3598 M
-74 59 V
stroke
LTb
.9874 g 1863 3628 M
96 29 V
stroke
LTb
.978 g 5411 3583 M
-74 66 V
stroke
LTb
.9925 g 5241 3649 M
96 0 V
stroke
LTb
.8889 g 5485 3464 M
74 -180 V
stroke
LTb
.8886 g 5463 3407 M
96 -123 V
stroke
LTb
.7945 g 5537 3223 M
74 -253 V
stroke
LTb
.7833 g 5515 3123 M
96 -153 V
stroke
LTb
.9474 g 5485 3464 M
-74 119 V
stroke
LTb
.9792 g 5315 3600 M
96 -17 V
stroke
LTb
.9677 g 2107 3538 M
-74 60 V
stroke
LTb
.9807 g 1937 3598 M
96 0 V
stroke
LTb
.9863 g 1937 3598 M
-74 30 V
stroke
LTb
.972 g 1768 3548 M
95 80 V
stroke
LTb
.95 g 5389 3539 M
96 -75 V
stroke
LTb
.6505 g 4084 2744 M
-74 -138 V
stroke
LTb
.6219 g 3913 2635 M
97 -29 V
stroke
LTb
.9708 g 1840 3569 M
-74 -23 V
stroke
LTb
.8131 g 4736 3173 M
-74 -115 V
stroke
LTb
.7982 g 4759 3167 M
-97 -109 V
stroke
LTb
.7597 g 4566 2963 M
96 95 V
stroke
LTb
.7806 g 4640 3088 M
-74 -125 V
stroke
LTb
.7272 g 4470 2879 M
96 84 V
stroke
LTb
.8702 g 1721 3306 M
-74 -61 V
stroke
LTb
.8869 g 1744 3428 M
-97 -183 V
stroke
LTb
.7535 g 4544 3015 M
-74 -136 V
stroke
LTb
.7022 g 4373 2815 M
97 64 V
stroke
LTb
.8336 g 4792 3212 M
-33 -45 V
stroke
LTb
.8309 g 4799 3213 M
-40 -46 V
stroke
LTb
.7862 g 2573 3034 M
-74 70 V
stroke
LTb
.8044 g 2477 3133 M
22 -29 V
stroke
LTb
.804 g 2470 3138 M
29 -34 V
stroke
LTb
.9937 g 5315 3600 M
-74 49 V
stroke
LTb
.9898 g 5145 3591 M
96 58 V
stroke
LTb
.9043 g 4952 3401 M
-27 -34 V
stroke
LTb
.7612 g 5515 3123 M
74 -298 V
stroke
LTb
.7377 g 5492 2973 M
97 -148 V
stroke
LTb
.7344 g 4447 2955 M
-74 -140 V
stroke
LTb
.6875 g 4277 2772 M
96 43 V
stroke
LTb
.9496 g 2181 3463 M
-74 75 V
stroke
LTb
.972 g 2011 3561 M
96 -23 V
stroke
LTb
.9326 g 5025 3458 M
-73 -57 V
stroke
LTb
.9191 g 4991 3444 M
-39 -43 V
stroke
LTb
.9394 g 5048 3505 M
-55 -60 V
stroke
LTb
.9886 g 5219 3589 M
-74 2 V
stroke
LTb
.9661 g 5048 3505 M
97 86 V
stroke
LTb
.9651 g 5122 3532 M
-74 -27 V
stroke
LTb
.7742 g 2612 3008 M
-39 26 V
stroke
LTb
.7948 g 2530 3097 M
43 -63 V
stroke
LTb
.985 g 2011 3561 M
-74 37 V
stroke
LTb
.9854 g 1840 3569 M
97 29 V
stroke
LTb
.8871 g 5463 3407 M
74 -184 V
stroke
LTb
.8777 g 5441 3315 M
96 -92 V
stroke
LTb
.7251 g 4351 2912 M
-74 -140 V
stroke
LTb
.6827 g 4180 2748 M
97 24 V
stroke
LTb
.9818 g 5389 3539 M
-74 61 V
stroke
LTb
.9925 g 5219 3589 M
96 11 V
stroke
LTb
.9298 g 2227 3408 M
-46 55 V
stroke
LTb
.9557 g 2085 3508 M
96 -45 V
stroke
LTb
.9423 g 1818 3463 M
-74 -35 V
stroke
LTb
.9552 g 1840 3569 M
-96 -141 V
stroke
LTb
.674 g 3987 2762 M
-74 -127 V
stroke
LTb
.6369 g 3901 2639 M
12 -4 V
stroke
LTb
.9912 g 1914 3567 M
-74 2 V
stroke
LTb
.9497 g 5389 3539 M
74 -132 V
stroke
LTb
.9464 g 5367 3471 M
96 -64 V
stroke
LTb
.9848 g 5293 3557 M
96 -18 V
stroke
LTb
.7253 g 4254 2890 M
-74 -142 V
stroke
LTb
.6875 g 4084 2744 M
96 4 V
stroke
LTb
.9781 g 2085 3508 M
-74 53 V
stroke
LTb
.9908 g 1914 3567 M
97 -6 V
stroke
LTb
.9955 g 5293 3557 M
-74 32 V
stroke
LTb
.9876 g 5122 3532 M
97 57 V
stroke
LTb
.9107 g 1795 3347 M
-74 -41 V
stroke
LTb
.9257 g 1818 3463 M
-97 -157 V
stroke
LTb
.8665 g 5441 3315 M
74 -192 V
stroke
LTb
.8576 g 5418 3224 M
97 -101 V
stroke
LTb
.9868 g 5196 3532 M
-74 0 V
stroke
LTb
.9671 g 5026 3459 M
96 73 V
stroke
LTb
.9695 g 2159 3464 M
-74 44 V
stroke
LTb
.9833 g 1988 3527 M
97 -19 V
stroke
LTb
.8595 g 4759 3206 M
-23 -33 V
stroke
LTb
.8556 g 4772 3209 M
-36 -36 V
stroke
LTb
.834 g 4640 3088 M
96 85 V
stroke
LTb
.9379 g 4992 3426 M
-26 -26 V
stroke
LTb
.9488 g 5025 3458 M
-32 -32 V
stroke
LTb
.9703 g 5100 3490 M
-74 -31 V
stroke
LTb
.8517 g 4705 3193 M
-65 -105 V
stroke
LTb
.8069 g 4544 3015 M
96 73 V
stroke
LTb
.7344 g 4158 2883 M
-74 -139 V
stroke
LTb
.7027 g 3987 2762 M
97 -18 V
stroke
LTb
.9718 g 1892 3486 M
-74 -23 V
stroke
LTb
.9783 g 1914 3567 M
-96 -104 V
stroke
LTb
.996 g 1988 3527 M
-74 40 V
stroke
LTb
.9815 g 5367 3471 M
-74 86 V
stroke
LTb
.9948 g 5199 3533 M
94 24 V
stroke
LTb
.8324 g 4618 3137 M
-74 -122 V
stroke
LTb
.7857 g 4447 2955 M
97 60 V
stroke
LTb
.937 g 5367 3471 M
74 -156 V
stroke
LTb
.9304 g 5344 3389 M
97 -74 V
stroke
LTb
.8342 g 5418 3224 M
74 -251 V
stroke
LTb
.8138 g 5396 3086 M
96 -113 V
stroke
LTb
.816 g 4521 3084 M
-74 -129 V
stroke
LTb
.772 g 4351 2912 M
96 43 V
stroke
LTb
.9782 g 5270 3489 M
97 -18 V
stroke
LTb
.9589 g 2233 3403 M
-74 61 V
stroke
LTb
.9781 g 2062 3488 M
97 -24 V
stroke
LTb
.0828 g 3372 1205 M
3275 846 L
stroke
LTb
.0838 g 3201 1217 M
74 -371 V
stroke
LTb
.9914 g 5270 3489 M
-73 42 V
stroke
LTb
.99 g 5100 3490 M
96 42 V
stroke
LTb
.9918 g 2062 3488 M
-74 39 V
stroke
LTb
.9895 g 1892 3486 M
96 41 V
stroke
LTb
.8074 g 4425 3044 M
-74 -132 V
stroke
LTb
.7677 g 4254 2890 M
97 22 V
stroke
LTb
.9384 g 1869 3356 M
-74 -9 V
stroke
LTb
.9568 g 1892 3486 M
-97 -139 V
stroke
LTb
.7186 g 3998 2780 M
-11 -18 V
stroke
LTb
.7133 g 3985 2762 M
2 0 V
stroke
LTb
.9459 g 2294 3355 M
-61 48 V
stroke
LTb
.9398 g 2299 3351 M
-4 3 V
stroke
LTb
.9696 g 2136 3452 M
97 -49 V
stroke
LTb
.992 g 5174 3485 M
-74 5 V
stroke
LTb
.9765 g 5003 3429 M
97 61 V
stroke
LTb
.9898 g 1966 3474 M
-74 12 V
stroke
LTb
.9215 g 5344 3389 M
74 -165 V
stroke
LTb
.9116 g 5322 3294 M
96 -70 V
stroke
LTb
.9716 g 5344 3389 M
-74 100 V
stroke
LTb
.9934 g 5174 3485 M
96 4 V
stroke
LTb
.9803 g 5077 3451 M
-74 -22 V
stroke
LTb
.9543 g 4907 3353 M
96 76 V
stroke
LTb
.8065 g 4328 3015 M
-74 -125 V
stroke
LTb
.7722 g 4158 2883 M
96 7 V
stroke
LTb
.9887 g 2136 3452 M
-74 36 V
stroke
LTb
.9922 g 1966 3474 M
96 14 V
stroke
LTb
.9704 g 5248 3429 M
96 -40 V
stroke
LTb
.957 g 4973 3389 M
-66 -36 V
stroke
LTb
.936 g 4862 3320 M
45 33 V
stroke
LTb
.8912 g 5322 3294 M
74 -208 V
stroke
LTb
.8717 g 5299 3160 M
97 -74 V
stroke
LTb
.8777 g 4618 3137 M
63 47 V
stroke
LTb
.9585 g 1943 3366 M
-74 -10 V
stroke
LTb
.9714 g 1966 3474 M
-97 -118 V
stroke
LTb
.9922 g 5248 3429 M
-74 56 V
stroke
LTb
.9958 g 5077 3451 M
97 34 V
stroke
LTb
.9958 g 2040 3448 M
-74 26 V
stroke
LTb
.8802 g 4642 3168 M
-24 -31 V
stroke
LTb
.8627 g 4521 3084 M
97 53 V
stroke
LTb
.7989 g 4199 2957 M
-41 -74 V
stroke
LTb
.782 g 4094 2890 M
64 -7 V
stroke
LTb
.9822 g 2210 3400 M
-74 52 V
stroke
LTb
.9924 g 2040 3448 M
96 4 V
stroke
LTb
.8734 g 4558 3141 M
-37 -57 V
stroke
LTb
.8514 g 4425 3044 M
96 40 V
stroke
LTb
.9604 g 5248 3429 M
74 -135 V
stroke
LTb
.9479 g 5225 3324 M
97 -30 V
stroke
LTb
.993 g 5151 3419 M
-74 32 V
stroke
LTb
.9848 g 4981 3393 M
96 58 V
stroke
LTb
.9894 g 5151 3419 M
97 10 V
stroke
LTb
.2516 g 3298 1581 M
-97 -364 V
stroke
LTb
.2422 g 3127 1551 M
74 -334 V
stroke
LTb
.9742 g 2284 3358 M
-74 42 V
stroke
LTb
.9882 g 2114 3422 M
96 -22 V
stroke
LTb
.2462 g 3468 1556 M
-96 -351 V
stroke
LTb
.2506 g 3298 1581 M
74 -376 V
stroke
LTb
.985 g 5055 3397 M
-74 -4 V
stroke
LTb
.9671 g 4885 3332 M
96 61 V
stroke
LTb
.8659 g 4461 3103 M
-36 -59 V
stroke
LTb
.8463 g 4328 3015 M
97 29 V
stroke
LTb
.9984 g 2114 3422 M
-74 26 V
stroke
LTb
.9829 g 1943 3366 M
97 82 V
stroke
LTb
.9724 g 2017 3351 M
-74 15 V
stroke
LTb
.9284 g 5225 3324 M
74 -164 V
stroke
LTb
.9127 g 5203 3205 M
96 -45 V
stroke
LTb
.9769 g 5225 3324 M
-74 95 V
stroke
LTb
.9932 g 5055 3397 M
96 22 V
stroke
LTb
.9702 g 2358 3322 M
-74 36 V
stroke
LTb
.9854 g 2188 3390 M
96 -32 V
stroke
LTb
.8502 g 4338 3032 M
-10 -17 V
stroke
LTb
.8462 g 4310 3015 M
18 0 V
stroke
LTb
.9718 g 5129 3344 M
96 -20 V
stroke
LTb
.9994 g 2188 3390 M
-74 32 V
stroke
LTb
.9879 g 2017 3351 M
97 71 V
stroke
LTb
.9783 g 2091 3328 M
-74 23 V
stroke
LTb
.9881 g 5129 3344 M
-74 53 V
stroke
LTb
.9923 g 4958 3368 M
97 29 V
stroke
LTb
.9695 g 2432 3293 M
-74 29 V
stroke
LTb
.9817 g 2262 3350 M
96 -28 V
stroke
LTb
.4017 g 3224 1918 M
-97 -367 V
stroke
LTb
.3769 g 3053 1825 M
74 -274 V
stroke
LTb
.9562 g 5129 3344 M
74 -139 V
stroke
LTb
.942 g 5106 3231 M
97 -26 V
stroke
LTb
.9969 g 2262 3350 M
-74 40 V
stroke
LTb
.9898 g 2091 3328 M
97 62 V
stroke
LTb
.9922 g 5032 3342 M
-74 26 V
stroke
LTb
.9851 g 4862 3320 M
96 48 V
stroke
LTb
.9881 g 5032 3342 M
97 2 V
stroke
LTb
.9816 g 2165 3302 M
-74 26 V
stroke
LTb
.9879 g 4936 3324 M
-74 -4 V
stroke
LTb
.977 g 4766 3287 M
96 33 V
stroke
LTb
.4103 g 3394 1908 M
-96 -327 V
stroke
LTb
.4111 g 3224 1918 M
74 -337 V
stroke
LTb
.3979 g 3564 1868 M
-96 -312 V
stroke
LTb
.4059 g 3394 1908 M
74 -352 V
stroke
LTb
.9726 g 2506 3272 M
-74 21 V
stroke
LTb
.9821 g 2336 3318 M
96 -25 V
stroke
LTb
.9943 g 2336 3318 M
-74 32 V
stroke
LTb
.9887 g 2165 3302 M
97 48 V
stroke
LTb
.9739 g 5106 3231 M
-74 111 V
stroke
LTb
.9949 g 4946 3326 M
86 16 V
stroke
LTb
.9862 g 4839 3303 M
-73 -16 V
stroke
LTb
.9624 g 5010 3241 M
96 -10 V
stroke
LTb
.984 g 2239 3276 M
-74 26 V
stroke
LTb
.524 g 3150 2202 M
-97 -377 V
stroke
LTb
.4987 g 2979 2106 M
74 -281 V
stroke
LTb
.9775 g 2580 3251 M
-74 21 V
stroke
LTb
.9827 g 2410 3279 M
96 -7 V
stroke
LTb
.9922 g 2410 3279 M
-74 39 V
stroke
LTb
.9897 g 2239 3276 M
97 42 V
stroke
LTb
.9834 g 5010 3241 M
-74 83 V
stroke
LTb
.9971 g 4839 3303 M
97 21 V
stroke
LTb
.9745 g 4913 3233 M
97 8 V
stroke
LTb
.985 g 2313 3244 M
-74 32 V
stroke
LTb
.9881 g 4913 3233 M
-74 70 V
stroke
LTb
.9977 g 4743 3279 M
96 24 V
stroke
LTb
.9937 g 2484 3262 M
-74 17 V
stroke
LTb
.9875 g 2313 3244 M
97 35 V
stroke
LTb
.9825 g 2654 3231 M
-74 20 V
stroke
LTb
.9885 g 2484 3262 M
96 -11 V
stroke
LTb
.5546 g 3320 2218 M
-96 -300 V
stroke
LTb
.5488 g 3150 2202 M
74 -284 V
stroke
LTb
.5329 g 3660 2151 M
-96 -283 V
stroke
LTb
.5422 g 3490 2196 M
74 -328 V
stroke
LTb
.5502 g 3490 2196 M
-96 -288 V
stroke
LTb
.5538 g 3320 2218 M
74 -310 V
stroke
LTb
.6453 g 3076 2474 M
-97 -368 V
stroke
LTb
.6261 g 2905 2403 M
74 -297 V
stroke
LTb
.9802 g 4817 3216 M
96 17 V
stroke
LTb
.9858 g 4647 3250 M
-122 -32 V
stroke
LTb
.9822 g 2387 3203 M
-74 41 V
stroke
LTb
.9898 g 4817 3216 M
-74 63 V
stroke
LTb
.9964 g 4647 3250 M
96 29 V
stroke
LTb
.9791 g 2654 3231 M
105 -29 V
stroke
LTb
.9866 g 2728 3206 M
-74 25 V
stroke
LTb
.9921 g 2558 3235 M
96 -4 V
stroke
LTb
.9981 g 2558 3235 M
-74 27 V
stroke
LTb
.9883 g 2387 3203 M
97 59 V
stroke
LTb
.9838 g 4721 3200 M
96 16 V
stroke
LTb
.9903 g 4721 3200 M
-74 50 V
stroke
LTb
.994 g 4550 3222 M
97 28 V
stroke
LTb
.9846 g 4454 3198 M
-74 -3 V
stroke
LTb
.9845 g 4550 3222 M
-170 -27 V
stroke
LTb
.9779 g 4295 3182 M
85 13 V
stroke
LTb
.9728 g 2461 3144 M
-74 59 V
stroke
LTb
.6818 g 3246 2512 M
-96 -310 V
stroke
LTb
.6706 g 3076 2474 M
74 -272 V
stroke
LTb
.9855 g 4624 3161 M
-74 61 V
stroke
LTb
.993 g 4454 3198 M
96 24 V
stroke
LTb
.6475 g 3756 2380 M
-96 -229 V
stroke
LTb
.6525 g 3587 2408 M
73 -257 V
stroke
LTb
.9818 g 4624 3161 M
97 39 V
stroke
LTb
.9839 g 2802 3158 M
-74 48 V
stroke
LTb
.9845 g 2899 3184 M
-171 22 V
stroke
LTb
.984 g 2632 3165 M
96 41 V
stroke
LTb
.9894 g 2632 3165 M
-74 70 V
stroke
LTb
.9825 g 2461 3144 M
97 91 V
stroke
LTb
.6885 g 3416 2509 M
-96 -291 V
stroke
LTb
.6877 g 3246 2512 M
74 -294 V
stroke
LTb
.961 g 2535 3093 M
-74 51 V
stroke
LTb
.7563 g 3002 2688 M
-97 -285 V
stroke
LTb
.7363 g 2831 2615 M
74 -212 V
stroke
LTb
.988 g 2973 3182 M
-74 2 V
stroke
LTb
.9803 g 2802 3158 M
97 26 V
stroke
LTb
.6619 g 3587 2408 M
-97 -212 V
stroke
LTb
.6849 g 3416 2509 M
74 -313 V
stroke
LTb
.9805 g 4187 3175 M
-132 -31 V
stroke
LTb
.9767 g 4528 3132 M
96 29 V
stroke
LTb
.9704 g 2706 3096 M
-74 69 V
stroke
LTb
.968 g 2535 3093 M
97 72 V
stroke
LTb
.9842 g 4528 3132 M
-74 66 V
stroke
LTb
.9957 g 4357 3185 M
97 13 V
stroke
LTb
.9834 g 2876 3142 M
-74 16 V
stroke
LTb
.9704 g 2706 3096 M
96 62 V
stroke
LTb
.9439 g 2609 3013 M
-74 80 V
stroke
LTb
.836 g 2928 2861 M
-97 -246 V
stroke
LTb
.8113 g 2757 2768 M
74 -153 V
stroke
LTb
.9809 g 4261 3108 M
-74 67 V
stroke
LTb
.994 g 4357 3185 M
-170 -10 V
stroke
LTb
.9882 g 4090 3145 M
97 30 V
stroke
LTb
.7891 g 3172 2736 M
-96 -262 V
stroke
LTb
.7755 g 3002 2688 M
74 -214 V
stroke
LTb
.9526 g 2780 3031 M
-74 65 V
stroke
LTb
.9464 g 2609 3013 M
97 83 V
stroke
LTb
.8619 g 2757 2768 M
-74 113 V
stroke
LTb
.9131 g 2780 3031 M
-97 -150 V
stroke
LTb
.907 g 2609 3013 M
74 -132 V
stroke
LTb
.9711 g 4431 3091 M
97 41 V
stroke
LTb
.8764 g 2854 2933 M
-97 -165 V
stroke
LTb
.7546 g 3682 2620 M
-95 -212 V
stroke
LTb
.7703 g 3513 2690 M
74 -282 V
stroke
LTb
.7386 g 3853 2568 M
-97 -188 V
stroke
LTb
.7496 g 3682 2620 M
74 -240 V
stroke
LTb
.9965 g 3047 3156 M
-74 26 V
stroke
LTb
.9909 g 3143 3158 M
-170 24 V
stroke
LTb
.9912 g 2876 3142 M
97 40 V
stroke
LTb
.9833 g 4090 3145 M
-155 -7 V
stroke
LTb
.9923 g 3217 3149 M
-74 9 V
stroke
LTb
.9923 g 3047 3156 M
96 2 V
stroke
LTb
.9826 g 4431 3091 M
-74 94 V
stroke
LTb
.9853 g 4261 3108 M
96 77 V
stroke
LTb
.9603 g 4335 3029 M
-74 79 V
stroke
LTb
.9658 g 4164 3059 M
97 49 V
stroke
LTb
.9276 g 2854 2933 M
-74 98 V
stroke
LTb
.9656 g 2876 3142 M
-96 -111 V
stroke
LTb
.9731 g 4164 3059 M
-74 86 V
stroke
LTb
.9897 g 3994 3134 M
96 11 V
stroke
LTb
.8043 g 3342 2745 M
-96 -233 V
stroke
LTb
.8004 g 3172 2736 M
74 -224 V
stroke
LTb
.9577 g 4335 3029 M
96 62 V
stroke
LTb
.976 g 2950 3066 M
-74 76 V
stroke
LTb
.9012 g 2928 2861 M
-74 72 V
stroke
LTb
.938 g 2950 3066 M
-96 -133 V
stroke
LTb
.866 g 3098 2895 M
-96 -207 V
stroke
LTb
.856 g 2928 2861 M
74 -173 V
stroke
LTb
.7933 g 3513 2690 M
-97 -181 V
stroke
LTb
.8051 g 3342 2745 M
74 -236 V
stroke
LTb
.9938 g 3727 3131 M
-74 7 V
stroke
LTb
.9916 g 3824 3146 M
-171 -8 V
stroke
LTb
.9936 g 3558 3138 M
95 0 V
stroke
LTb
.9406 g 4238 2974 M
97 55 V
stroke
LTb
.9461 g 4238 2974 M
-74 85 V
stroke
LTb
.9618 g 4068 3044 M
96 15 V
stroke
LTb
.8088 g 3949 2712 M
-96 -144 V
stroke
LTb
.8319 g 3779 2813 M
74 -245 V
stroke
LTb
.9925 g 3120 3104 M
-73 52 V
stroke
LTb
.9813 g 2950 3066 M
97 90 V
stroke
LTb
.9594 g 3024 3013 M
-74 53 V
stroke
LTb
.9952 g 3898 3115 M
-74 31 V
stroke
LTb
.9941 g 3994 3134 M
-170 12 V
stroke
LTb
.9975 g 3727 3131 M
97 15 V
stroke
LTb
.8429 g 3779 2813 M
-97 -193 V
stroke
LTb
.8537 g 3608 2863 M
74 -243 V
stroke
LTb
.9226 g 3024 3013 M
-96 -152 V
stroke
LTb
.9283 g 4142 2932 M
96 42 V
stroke
LTb
.9924 g 3291 3096 M
-74 53 V
stroke
LTb
.9972 g 3387 3139 M
-170 10 V
stroke
LTb
.9925 g 3120 3104 M
97 45 V
stroke
LTb
.9784 g 4068 3044 M
-74 90 V
stroke
LTb
.9939 g 3898 3115 M
96 19 V
stroke
LTb
.9914 g 3461 3087 M
-74 52 V
stroke
LTb
.9981 g 3558 3138 M
-171 1 V
stroke
LTb
.9919 g 3291 3096 M
96 43 V
stroke
LTb
.8663 g 4046 2848 M
-97 -136 V
stroke
LTb
.8842 g 3875 2927 M
74 -215 V
stroke
LTb
.8862 g 3268 2914 M
-96 -178 V
stroke
LTb
.8796 g 3098 2895 M
74 -159 V
stroke
LTb
.8694 g 3608 2863 M
-95 -173 V
stroke
LTb
.8776 g 3439 2904 M
74 -214 V
stroke
LTb
.9439 g 4142 2932 M
-74 112 V
stroke
LTb
.9629 g 3972 3016 M
96 28 V
stroke
LTb
.996 g 3631 3093 M
-73 45 V
stroke
LTb
.9928 g 3461 3087 M
97 51 V
stroke
LTb
.9699 g 3194 3003 M
-74 101 V
stroke
LTb
.9706 g 3024 3013 M
96 91 V
stroke
LTb
.9089 g 4046 2848 M
96 84 V
stroke
LTb
.9326 g 3098 2895 M
-74 118 V
stroke
LTb
.9319 g 3194 3003 M
-96 -108 V
stroke
LTb
.9279 g 3972 3016 M
74 -168 V
stroke
LTb
.8893 g 3439 2904 M
-97 -159 V
stroke
LTb
.8901 g 3268 2914 M
74 -169 V
stroke
LTb
.9909 g 3801 3064 M
-74 67 V
stroke
LTb
.9962 g 3631 3093 M
96 38 V
stroke
LTb
.9777 g 3365 3027 M
-74 69 V
stroke
LTb
.9698 g 3194 3003 M
97 93 V
stroke
LTb
.9384 g 3268 2914 M
-74 89 V
stroke
LTb
.9785 g 3972 3016 M
-74 99 V
stroke
LTb
.9886 g 3801 3064 M
97 51 V
stroke
LTb
.9754 g 3535 3013 M
-74 74 V
stroke
LTb
.9772 g 3365 3027 M
96 60 V
stroke
LTb
.9073 g 3875 2927 M
-96 -114 V
stroke
LTb
.9225 g 3705 2996 M
74 -183 V
stroke
LTb
.9458 g 3875 2927 M
97 89 V
stroke
LTb
.9463 g 3365 3027 M
-97 -113 V
stroke
LTb
.9559 g 3801 3064 M
74 -137 V
stroke
LTb
.9333 g 3705 2996 M
-97 -133 V
stroke
LTb
.9356 g 3535 3013 M
73 -150 V
stroke
LTb
.9763 g 3705 2996 M
-74 97 V
stroke
LTb
.9787 g 3535 3013 M
96 80 V
stroke
LTb
.9711 g 3705 2996 M
96 68 V
stroke
LTb
.9455 g 3439 2904 M
-74 123 V
stroke
LTb
.9437 g 3535 3013 M
-96 -109 V
% End plot #1
% Begin plot #2
stroke
LTb
.262 g % End plot #2
0.500 UL
LTb
LCb setrgbcolor
3253 724 M
2988 736 V
stroke
LTb
LCb setrgbcolor
3253 724 M
959 1684 L
stroke
LTb
LCb setrgbcolor
959 1684 M
2002 494 V
stroke
LTb
LCb setrgbcolor
6241 1460 M
4094 2359 L
stroke
LTb
LCb setrgbcolor
959 3780 M
0 -2096 V
stroke
LTb
LCb setrgbcolor
3947 4516 M
0 -346 V
stroke
LTb
LCb setrgbcolor
6241 3556 M
0 -2096 V
stroke
LTb
LCb setrgbcolor
3104 4308 M
843 208 V
stroke
LTb
LCb setrgbcolor
959 3780 M
2144 528 V
stroke
LTb
LCb setrgbcolor
6241 3556 M
3947 4516 L
stroke
LTa
LCa setrgbcolor
3253 724 M
959 1684 L
stroke
LTb
LCb setrgbcolor
3336 689 M
-83 35 V
stroke
LTb
LCb setrgbcolor
959 1684 M
-84 35 V
stroke
0.00 0.00 0.00 C 3450 609 M
[ [({}) 200.0 0.0 true true 0 (-1)]
] -66.7 MLshow
0.500 UL
LTb
LCb setrgbcolor
0.500 UL
LTa
LCa setrgbcolor
3195 1245 M
1706 1868 L
stroke
LTa
LCa setrgbcolor
3999 908 M
-636 266 V
stroke
LTb
LCb setrgbcolor
4083 873 M
-84 35 V
stroke
LTb
LCb setrgbcolor
1706 1868 M
-83 35 V
stroke
0.00 0.00 0.00 C 4196 793 M
[ [({}) 200.0 0.0 true true 0 (-0.5)]
] -66.7 MLshow
0.500 UL
LTb
LCb setrgbcolor
0.500 UL
LTa
LCa setrgbcolor
3060 1798 M
-606 254 V
stroke
LTa
LCa setrgbcolor
4746 1092 M
3488 1619 L
stroke
LTb
LCb setrgbcolor
4830 1057 M
-84 35 V
stroke
LTb
LCb setrgbcolor
2454 2052 M
-84 35 V
stroke
0.00 0.00 0.00 C 4944 978 M
[ [({}) 200.0 0.0 true true 0 (0)]
] -66.7 MLshow
0.500 UL
LTb
LCb setrgbcolor
0.500 UL
LTa
LCa setrgbcolor
5494 1276 M
3628 2057 L
stroke
LTb
LCb setrgbcolor
5577 1241 M
-83 35 V
stroke
0.00 0.00 0.00 C 5691 1162 M
[ [({}) 200.0 0.0 true true 0 (0.5)]
] -66.7 MLshow
0.500 UL
LTb
LCb setrgbcolor
0.500 UL
LTa
LCa setrgbcolor
6241 1460 M
4094 2359 L
stroke
LTb
LCb setrgbcolor
6325 1425 M
-84 35 V
stroke
0.00 0.00 0.00 C 6438 1346 M
[ [({}) 200.0 0.0 true true 0 (1)]
] -66.7 MLshow
0.500 UL
LTb
LCb setrgbcolor
0.500 UL
LTa
LCa setrgbcolor
3253 724 M
2988 736 V
stroke
LTb
LCb setrgbcolor
3183 706 M
70 18 V
stroke
LTb
LCb setrgbcolor
6241 1460 M
70 18 V
stroke
0.00 0.00 0.00 C 3088 667 M
[ [({}) 200.0 0.0 true true 0 (-1)]
] -66.7 MCshow
0.500 UL
LTb
LCb setrgbcolor
0.500 UL
LTa
LCa setrgbcolor
3351 1129 M
2317 572 V
stroke
LTa
LCa setrgbcolor
2679 964 M
546 134 V
stroke
LTb
LCb setrgbcolor
2609 946 M
70 18 V
stroke
LTb
LCb setrgbcolor
5668 1701 M
70 17 V
stroke
0.00 0.00 0.00 C 2514 907 M
[ [({}) 200.0 0.0 true true 0 (-0.5)]
] -66.7 MCshow
0.500 UL
LTb
LCb setrgbcolor
0.500 UL
LTa
LCa setrgbcolor
3463 1538 M
1631 403 V
stroke
LTa
LCa setrgbcolor
2106 1204 M
1041 256 V
stroke
LTb
LCb setrgbcolor
2036 1186 M
70 18 V
stroke
LTb
LCb setrgbcolor
5094 1941 M
70 17 V
stroke
0.00 0.00 0.00 C 1941 1147 M
[ [({}) 200.0 0.0 true true 0 (0)]
] -66.7 MCshow
0.500 UL
LTb
LCb setrgbcolor
0.500 UL
LTa
LCa setrgbcolor
3593 1952 M
928 229 V
stroke
LTa
LCa setrgbcolor
1532 1444 M
1523 375 V
stroke
LTb
LCb setrgbcolor
1462 1427 M
70 17 V
stroke
LTb
LCb setrgbcolor
4521 2181 M
70 17 V
stroke
0.00 0.00 0.00 C 1367 1387 M
[ [({}) 200.0 0.0 true true 0 (0.5)]
] -66.7 MCshow
0.500 UL
LTb
LCb setrgbcolor
0.500 UL
LTa
LCa setrgbcolor
959 1684 M
2002 494 V
stroke
LTb
LCb setrgbcolor
889 1667 M
70 17 V
stroke
0.00 0.00 0.00 C 794 1628 M
[ [({}) 200.0 0.0 true true 0 (1)]
] -66.7 MCshow
0.500 UL
LTb
LCb setrgbcolor
0.500 UL
LTa
LCa setrgbcolor
959 1684 M
2002 494 V
stroke
LTa
LCa setrgbcolor
6241 1460 M
4094 2359 L
stroke
LTb
LCb setrgbcolor
871 1684 M
88 0 V
stroke
0.00 0.00 0.00 C 744 1684 M
[ [({}) 200.0 0.0 true true 0 (-0.4)]
] -66.7 MRshow
0.500 UL
LTb
LCb setrgbcolor
0.500 UL
LTb
LCb setrgbcolor
6329 1460 M
-88 0 V
stroke
LTa
LCa setrgbcolor
1210 2045 M
1676 413 V
stroke
LTa
LCa setrgbcolor
959 1983 M
242 60 V
stroke
LTa
LCa setrgbcolor
5967 1875 M
4310 2568 L
stroke
LTa
LCa setrgbcolor
6241 1760 M
-235 98 V
stroke
LTb
LCb setrgbcolor
871 1983 M
88 0 V
stroke
0.00 0.00 0.00 C 744 1983 M
[ [({}) 200.0 0.0 true true 0 (-0.2)]
] -66.7 MRshow
0.500 UL
LTb
LCb setrgbcolor
0.500 UL
LTb
LCb setrgbcolor
6329 1760 M
-88 0 V
stroke
LTa
LCa setrgbcolor
1299 2367 M
1459 359 V
stroke
LTa
LCa setrgbcolor
959 2283 M
322 79 V
stroke
LTa
LCa setrgbcolor
5850 2223 M
4491 2791 L
stroke
LTa
LCa setrgbcolor
6241 2059 M
-303 128 V
stroke
LTb
LCb setrgbcolor
871 2283 M
88 0 V
stroke
0.00 0.00 0.00 C 744 2283 M
[ [({}) 200.0 0.0 true true 0 (0)]
] -66.7 MRshow
0.500 UL
LTb
LCb setrgbcolor
0.500 UL
LTb
LCb setrgbcolor
6329 2059 M
-88 0 V
stroke
LTa
LCa setrgbcolor
1401 2690 M
1169 289 V
stroke
LTa
LCa setrgbcolor
959 2582 M
409 100 V
stroke
LTa
LCa setrgbcolor
5714 2580 M
4659 3020 L
stroke
LTa
LCa setrgbcolor
6241 2359 M
-381 160 V
stroke
LTb
LCb setrgbcolor
871 2582 M
88 0 V
stroke
0.00 0.00 0.00 C 744 2582 M
[ [({}) 200.0 0.0 true true 0 (0.2)]
] -66.7 MRshow
0.500 UL
LTb
LCb setrgbcolor
0.500 UL
LTb
LCb setrgbcolor
6329 2359 M
-88 0 V
stroke
LTa
LCa setrgbcolor
1512 3017 M
838 207 V
stroke
LTa
LCa setrgbcolor
959 2881 M
509 125 V
stroke
LTa
LCa setrgbcolor
5494 2970 M
-613 257 V
stroke
LTa
LCa setrgbcolor
5780 2851 M
-2 1 V
stroke
LTa
LCa setrgbcolor
6241 2658 M
-461 193 V
stroke
LTb
LCb setrgbcolor
871 2881 M
88 0 V
stroke
0.00 0.00 0.00 C 744 2881 M
[ [({}) 200.0 0.0 true true 0 (0.4)]
] -66.7 MRshow
0.500 UL
LTb
LCb setrgbcolor
0.500 UL
LTb
LCb setrgbcolor
6329 2658 M
-88 0 V
stroke
LTa
LCa setrgbcolor
959 3181 M
629 154 V
stroke
LTa
LCa setrgbcolor
6241 2957 M
-580 243 V
stroke
LTb
LCb setrgbcolor
871 3181 M
88 0 V
stroke
0.00 0.00 0.00 C 744 3181 M
[ [({}) 200.0 0.0 true true 0 (0.6)]
] -66.7 MRshow
0.500 UL
LTb
LCb setrgbcolor
0.500 UL
LTb
LCb setrgbcolor
6329 2957 M
-88 0 V
stroke
LTa
LCa setrgbcolor
3790 4178 M
157 39 V
stroke
LTa
LCa setrgbcolor
1775 3681 M
13 3 V
stroke
LTa
LCa setrgbcolor
959 3480 M
815 201 V
stroke
LTa
LCa setrgbcolor
4063 4169 M
-116 48 V
stroke
LTa
LCa setrgbcolor
6241 3257 M
-749 313 V
stroke
LTb
LCb setrgbcolor
871 3480 M
88 0 V
stroke
0.00 0.00 0.00 C 744 3480 M
[ [({}) 200.0 0.0 true true 0 (0.8)]
] -66.7 MRshow
0.500 UL
LTb
LCb setrgbcolor
0.500 UL
LTb
LCb setrgbcolor
6329 3257 M
-88 0 V
stroke
LTa
LCa setrgbcolor
3104 4308 M
843 208 V
stroke
LTa
LCa setrgbcolor
959 3780 M
2144 528 V
stroke
LTa
LCa setrgbcolor
6241 3556 M
3947 4516 L
stroke
LTb
LCb setrgbcolor
871 3780 M
88 0 V
stroke
0.00 0.00 0.00 C 744 3780 M
[ [({}) 200.0 0.0 true true 0 (1)]
] -66.7 MRshow
0.500 UL
LTb
LCb setrgbcolor
0.500 UL
LTb
LCb setrgbcolor
6329 3556 M
-88 0 V
1.000 UP
stroke
grestore % colour palette end
stroke
grestore
end
showpage
%%Trailer
%%DocumentFonts: Helvetica
