%!PS-Adobe-2.0 EPSF-2.0
%%Title: polar.eps
%%Creator: gnuplot 5.0 patchlevel 2
%%CreationDate: Fri Jul  1 14:57:37 2016
%%DocumentFonts: (atend)
%%BoundingBox: 50 50 410 302
%%EndComments
%%BeginProlog
/gnudict 256 dict def
gnudict begin
%
% The following true/false flags may be edited by hand if desired.
% The unit line width and grayscale image gamma correction may also be changed.
%
/Color true def
/Blacktext false def
/Solid false def
/Dashlength 2 def
/Landscape false def
/Level1 false def
/Level3 false def
/Rounded false def
/ClipToBoundingBox false def
/SuppressPDFMark false def
/TransparentPatterns false def
/gnulinewidth 5.000 def
/userlinewidth gnulinewidth def
/Gamma 1.0 def
/BackgroundColor {-1.000 -1.000 -1.000} def
%
/vshift -66 def
/dl1 {
  10.0 Dashlength userlinewidth gnulinewidth div mul mul mul
  Rounded { currentlinewidth 0.75 mul sub dup 0 le { pop 0.01 } if } if
} def
/dl2 {
  10.0 Dashlength userlinewidth gnulinewidth div mul mul mul
  Rounded { currentlinewidth 0.75 mul add } if
} def
/hpt_ 31.5 def
/vpt_ 31.5 def
/hpt hpt_ def
/vpt vpt_ def
/doclip {
  ClipToBoundingBox {
    newpath 50 50 moveto 410 50 lineto 410 302 lineto 50 302 lineto closepath
    clip
  } if
} def
%
% Gnuplot Prolog Version 5.1 (Oct 2015)
%
%/SuppressPDFMark true def
%
/M {moveto} bind def
/L {lineto} bind def
/R {rmoveto} bind def
/V {rlineto} bind def
/N {newpath moveto} bind def
/Z {closepath} bind def
/C {setrgbcolor} bind def
/f {rlineto fill} bind def
/g {setgray} bind def
/Gshow {show} def   % May be redefined later in the file to support UTF-8
/vpt2 vpt 2 mul def
/hpt2 hpt 2 mul def
/Lshow {currentpoint stroke M 0 vshift R 
	Blacktext {gsave 0 setgray textshow grestore} {textshow} ifelse} def
/Rshow {currentpoint stroke M dup stringwidth pop neg vshift R
	Blacktext {gsave 0 setgray textshow grestore} {textshow} ifelse} def
/Cshow {currentpoint stroke M dup stringwidth pop -2 div vshift R 
	Blacktext {gsave 0 setgray textshow grestore} {textshow} ifelse} def
/UP {dup vpt_ mul /vpt exch def hpt_ mul /hpt exch def
  /hpt2 hpt 2 mul def /vpt2 vpt 2 mul def} def
/DL {Color {setrgbcolor Solid {pop []} if 0 setdash}
 {pop pop pop 0 setgray Solid {pop []} if 0 setdash} ifelse} def
/BL {stroke userlinewidth 2 mul setlinewidth
	Rounded {1 setlinejoin 1 setlinecap} if} def
/AL {stroke userlinewidth 2 div setlinewidth
	Rounded {1 setlinejoin 1 setlinecap} if} def
/UL {dup gnulinewidth mul /userlinewidth exch def
	dup 1 lt {pop 1} if 10 mul /udl exch def} def
/PL {stroke userlinewidth setlinewidth
	Rounded {1 setlinejoin 1 setlinecap} if} def
3.8 setmiterlimit
% Classic Line colors (version 5.0)
/LCw {1 1 1} def
/LCb {0 0 0} def
/LCa {0 0 0} def
/LC0 {1 0 0} def
/LC1 {0 1 0} def
/LC2 {0 0 1} def
/LC3 {1 0 1} def
/LC4 {0 1 1} def
/LC5 {1 1 0} def
/LC6 {0 0 0} def
/LC7 {1 0.3 0} def
/LC8 {0.5 0.5 0.5} def
% Default dash patterns (version 5.0)
/LTB {BL [] LCb DL} def
/LTw {PL [] 1 setgray} def
/LTb {PL [] LCb DL} def
/LTa {AL [1 udl mul 2 udl mul] 0 setdash LCa setrgbcolor} def
/LT0 {PL [] LC0 DL} def
/LT1 {PL [2 dl1 3 dl2] LC1 DL} def
/LT2 {PL [1 dl1 1.5 dl2] LC2 DL} def
/LT3 {PL [6 dl1 2 dl2 1 dl1 2 dl2] LC3 DL} def
/LT4 {PL [1 dl1 2 dl2 6 dl1 2 dl2 1 dl1 2 dl2] LC4 DL} def
/LT5 {PL [4 dl1 2 dl2] LC5 DL} def
/LT6 {PL [1.5 dl1 1.5 dl2 1.5 dl1 1.5 dl2 1.5 dl1 6 dl2] LC6 DL} def
/LT7 {PL [3 dl1 3 dl2 1 dl1 3 dl2] LC7 DL} def
/LT8 {PL [2 dl1 2 dl2 2 dl1 6 dl2] LC8 DL} def
/SL {[] 0 setdash} def
/Pnt {stroke [] 0 setdash gsave 1 setlinecap M 0 0 V stroke grestore} def
/Dia {stroke [] 0 setdash 2 copy vpt add M
  hpt neg vpt neg V hpt vpt neg V
  hpt vpt V hpt neg vpt V closepath stroke
  Pnt} def
/Pls {stroke [] 0 setdash vpt sub M 0 vpt2 V
  currentpoint stroke M
  hpt neg vpt neg R hpt2 0 V stroke
 } def
/Box {stroke [] 0 setdash 2 copy exch hpt sub exch vpt add M
  0 vpt2 neg V hpt2 0 V 0 vpt2 V
  hpt2 neg 0 V closepath stroke
  Pnt} def
/Crs {stroke [] 0 setdash exch hpt sub exch vpt add M
  hpt2 vpt2 neg V currentpoint stroke M
  hpt2 neg 0 R hpt2 vpt2 V stroke} def
/TriU {stroke [] 0 setdash 2 copy vpt 1.12 mul add M
  hpt neg vpt -1.62 mul V
  hpt 2 mul 0 V
  hpt neg vpt 1.62 mul V closepath stroke
  Pnt} def
/Star {2 copy Pls Crs} def
/BoxF {stroke [] 0 setdash exch hpt sub exch vpt add M
  0 vpt2 neg V hpt2 0 V 0 vpt2 V
  hpt2 neg 0 V closepath fill} def
/TriUF {stroke [] 0 setdash vpt 1.12 mul add M
  hpt neg vpt -1.62 mul V
  hpt 2 mul 0 V
  hpt neg vpt 1.62 mul V closepath fill} def
/TriD {stroke [] 0 setdash 2 copy vpt 1.12 mul sub M
  hpt neg vpt 1.62 mul V
  hpt 2 mul 0 V
  hpt neg vpt -1.62 mul V closepath stroke
  Pnt} def
/TriDF {stroke [] 0 setdash vpt 1.12 mul sub M
  hpt neg vpt 1.62 mul V
  hpt 2 mul 0 V
  hpt neg vpt -1.62 mul V closepath fill} def
/DiaF {stroke [] 0 setdash vpt add M
  hpt neg vpt neg V hpt vpt neg V
  hpt vpt V hpt neg vpt V closepath fill} def
/Pent {stroke [] 0 setdash 2 copy gsave
  translate 0 hpt M 4 {72 rotate 0 hpt L} repeat
  closepath stroke grestore Pnt} def
/PentF {stroke [] 0 setdash gsave
  translate 0 hpt M 4 {72 rotate 0 hpt L} repeat
  closepath fill grestore} def
/Circle {stroke [] 0 setdash 2 copy
  hpt 0 360 arc stroke Pnt} def
/CircleF {stroke [] 0 setdash hpt 0 360 arc fill} def
/C0 {BL [] 0 setdash 2 copy moveto vpt 90 450 arc} bind def
/C1 {BL [] 0 setdash 2 copy moveto
	2 copy vpt 0 90 arc closepath fill
	vpt 0 360 arc closepath} bind def
/C2 {BL [] 0 setdash 2 copy moveto
	2 copy vpt 90 180 arc closepath fill
	vpt 0 360 arc closepath} bind def
/C3 {BL [] 0 setdash 2 copy moveto
	2 copy vpt 0 180 arc closepath fill
	vpt 0 360 arc closepath} bind def
/C4 {BL [] 0 setdash 2 copy moveto
	2 copy vpt 180 270 arc closepath fill
	vpt 0 360 arc closepath} bind def
/C5 {BL [] 0 setdash 2 copy moveto
	2 copy vpt 0 90 arc
	2 copy moveto
	2 copy vpt 180 270 arc closepath fill
	vpt 0 360 arc} bind def
/C6 {BL [] 0 setdash 2 copy moveto
	2 copy vpt 90 270 arc closepath fill
	vpt 0 360 arc closepath} bind def
/C7 {BL [] 0 setdash 2 copy moveto
	2 copy vpt 0 270 arc closepath fill
	vpt 0 360 arc closepath} bind def
/C8 {BL [] 0 setdash 2 copy moveto
	2 copy vpt 270 360 arc closepath fill
	vpt 0 360 arc closepath} bind def
/C9 {BL [] 0 setdash 2 copy moveto
	2 copy vpt 270 450 arc closepath fill
	vpt 0 360 arc closepath} bind def
/C10 {BL [] 0 setdash 2 copy 2 copy moveto vpt 270 360 arc closepath fill
	2 copy moveto
	2 copy vpt 90 180 arc closepath fill
	vpt 0 360 arc closepath} bind def
/C11 {BL [] 0 setdash 2 copy moveto
	2 copy vpt 0 180 arc closepath fill
	2 copy moveto
	2 copy vpt 270 360 arc closepath fill
	vpt 0 360 arc closepath} bind def
/C12 {BL [] 0 setdash 2 copy moveto
	2 copy vpt 180 360 arc closepath fill
	vpt 0 360 arc closepath} bind def
/C13 {BL [] 0 setdash 2 copy moveto
	2 copy vpt 0 90 arc closepath fill
	2 copy moveto
	2 copy vpt 180 360 arc closepath fill
	vpt 0 360 arc closepath} bind def
/C14 {BL [] 0 setdash 2 copy moveto
	2 copy vpt 90 360 arc closepath fill
	vpt 0 360 arc} bind def
/C15 {BL [] 0 setdash 2 copy vpt 0 360 arc closepath fill
	vpt 0 360 arc closepath} bind def
/Rec {newpath 4 2 roll moveto 1 index 0 rlineto 0 exch rlineto
	neg 0 rlineto closepath} bind def
/Square {dup Rec} bind def
/Bsquare {vpt sub exch vpt sub exch vpt2 Square} bind def
/S0 {BL [] 0 setdash 2 copy moveto 0 vpt rlineto BL Bsquare} bind def
/S1 {BL [] 0 setdash 2 copy vpt Square fill Bsquare} bind def
/S2 {BL [] 0 setdash 2 copy exch vpt sub exch vpt Square fill Bsquare} bind def
/S3 {BL [] 0 setdash 2 copy exch vpt sub exch vpt2 vpt Rec fill Bsquare} bind def
/S4 {BL [] 0 setdash 2 copy exch vpt sub exch vpt sub vpt Square fill Bsquare} bind def
/S5 {BL [] 0 setdash 2 copy 2 copy vpt Square fill
	exch vpt sub exch vpt sub vpt Square fill Bsquare} bind def
/S6 {BL [] 0 setdash 2 copy exch vpt sub exch vpt sub vpt vpt2 Rec fill Bsquare} bind def
/S7 {BL [] 0 setdash 2 copy exch vpt sub exch vpt sub vpt vpt2 Rec fill
	2 copy vpt Square fill Bsquare} bind def
/S8 {BL [] 0 setdash 2 copy vpt sub vpt Square fill Bsquare} bind def
/S9 {BL [] 0 setdash 2 copy vpt sub vpt vpt2 Rec fill Bsquare} bind def
/S10 {BL [] 0 setdash 2 copy vpt sub vpt Square fill 2 copy exch vpt sub exch vpt Square fill
	Bsquare} bind def
/S11 {BL [] 0 setdash 2 copy vpt sub vpt Square fill 2 copy exch vpt sub exch vpt2 vpt Rec fill
	Bsquare} bind def
/S12 {BL [] 0 setdash 2 copy exch vpt sub exch vpt sub vpt2 vpt Rec fill Bsquare} bind def
/S13 {BL [] 0 setdash 2 copy exch vpt sub exch vpt sub vpt2 vpt Rec fill
	2 copy vpt Square fill Bsquare} bind def
/S14 {BL [] 0 setdash 2 copy exch vpt sub exch vpt sub vpt2 vpt Rec fill
	2 copy exch vpt sub exch vpt Square fill Bsquare} bind def
/S15 {BL [] 0 setdash 2 copy Bsquare fill Bsquare} bind def
/D0 {gsave translate 45 rotate 0 0 S0 stroke grestore} bind def
/D1 {gsave translate 45 rotate 0 0 S1 stroke grestore} bind def
/D2 {gsave translate 45 rotate 0 0 S2 stroke grestore} bind def
/D3 {gsave translate 45 rotate 0 0 S3 stroke grestore} bind def
/D4 {gsave translate 45 rotate 0 0 S4 stroke grestore} bind def
/D5 {gsave translate 45 rotate 0 0 S5 stroke grestore} bind def
/D6 {gsave translate 45 rotate 0 0 S6 stroke grestore} bind def
/D7 {gsave translate 45 rotate 0 0 S7 stroke grestore} bind def
/D8 {gsave translate 45 rotate 0 0 S8 stroke grestore} bind def
/D9 {gsave translate 45 rotate 0 0 S9 stroke grestore} bind def
/D10 {gsave translate 45 rotate 0 0 S10 stroke grestore} bind def
/D11 {gsave translate 45 rotate 0 0 S11 stroke grestore} bind def
/D12 {gsave translate 45 rotate 0 0 S12 stroke grestore} bind def
/D13 {gsave translate 45 rotate 0 0 S13 stroke grestore} bind def
/D14 {gsave translate 45 rotate 0 0 S14 stroke grestore} bind def
/D15 {gsave translate 45 rotate 0 0 S15 stroke grestore} bind def
/DiaE {stroke [] 0 setdash vpt add M
  hpt neg vpt neg V hpt vpt neg V
  hpt vpt V hpt neg vpt V closepath stroke} def
/BoxE {stroke [] 0 setdash exch hpt sub exch vpt add M
  0 vpt2 neg V hpt2 0 V 0 vpt2 V
  hpt2 neg 0 V closepath stroke} def
/TriUE {stroke [] 0 setdash vpt 1.12 mul add M
  hpt neg vpt -1.62 mul V
  hpt 2 mul 0 V
  hpt neg vpt 1.62 mul V closepath stroke} def
/TriDE {stroke [] 0 setdash vpt 1.12 mul sub M
  hpt neg vpt 1.62 mul V
  hpt 2 mul 0 V
  hpt neg vpt -1.62 mul V closepath stroke} def
/PentE {stroke [] 0 setdash gsave
  translate 0 hpt M 4 {72 rotate 0 hpt L} repeat
  closepath stroke grestore} def
/CircE {stroke [] 0 setdash 
  hpt 0 360 arc stroke} def
/Opaque {gsave closepath 1 setgray fill grestore 0 setgray closepath} def
/DiaW {stroke [] 0 setdash vpt add M
  hpt neg vpt neg V hpt vpt neg V
  hpt vpt V hpt neg vpt V Opaque stroke} def
/BoxW {stroke [] 0 setdash exch hpt sub exch vpt add M
  0 vpt2 neg V hpt2 0 V 0 vpt2 V
  hpt2 neg 0 V Opaque stroke} def
/TriUW {stroke [] 0 setdash vpt 1.12 mul add M
  hpt neg vpt -1.62 mul V
  hpt 2 mul 0 V
  hpt neg vpt 1.62 mul V Opaque stroke} def
/TriDW {stroke [] 0 setdash vpt 1.12 mul sub M
  hpt neg vpt 1.62 mul V
  hpt 2 mul 0 V
  hpt neg vpt -1.62 mul V Opaque stroke} def
/PentW {stroke [] 0 setdash gsave
  translate 0 hpt M 4 {72 rotate 0 hpt L} repeat
  Opaque stroke grestore} def
/CircW {stroke [] 0 setdash 
  hpt 0 360 arc Opaque stroke} def
/BoxFill {gsave Rec 1 setgray fill grestore} def
/Density {
  /Fillden exch def
  currentrgbcolor
  /ColB exch def /ColG exch def /ColR exch def
  /ColR ColR Fillden mul Fillden sub 1 add def
  /ColG ColG Fillden mul Fillden sub 1 add def
  /ColB ColB Fillden mul Fillden sub 1 add def
  ColR ColG ColB setrgbcolor} def
/BoxColFill {gsave Rec PolyFill} def
/PolyFill {gsave Density fill grestore grestore} def
/h {rlineto rlineto rlineto gsave closepath fill grestore} bind def
%
% PostScript Level 1 Pattern Fill routine for rectangles
% Usage: x y w h s a XX PatternFill
%	x,y = lower left corner of box to be filled
%	w,h = width and height of box
%	  a = angle in degrees between lines and x-axis
%	 XX = 0/1 for no/yes cross-hatch
%
/PatternFill {gsave /PFa [ 9 2 roll ] def
  PFa 0 get PFa 2 get 2 div add PFa 1 get PFa 3 get 2 div add translate
  PFa 2 get -2 div PFa 3 get -2 div PFa 2 get PFa 3 get Rec
  TransparentPatterns {} {gsave 1 setgray fill grestore} ifelse
  clip
  currentlinewidth 0.5 mul setlinewidth
  /PFs PFa 2 get dup mul PFa 3 get dup mul add sqrt def
  0 0 M PFa 5 get rotate PFs -2 div dup translate
  0 1 PFs PFa 4 get div 1 add floor cvi
	{PFa 4 get mul 0 M 0 PFs V} for
  0 PFa 6 get ne {
	0 1 PFs PFa 4 get div 1 add floor cvi
	{PFa 4 get mul 0 2 1 roll M PFs 0 V} for
 } if
  stroke grestore} def
%
/languagelevel where
 {pop languagelevel} {1} ifelse
dup 2 lt
	{/InterpretLevel1 true def
	 /InterpretLevel3 false def}
	{/InterpretLevel1 Level1 def
	 2 gt
	    {/InterpretLevel3 Level3 def}
	    {/InterpretLevel3 false def}
	 ifelse }
 ifelse
%
% PostScript level 2 pattern fill definitions
%
/Level2PatternFill {
/Tile8x8 {/PaintType 2 /PatternType 1 /TilingType 1 /BBox [0 0 8 8] /XStep 8 /YStep 8}
	bind def
/KeepColor {currentrgbcolor [/Pattern /DeviceRGB] setcolorspace} bind def
<< Tile8x8
 /PaintProc {0.5 setlinewidth pop 0 0 M 8 8 L 0 8 M 8 0 L stroke} 
>> matrix makepattern
/Pat1 exch def
<< Tile8x8
 /PaintProc {0.5 setlinewidth pop 0 0 M 8 8 L 0 8 M 8 0 L stroke
	0 4 M 4 8 L 8 4 L 4 0 L 0 4 L stroke}
>> matrix makepattern
/Pat2 exch def
<< Tile8x8
 /PaintProc {0.5 setlinewidth pop 0 0 M 0 8 L
	8 8 L 8 0 L 0 0 L fill}
>> matrix makepattern
/Pat3 exch def
<< Tile8x8
 /PaintProc {0.5 setlinewidth pop -4 8 M 8 -4 L
	0 12 M 12 0 L stroke}
>> matrix makepattern
/Pat4 exch def
<< Tile8x8
 /PaintProc {0.5 setlinewidth pop -4 0 M 8 12 L
	0 -4 M 12 8 L stroke}
>> matrix makepattern
/Pat5 exch def
<< Tile8x8
 /PaintProc {0.5 setlinewidth pop -2 8 M 4 -4 L
	0 12 M 8 -4 L 4 12 M 10 0 L stroke}
>> matrix makepattern
/Pat6 exch def
<< Tile8x8
 /PaintProc {0.5 setlinewidth pop -2 0 M 4 12 L
	0 -4 M 8 12 L 4 -4 M 10 8 L stroke}
>> matrix makepattern
/Pat7 exch def
<< Tile8x8
 /PaintProc {0.5 setlinewidth pop 8 -2 M -4 4 L
	12 0 M -4 8 L 12 4 M 0 10 L stroke}
>> matrix makepattern
/Pat8 exch def
<< Tile8x8
 /PaintProc {0.5 setlinewidth pop 0 -2 M 12 4 L
	-4 0 M 12 8 L -4 4 M 8 10 L stroke}
>> matrix makepattern
/Pat9 exch def
/Pattern1 {PatternBgnd KeepColor Pat1 setpattern} bind def
/Pattern2 {PatternBgnd KeepColor Pat2 setpattern} bind def
/Pattern3 {PatternBgnd KeepColor Pat3 setpattern} bind def
/Pattern4 {PatternBgnd KeepColor Landscape {Pat5} {Pat4} ifelse setpattern} bind def
/Pattern5 {PatternBgnd KeepColor Landscape {Pat4} {Pat5} ifelse setpattern} bind def
/Pattern6 {PatternBgnd KeepColor Landscape {Pat9} {Pat6} ifelse setpattern} bind def
/Pattern7 {PatternBgnd KeepColor Landscape {Pat8} {Pat7} ifelse setpattern} bind def
} def
%
%
%End of PostScript Level 2 code
%
/PatternBgnd {
  TransparentPatterns {} {gsave 1 setgray fill grestore} ifelse
} def
%
% Substitute for Level 2 pattern fill codes with
% grayscale if Level 2 support is not selected.
%
/Level1PatternFill {
/Pattern1 {0.250 Density} bind def
/Pattern2 {0.500 Density} bind def
/Pattern3 {0.750 Density} bind def
/Pattern4 {0.125 Density} bind def
/Pattern5 {0.375 Density} bind def
/Pattern6 {0.625 Density} bind def
/Pattern7 {0.875 Density} bind def
} def
%
% Now test for support of Level 2 code
%
Level1 {Level1PatternFill} {Level2PatternFill} ifelse
%
/Symbol-Oblique /Symbol findfont [1 0 .167 1 0 0] makefont
dup length dict begin {1 index /FID eq {pop pop} {def} ifelse} forall
currentdict end definefont pop
%
/MFshow {
   { dup 5 get 3 ge
     { 5 get 3 eq {gsave} {grestore} ifelse }
     {dup dup 0 get findfont exch 1 get scalefont setfont
     [ currentpoint ] exch dup 2 get 0 exch R dup 5 get 2 ne {dup dup 6
     get exch 4 get {textshow} {stringwidth pop 0 R} ifelse }if dup 5 get 0 eq
     {dup 3 get {2 get neg 0 exch R pop} {pop aload pop M} ifelse} {dup 5
     get 1 eq {dup 2 get exch dup 3 get exch 6 get stringwidth pop -2 div
     dup 0 R} {dup 6 get stringwidth pop -2 div 0 R 6 get
     textshow 2 index {aload pop M neg 3 -1 roll neg R pop pop} {pop pop pop
     pop aload pop M} ifelse }ifelse }ifelse }
     ifelse }
   forall} def
/Gswidth {dup type /stringtype eq {stringwidth} {pop (n) stringwidth} ifelse} def
/MFwidth {0 exch { dup 5 get 3 ge { 5 get 3 eq { 0 } { pop } ifelse }
 {dup 3 get{dup dup 0 get findfont exch 1 get scalefont setfont
     6 get Gswidth pop add} {pop} ifelse} ifelse} forall} def
/MLshow { currentpoint stroke M
  0 exch R
  Blacktext {gsave 0 setgray MFshow grestore} {MFshow} ifelse } bind def
/MRshow { currentpoint stroke M
  exch dup MFwidth neg 3 -1 roll R
  Blacktext {gsave 0 setgray MFshow grestore} {MFshow} ifelse } bind def
/MCshow { currentpoint stroke M
  exch dup MFwidth -2 div 3 -1 roll R
  Blacktext {gsave 0 setgray MFshow grestore} {MFshow} ifelse } bind def
/XYsave    { [( ) 1 2 true false 3 ()] } bind def
/XYrestore { [( ) 1 2 true false 4 ()] } bind def
Level1 SuppressPDFMark or 
{} {
/SDict 10 dict def
systemdict /pdfmark known not {
  userdict /pdfmark systemdict /cleartomark get put
} if
SDict begin [
  /Title (polar.eps)
  /Subject (gnuplot plot)
  /Creator (gnuplot 5.0 patchlevel 2)
  /Author (jwe)
%  /Producer (gnuplot)
%  /Keywords ()
  /CreationDate (Fri Jul  1 14:57:37 2016)
  /DOCINFO pdfmark
end
} ifelse
%
% Support for boxed text - Ethan A Merritt May 2005
%
/InitTextBox { userdict /TBy2 3 -1 roll put userdict /TBx2 3 -1 roll put
           userdict /TBy1 3 -1 roll put userdict /TBx1 3 -1 roll put
	   /Boxing true def } def
/ExtendTextBox { Boxing
    { gsave dup false charpath pathbbox
      dup TBy2 gt {userdict /TBy2 3 -1 roll put} {pop} ifelse
      dup TBx2 gt {userdict /TBx2 3 -1 roll put} {pop} ifelse
      dup TBy1 lt {userdict /TBy1 3 -1 roll put} {pop} ifelse
      dup TBx1 lt {userdict /TBx1 3 -1 roll put} {pop} ifelse
      grestore } if } def
/PopTextBox { newpath TBx1 TBxmargin sub TBy1 TBymargin sub M
               TBx1 TBxmargin sub TBy2 TBymargin add L
	       TBx2 TBxmargin add TBy2 TBymargin add L
	       TBx2 TBxmargin add TBy1 TBymargin sub L closepath } def
/DrawTextBox { PopTextBox stroke /Boxing false def} def
/FillTextBox { gsave PopTextBox 1 1 1 setrgbcolor fill grestore /Boxing false def} def
0 0 0 0 InitTextBox
/TBxmargin 20 def
/TBymargin 20 def
/Boxing false def
/textshow { ExtendTextBox Gshow } def
%
% redundant definitions for compatibility with prologue.ps older than 5.0.2
/LTB {BL [] LCb DL} def
/LTb {PL [] LCb DL} def
end
%%EndProlog
%%Page: 1 1
gnudict begin
gsave
doclip
50 50 translate
0.050 0.050 scale
0 setgray
newpath
(Helvetica) findfont 200 scalefont setfont
BackgroundColor 0 lt 3 1 roll 0 lt exch 0 lt or or not {BackgroundColor C 1.000 0 0 7200.00 5040.00 BoxColFill} if
gsave % colour palette begin
/maxcolors 64 def
/HSV2RGB {  exch dup 0.0 eq {pop exch pop dup dup} % achromatic gray
  { /HSVs exch def /HSVv exch def 6.0 mul dup floor dup 3 1 roll sub
     /HSVf exch def /HSVi exch cvi def /HSVp HSVv 1.0 HSVs sub mul def
	 /HSVq HSVv 1.0 HSVs HSVf mul sub mul def 
	 /HSVt HSVv 1.0 HSVs 1.0 HSVf sub mul sub mul def
	 /HSVi HSVi 6 mod def 0 HSVi eq {HSVv HSVt HSVp}
	 {1 HSVi eq {HSVq HSVv HSVp}{2 HSVi eq {HSVp HSVv HSVt}
	 {3 HSVi eq {HSVp HSVq HSVv}{4 HSVi eq {HSVt HSVp HSVv}
	 {HSVv HSVp HSVq} ifelse} ifelse} ifelse} ifelse} ifelse
  } ifelse} def
/Constrain {
  dup 0 lt {0 exch pop}{dup 1 gt {1 exch pop} if} ifelse} def
/YIQ2RGB {
  3 copy -1.702 mul exch -1.105 mul add add Constrain 4 1 roll
  3 copy -0.647 mul exch -0.272 mul add add Constrain 5 1 roll
  0.621 mul exch -0.956 mul add add Constrain 3 1 roll } def
/CMY2RGB {  1 exch sub exch 1 exch sub 3 2 roll 1 exch sub 3 1 roll exch } def
/XYZ2RGB {  3 copy -0.9017 mul exch -0.1187 mul add exch 0.0585 mul exch add
  Constrain 4 1 roll 3 copy -0.0279 mul exch 1.999 mul add exch
  -0.9844 mul add Constrain 5 1 roll -0.2891 mul exch -0.5338 mul add
  exch 1.91 mul exch add Constrain 3 1 roll} def
/SelectSpace {ColorSpace (HSV) eq {HSV2RGB}{ColorSpace (XYZ) eq {
  XYZ2RGB}{ColorSpace (CMY) eq {CMY2RGB}{ColorSpace (YIQ) eq {YIQ2RGB}
  if} ifelse} ifelse} ifelse} def
/InterpolatedColor true def
/grayindex {/gidx 0 def
  {GrayA gidx get grayv ge {exit} if /gidx gidx 1 add def} loop} def
/dgdx {grayv GrayA gidx get sub GrayA gidx 1 sub get
  GrayA gidx get sub div} def 
/redvalue {RedA gidx get RedA gidx 1 sub get
  RedA gidx get sub dgdxval mul add} def
/greenvalue {GreenA gidx get GreenA gidx 1 sub get
  GreenA gidx get sub dgdxval mul add} def
/bluevalue {BlueA gidx get BlueA gidx 1 sub get
  BlueA gidx get sub dgdxval mul add} def
/interpolate {
  grayindex grayv GrayA gidx get sub abs 1e-5 le
    {RedA gidx get GreenA gidx get BlueA gidx get}
    {/dgdxval dgdx def redvalue greenvalue bluevalue} ifelse} def
/GrayA [0 .0159 .0317 .0476 .0635 .0794 .0952 .1111 .127 .1429 .1587 .1746 
  .1905 .2063 .2222 .2381 .254 .2698 .2857 .3016 .3175 .3333 .3492 .3651 
  .381 .3968 .4127 .4286 .4444 .4603 .4762 .4921 .5079 .5238 .5397 .5556 
  .5714 .5873 .6032 .619 .6349 .6508 .6667 .6825 .6984 .7143 .7302 .746 
  .7619 .7778 .7937 .8095 .8254 .8413 .8571 .873 .8889 .9048 .9206 .9365 
  .9524 .9683 .9841 1 ] def
/RedA [0 0 0 0 0 0 0 0 0 0 0 0 0 0 0 0 0 0 0 0 0 0 0 0 .0238 .0873 .1508 
  .2143 .2778 .3413 .4048 .4683 .5317 .5952 .6587 .7222 .7857 .8492 .9127 
  .9762 1 1 1 1 1 1 1 1 1 1 1 1 1 1 1 1 .9444 .881 .8175 .754 .6905 .627 
  .5635 .5 ] def
/GreenA [0 0 0 0 0 0 0 0 .0079 .0714 .1349 .1984 .2619 .3254 .3889 .4524 
  .5159 .5794 .6429 .7063 .7698 .8333 .8968 .9603 1 1 1 1 1 1 1 1 1 1 1 1 1 
  1 1 1 .9603 .8968 .8333 .7698 .7063 .6429 .5794 .5159 .4524 .3889 .3254 
  .2619 .1984 .1349 .0714 .0079 0 0 0 0 0 0 0 0 ] def
/BlueA [.5 .5635 .627 .6905 .754 .8175 .881 .9444 1 1 1 1 1 1 1 1 1 1 1 1 1 
  1 1 1 .9762 .9127 .8492 .7857 .7222 .6587 .5952 .5317 .4683 .4048 .3413 
  .2778 .2143 .1508 .0873 .0238 0 0 0 0 0 0 0 0 0 0 0 0 0 0 0 0 0 0 0 0 0 0 
  0 0 ] def
/pm3dround {maxcolors 0 gt {dup 1 ge
	{pop 1} {maxcolors mul floor maxcolors 1 sub div} ifelse} if} def
/pm3dGamma 1.0 1.5 Gamma mul div def
/ColorSpace (RGB) def
Color InterpolatedColor or { % COLOUR vs. GRAY map
  InterpolatedColor { %% Interpolation vs. RGB-Formula
    /g {stroke pm3dround /grayv exch def interpolate
        SelectSpace setrgbcolor} bind def
  }{
  /g {stroke pm3dround dup cF7 Constrain exch dup cF5 Constrain exch cF15 Constrain 
       SelectSpace setrgbcolor} bind def
  } ifelse
}{
  /g {stroke pm3dround pm3dGamma exp setgray} bind def
} ifelse
1.000 UL
LTb
LCb setrgbcolor
1.000 UP
1.000 UL
LTb
LCb setrgbcolor
0.00 0.00 0.00 C 3569 4739 M
[ [({}) 200.0 0.0 true true 0 (Example polar plot from 0 to 10*pi)]
] -66.7 MCshow
LTb
% Begin plot #1
1.000 UL
LTb
1.00 1.00 1.00 C gsave 5560 2340 N -16 244 V -49 240 V -81 232 V -110 220 V -139 205 V -166 186 V -188 165 V -210 140 V -226 113 V -239 84 V -249 55 V -254 23 V -255 -8 V -251 -39 V -245 -69 V -233 -99 V -218 -127 V -200 -153 V -177 -175 V -153 -196 V -125 -213 V -96 -227 V -64 -237 V -33 -242 V 0 -245 V 33 -242 V 64 -237 V 96 -227 V 125 -213 V 153 -196 V 177 -175 V 200 -153 V 218 -127 V 233 -99 V 245 -69 V 251 -39 V 255 -8 V 254 23 V 249 55 V 239 84 V 226 113 V 210 140 V 188 165 V 166 186 V 139 205 V 110 220 V 81 232 V 49 240 V 16 245 V 1 PolyFill
5560 2340 M
-16 244 V
-49 240 V
-81 232 V
-110 220 V
-139 205 V
-166 186 V
-188 165 V
-210 140 V
-226 113 V
-239 84 V
-249 55 V
-254 23 V
-255 -8 V
-251 -39 V
-245 -69 V
-233 -99 V
2431 3905 L
2231 3752 L
2054 3577 L
1901 3381 L
1776 3168 L
-96 -227 V
-64 -237 V
-33 -242 V
0 -245 V
33 -242 V
64 -237 V
96 -227 V
125 -213 V
153 -196 V
2231 927 L
2431 774 L
2649 647 L
233 -99 V
245 -69 V
251 -39 V
255 -8 V
254 23 V
249 55 V
239 84 V
226 113 V
210 140 V
188 165 V
166 186 V
139 205 V
110 220 V
81 232 V
49 240 V
16 245 V
% End plot #1
% Begin plot #2
stroke
0.500 UL
LTb
0.00 0.00 0.00 C 5560 2340 M
-16 244 V
-49 240 V
-81 232 V
-110 220 V
-139 205 V
-166 186 V
-188 165 V
-210 140 V
-226 113 V
-239 84 V
-249 55 V
-254 23 V
-255 -8 V
-251 -39 V
-245 -69 V
-233 -99 V
2431 3905 L
2231 3752 L
2054 3577 L
1901 3381 L
1776 3168 L
-96 -227 V
-64 -237 V
-33 -242 V
0 -245 V
33 -242 V
64 -237 V
96 -227 V
125 -213 V
153 -196 V
2231 927 L
2431 774 L
2649 647 L
233 -99 V
245 -69 V
251 -39 V
255 -8 V
254 23 V
249 55 V
239 84 V
226 113 V
210 140 V
188 165 V
166 186 V
139 205 V
110 220 V
81 232 V
49 240 V
16 245 V
% End plot #2
% Begin plot #3
stroke
LTb
0.00 0.00 0.00 C 4067 2340 M
-4 61 V
-12 60 V
-20 58 V
-28 55 V
-35 51 V
-41 46 V
-47 42 V
-53 35 V
-56 28 V
-60 21 V
-62 14 V
-64 5 V
-63 -2 V
-63 -9 V
-61 -18 V
-59 -24 V
-54 -32 V
-50 -38 V
-44 -44 V
-39 -49 V
-31 -53 V
-24 -57 V
-16 -59 V
-8 -61 V
0 -61 V
8 -61 V
16 -59 V
24 -57 V
31 -53 V
39 -49 V
44 -44 V
50 -38 V
54 -32 V
59 -24 V
61 -18 V
63 -9 V
63 -2 V
64 5 V
62 14 V
60 21 V
56 28 V
53 35 V
47 42 V
41 46 V
35 51 V
28 55 V
20 58 V
12 60 V
4 62 V
% End plot #3
% Begin plot #4
stroke
LTb
0.00 0.00 0.00 C 4565 2340 M
-8 122 V
-25 120 V
-40 116 V
-55 110 V
-70 102 V
-83 93 V
-94 83 V
-105 70 V
-113 56 V
-119 42 V
-125 28 V
-127 11 V
-127 -4 V
-126 -19 V
-122 -35 V
-117 -49 V
-109 -64 V
-100 -76 V
-88 -88 V
-77 -98 V
-62 -106 V
-48 -114 V
-32 -118 V
-17 -121 V
0 -123 V
17 -121 V
32 -118 V
48 -114 V
62 -106 V
77 -98 V
88 -88 V
100 -76 V
109 -64 V
117 -49 V
122 -35 V
126 -19 V
127 -4 V
127 11 V
125 28 V
119 42 V
113 56 V
105 70 V
94 83 V
83 93 V
70 102 V
55 110 V
40 116 V
25 120 V
8 123 V
% End plot #4
% Begin plot #5
stroke
LTb
0.00 0.00 0.00 C 5062 2340 M
-12 183 V
-36 180 V
-61 174 V
-83 165 V
-104 154 V
-124 139 V
-142 124 V
-157 105 V
-169 84 V
-180 64 V
-186 41 V
-191 17 V
-191 -6 V
-189 -29 V
-183 -52 V
-175 -74 V
-164 -95 V
2566 3399 L
2433 3267 L
2318 3120 L
-94 -159 V
-71 -170 V
-49 -178 V
-24 -182 V
0 -183 V
24 -182 V
49 -178 V
71 -170 V
94 -159 V
115 -147 V
133 -132 V
149 -115 V
164 -95 V
175 -74 V
183 -52 V
189 -29 V
191 -6 V
191 17 V
186 41 V
180 64 V
169 84 V
157 105 V
142 124 V
124 139 V
104 154 V
83 165 V
61 174 V
36 180 V
12 184 V
% End plot #5
% Begin plot #6
stroke
LTb
0.00 0.00 0.00 C 5560 2340 M
-16 244 V
-49 240 V
-81 232 V
-110 220 V
-139 205 V
-166 186 V
-188 165 V
-210 140 V
-226 113 V
-239 84 V
-249 55 V
-254 23 V
-255 -8 V
-251 -39 V
-245 -69 V
-233 -99 V
2431 3905 L
2231 3752 L
2054 3577 L
1901 3381 L
1776 3168 L
-96 -227 V
-64 -237 V
-33 -242 V
0 -245 V
33 -242 V
64 -237 V
96 -227 V
125 -213 V
153 -196 V
2231 927 L
2431 774 L
2649 647 L
233 -99 V
245 -69 V
251 -39 V
255 -8 V
254 23 V
249 55 V
239 84 V
226 113 V
210 140 V
188 165 V
166 186 V
139 205 V
110 220 V
81 232 V
49 240 V
16 245 V
% End plot #6
% Begin plot #7
stroke
LTb
0.00 0.00 0.00 C 3570 2340 M
1990 0 V
% End plot #7
% Begin plot #8
stroke
LTb
0.00 0.00 0.00 C 3570 2340 M
1723 954 V
% End plot #8
% Begin plot #9
stroke
LTb
0.00 0.00 0.00 C 3570 2340 M
995 1652 V
% End plot #9
% Begin plot #10
stroke
LTb
0.00 0.00 0.00 C 3570 2340 M
0 1908 V
% End plot #10
% Begin plot #11
stroke
LTb
0.00 0.00 0.00 C 3570 2340 M
2574 3992 L
% End plot #11
% Begin plot #12
stroke
LTb
0.00 0.00 0.00 C 3570 2340 M
1846 3294 L
% End plot #12
% Begin plot #13
stroke
LTb
0.00 0.00 0.00 C 3570 2340 M
-1991 0 V
% End plot #13
% Begin plot #14
stroke
LTb
0.00 0.00 0.00 C 3570 2340 M
1846 1385 L
% End plot #14
% Begin plot #15
stroke
LTb
0.00 0.00 0.00 C 3570 2340 M
2574 687 L
% End plot #15
% Begin plot #16
stroke
LTb
0.00 0.00 0.00 C 3570 2340 M
3569 431 L
% End plot #16
% Begin plot #17
stroke
LTb
0.00 0.00 0.00 C 3570 2340 M
4565 687 L
% End plot #17
% Begin plot #18
stroke
LTb
0.00 0.00 0.00 C 3570 2340 M
5293 1385 L
% End plot #18
% Begin plot #19
stroke
LTb
0.00 0.00 1.00 C 3570 2340 M
4 0 V
5 1 V
5 3 V
4 3 V
3 4 V
3 5 V
2 5 V
1 6 V
0 6 V
-1 7 V
-2 6 V
-3 7 V
-4 6 V
-6 6 V
-6 6 V
-8 5 V
-8 4 V
-10 3 V
-10 2 V
-11 1 V
-11 0 V
-12 -2 V
-12 -3 V
-12 -4 V
-11 -6 V
-11 -8 V
-11 -8 V
-10 -11 V
-9 -11 V
-7 -13 V
-7 -14 V
-4 -15 V
-4 -16 V
-1 -17 V
0 -17 V
3 -18 V
4 -17 V
7 -17 V
9 -17 V
10 -17 V
13 -16 V
15 -14 V
17 -13 V
18 -12 V
20 -10 V
22 -9 V
23 -6 V
23 -4 V
25 -1 V
25 1 V
25 3 V
26 6 V
25 9 V
24 11 V
23 14 V
23 17 V
20 19 V
19 21 V
17 23 V
14 26 V
12 26 V
9 29 V
6 30 V
3 30 V
-1 31 V
-3 32 V
-8 31 V
-10 31 V
-14 30 V
-18 29 V
-21 27 V
-24 26 V
-26 24 V
-30 21 V
-32 18 V
-34 16 V
-37 12 V
-38 8 V
-39 5 V
-39 1 V
-41 -3 V
-40 -6 V
-40 -11 V
-39 -15 V
-37 -19 V
-36 -22 V
-34 -26 V
-31 -30 V
-28 -33 V
-25 -36 V
-21 -38 V
-17 -41 V
-13 -42 V
-8 -44 V
-4 -46 V
1 -45 V
6 -46 V
11 -46 V
15 -45 V
21 -43 V
25 -42 V
30 -39 V
34 -37 V
38 -33 V
stroke 3279 1929 M
42 -30 V
45 -26 V
48 -22 V
51 -17 V
53 -12 V
54 -7 V
55 -2 V
56 3 V
55 9 V
55 14 V
53 20 V
52 25 V
49 30 V
46 35 V
42 40 V
38 43 V
34 48 V
29 51 V
24 54 V
18 57 V
12 58 V
6 60 V
0 60 V
-7 61 V
-13 60 V
-19 59 V
-26 57 V
-32 55 V
-38 52 V
-43 49 V
-49 44 V
-53 40 V
-58 35 V
-61 29 V
-65 23 V
-67 17 V
-69 11 V
-71 4 V
-71 -3 V
-71 -10 V
-70 -17 V
-68 -23 V
-66 -30 V
-63 -37 V
-59 -43 V
-55 -48 V
-49 -54 V
-44 -59 V
-38 -63 V
-32 -67 V
-24 -70 V
-17 -72 V
-10 -75 V
-1 -75 V
6 -75 V
14 -75 V
22 -74 V
30 -72 V
37 -69 V
45 -65 V
52 -61 V
58 -56 V
64 -51 V
69 -44 V
75 -38 V
78 -30 V
81 -23 V
84 -16 V
86 -7 V
86 1 V
87 10 V
85 18 V
84 26 V
81 34 V
77 42 V
73 49 V
68 57 V
62 63 V
55 69 V
48 75 V
40 79 V
32 83 V
24 87 V
14 88 V
5 90 V
-5 90 V
-14 90 V
-23 89 V
-33 86 V
-42 84 V
-50 79 V
-59 74 V
-67 69 V
-74 62 V
-80 55 V
-86 48 V
-92 39 V
-95 30 V
-98 21 V
-101 12 V
-102 2 V
-102 -8 V
-101 -18 V
-99 -28 V
stroke 3186 3261 M
-96 -37 V
-93 -46 V
-87 -55 V
-82 -64 V
-75 -72 V
-68 -78 V
-59 -86 V
-50 -91 V
-41 -95 V
-31 -100 V
-20 -102 V
-9 -105 V
1 -105 V
13 -105 V
23 -104 V
35 -101 V
45 -99 V
55 -93 V
65 -89 V
74 -82 V
83 -74 V
91 -67 V
97 -58 V
104 -49 V
108 -38 V
113 -28 V
115 -18 V
117 -6 V
118 5 V
117 17 V
115 28 V
112 38 V
108 50 V
103 60 V
96 70 V
89 79 V
81 87 V
71 95 V
61 102 V
51 108 V
39 112 V
28 117 V
15 118 V
3 120 V
-10 120 V
-22 120 V
-35 116 V
-47 114 V
-59 108 V
-70 103 V
-81 96 V
-91 89 V
-99 79 V
-108 69 V
-116 60 V
-121 48 V
-126 36 V
-130 24 V
-132 12 V
-133 -2 V
-133 -14 V
-131 -26 V
-128 -40 V
-124 -51 V
-119 -64 V
-111 -75 V
-104 -85 V
-94 -95 V
-85 -104 V
-73 -113 V
-62 -119 V
-49 -125 V
-36 -129 V
-22 -133 V
-8 -134 V
5 -135 V
20 -135 V
34 -132 V
48 -129 V
61 -124 V
74 -118 V
86 -111 V
98 -102 V
108 -93 V
117 -82 V
127 -71 V
133 -58 V
139 -46 V
144 -32 V
147 -18 V
148 -4 V
149 10 V
147 25 V
145 38 V
140 53 V
134 66 V
128 78 V
119 91 V
109 102 V
99 112 V
86 122 V
74 130 V
59 136 V
46 143 V
stroke 5086 2021 M
31 146 V
15 149 V
% End plot #19
stroke
2.000 UL
LTb
LCb setrgbcolor
1.000 UP
0.00 0.00 0.00 C /Helvetica findfont 200 scalefont setfont
/vshift -66 def
/{} findfont 200 scalefont setfont
3693 2902 M
(10) Lshow
/Helvetica findfont 200 scalefont setfont
0.00 0.00 0.00 C /Helvetica findfont 200 scalefont setfont
/{} findfont 200 scalefont setfont
3817 3364 M
(20) Lshow
/Helvetica findfont 200 scalefont setfont
0.00 0.00 0.00 C /Helvetica findfont 200 scalefont setfont
/{} findfont 200 scalefont setfont
3941 3826 M
(30) Lshow
/Helvetica findfont 200 scalefont setfont
0.00 0.00 0.00 C /Helvetica findfont 200 scalefont setfont
/{} findfont 200 scalefont setfont
4065 4288 M
(40) Lshow
/Helvetica findfont 200 scalefont setfont
0.00 0.00 0.00 C /Helvetica findfont 200 scalefont setfont
/{} findfont 200 scalefont setfont
5719 2340 M
(0) Cshow
/Helvetica findfont 200 scalefont setfont
0.00 0.00 0.00 C /Helvetica findfont 200 scalefont setfont
/{} findfont 200 scalefont setfont
5431 3370 M
(30) Cshow
/Helvetica findfont 200 scalefont setfont
0.00 0.00 0.00 C /Helvetica findfont 200 scalefont setfont
/{} findfont 200 scalefont setfont
4644 4125 M
(60) Cshow
/Helvetica findfont 200 scalefont setfont
0.00 0.00 0.00 C /Helvetica findfont 200 scalefont setfont
/{} findfont 200 scalefont setfont
3570 4401 M
(90) Cshow
/Helvetica findfont 200 scalefont setfont
0.00 0.00 0.00 C /Helvetica findfont 200 scalefont setfont
/{} findfont 200 scalefont setfont
2495 4125 M
(120) Cshow
/Helvetica findfont 200 scalefont setfont
0.00 0.00 0.00 C /Helvetica findfont 200 scalefont setfont
/{} findfont 200 scalefont setfont
1708 3370 M
(150) Cshow
/Helvetica findfont 200 scalefont setfont
0.00 0.00 0.00 C /Helvetica findfont 200 scalefont setfont
/{} findfont 200 scalefont setfont
1420 2340 M
(180) Cshow
/Helvetica findfont 200 scalefont setfont
0.00 0.00 0.00 C /Helvetica findfont 200 scalefont setfont
/{} findfont 200 scalefont setfont
1708 1309 M
(210) Cshow
/Helvetica findfont 200 scalefont setfont
0.00 0.00 0.00 C /Helvetica findfont 200 scalefont setfont
/{} findfont 200 scalefont setfont
2495 554 M
(240) Cshow
/Helvetica findfont 200 scalefont setfont
0.00 0.00 0.00 C /Helvetica findfont 200 scalefont setfont
/{} findfont 200 scalefont setfont
3569 278 M
(270) Cshow
/Helvetica findfont 200 scalefont setfont
0.00 0.00 0.00 C /Helvetica findfont 200 scalefont setfont
/{} findfont 200 scalefont setfont
4644 554 M
(300) Cshow
/Helvetica findfont 200 scalefont setfont
0.00 0.00 0.00 C /Helvetica findfont 200 scalefont setfont
/{} findfont 200 scalefont setfont
5431 1309 M
(330) Cshow
/Helvetica findfont 200 scalefont setfont
1.000 UL
LTb
LCb setrgbcolor
grestore % colour palette end
stroke
grestore
end
showpage
%%Trailer
%%DocumentFonts: Helvetica
