%!PS-Adobe-2.0 EPSF-2.0
%%Title: splinefit3.eps
%%Creator: gnuplot 5.0 patchlevel 2
%%CreationDate: Fri Jul  1 14:57:39 2016
%%DocumentFonts: (atend)
%%BoundingBox: 50 50 410 302
%%EndComments
%%BeginProlog
/gnudict 256 dict def
gnudict begin
%
% The following true/false flags may be edited by hand if desired.
% The unit line width and grayscale image gamma correction may also be changed.
%
/Color true def
/Blacktext false def
/Solid false def
/Dashlength 2 def
/Landscape false def
/Level1 false def
/Level3 false def
/Rounded false def
/ClipToBoundingBox false def
/SuppressPDFMark false def
/TransparentPatterns false def
/gnulinewidth 5.000 def
/userlinewidth gnulinewidth def
/Gamma 1.0 def
/BackgroundColor {-1.000 -1.000 -1.000} def
%
/vshift -66 def
/dl1 {
  10.0 Dashlength userlinewidth gnulinewidth div mul mul mul
  Rounded { currentlinewidth 0.75 mul sub dup 0 le { pop 0.01 } if } if
} def
/dl2 {
  10.0 Dashlength userlinewidth gnulinewidth div mul mul mul
  Rounded { currentlinewidth 0.75 mul add } if
} def
/hpt_ 31.5 def
/vpt_ 31.5 def
/hpt hpt_ def
/vpt vpt_ def
/doclip {
  ClipToBoundingBox {
    newpath 50 50 moveto 410 50 lineto 410 302 lineto 50 302 lineto closepath
    clip
  } if
} def
%
% Gnuplot Prolog Version 5.1 (Oct 2015)
%
%/SuppressPDFMark true def
%
/M {moveto} bind def
/L {lineto} bind def
/R {rmoveto} bind def
/V {rlineto} bind def
/N {newpath moveto} bind def
/Z {closepath} bind def
/C {setrgbcolor} bind def
/f {rlineto fill} bind def
/g {setgray} bind def
/Gshow {show} def   % May be redefined later in the file to support UTF-8
/vpt2 vpt 2 mul def
/hpt2 hpt 2 mul def
/Lshow {currentpoint stroke M 0 vshift R 
	Blacktext {gsave 0 setgray textshow grestore} {textshow} ifelse} def
/Rshow {currentpoint stroke M dup stringwidth pop neg vshift R
	Blacktext {gsave 0 setgray textshow grestore} {textshow} ifelse} def
/Cshow {currentpoint stroke M dup stringwidth pop -2 div vshift R 
	Blacktext {gsave 0 setgray textshow grestore} {textshow} ifelse} def
/UP {dup vpt_ mul /vpt exch def hpt_ mul /hpt exch def
  /hpt2 hpt 2 mul def /vpt2 vpt 2 mul def} def
/DL {Color {setrgbcolor Solid {pop []} if 0 setdash}
 {pop pop pop 0 setgray Solid {pop []} if 0 setdash} ifelse} def
/BL {stroke userlinewidth 2 mul setlinewidth
	Rounded {1 setlinejoin 1 setlinecap} if} def
/AL {stroke userlinewidth 2 div setlinewidth
	Rounded {1 setlinejoin 1 setlinecap} if} def
/UL {dup gnulinewidth mul /userlinewidth exch def
	dup 1 lt {pop 1} if 10 mul /udl exch def} def
/PL {stroke userlinewidth setlinewidth
	Rounded {1 setlinejoin 1 setlinecap} if} def
3.8 setmiterlimit
% Classic Line colors (version 5.0)
/LCw {1 1 1} def
/LCb {0 0 0} def
/LCa {0 0 0} def
/LC0 {1 0 0} def
/LC1 {0 1 0} def
/LC2 {0 0 1} def
/LC3 {1 0 1} def
/LC4 {0 1 1} def
/LC5 {1 1 0} def
/LC6 {0 0 0} def
/LC7 {1 0.3 0} def
/LC8 {0.5 0.5 0.5} def
% Default dash patterns (version 5.0)
/LTB {BL [] LCb DL} def
/LTw {PL [] 1 setgray} def
/LTb {PL [] LCb DL} def
/LTa {AL [1 udl mul 2 udl mul] 0 setdash LCa setrgbcolor} def
/LT0 {PL [] LC0 DL} def
/LT1 {PL [2 dl1 3 dl2] LC1 DL} def
/LT2 {PL [1 dl1 1.5 dl2] LC2 DL} def
/LT3 {PL [6 dl1 2 dl2 1 dl1 2 dl2] LC3 DL} def
/LT4 {PL [1 dl1 2 dl2 6 dl1 2 dl2 1 dl1 2 dl2] LC4 DL} def
/LT5 {PL [4 dl1 2 dl2] LC5 DL} def
/LT6 {PL [1.5 dl1 1.5 dl2 1.5 dl1 1.5 dl2 1.5 dl1 6 dl2] LC6 DL} def
/LT7 {PL [3 dl1 3 dl2 1 dl1 3 dl2] LC7 DL} def
/LT8 {PL [2 dl1 2 dl2 2 dl1 6 dl2] LC8 DL} def
/SL {[] 0 setdash} def
/Pnt {stroke [] 0 setdash gsave 1 setlinecap M 0 0 V stroke grestore} def
/Dia {stroke [] 0 setdash 2 copy vpt add M
  hpt neg vpt neg V hpt vpt neg V
  hpt vpt V hpt neg vpt V closepath stroke
  Pnt} def
/Pls {stroke [] 0 setdash vpt sub M 0 vpt2 V
  currentpoint stroke M
  hpt neg vpt neg R hpt2 0 V stroke
 } def
/Box {stroke [] 0 setdash 2 copy exch hpt sub exch vpt add M
  0 vpt2 neg V hpt2 0 V 0 vpt2 V
  hpt2 neg 0 V closepath stroke
  Pnt} def
/Crs {stroke [] 0 setdash exch hpt sub exch vpt add M
  hpt2 vpt2 neg V currentpoint stroke M
  hpt2 neg 0 R hpt2 vpt2 V stroke} def
/TriU {stroke [] 0 setdash 2 copy vpt 1.12 mul add M
  hpt neg vpt -1.62 mul V
  hpt 2 mul 0 V
  hpt neg vpt 1.62 mul V closepath stroke
  Pnt} def
/Star {2 copy Pls Crs} def
/BoxF {stroke [] 0 setdash exch hpt sub exch vpt add M
  0 vpt2 neg V hpt2 0 V 0 vpt2 V
  hpt2 neg 0 V closepath fill} def
/TriUF {stroke [] 0 setdash vpt 1.12 mul add M
  hpt neg vpt -1.62 mul V
  hpt 2 mul 0 V
  hpt neg vpt 1.62 mul V closepath fill} def
/TriD {stroke [] 0 setdash 2 copy vpt 1.12 mul sub M
  hpt neg vpt 1.62 mul V
  hpt 2 mul 0 V
  hpt neg vpt -1.62 mul V closepath stroke
  Pnt} def
/TriDF {stroke [] 0 setdash vpt 1.12 mul sub M
  hpt neg vpt 1.62 mul V
  hpt 2 mul 0 V
  hpt neg vpt -1.62 mul V closepath fill} def
/DiaF {stroke [] 0 setdash vpt add M
  hpt neg vpt neg V hpt vpt neg V
  hpt vpt V hpt neg vpt V closepath fill} def
/Pent {stroke [] 0 setdash 2 copy gsave
  translate 0 hpt M 4 {72 rotate 0 hpt L} repeat
  closepath stroke grestore Pnt} def
/PentF {stroke [] 0 setdash gsave
  translate 0 hpt M 4 {72 rotate 0 hpt L} repeat
  closepath fill grestore} def
/Circle {stroke [] 0 setdash 2 copy
  hpt 0 360 arc stroke Pnt} def
/CircleF {stroke [] 0 setdash hpt 0 360 arc fill} def
/C0 {BL [] 0 setdash 2 copy moveto vpt 90 450 arc} bind def
/C1 {BL [] 0 setdash 2 copy moveto
	2 copy vpt 0 90 arc closepath fill
	vpt 0 360 arc closepath} bind def
/C2 {BL [] 0 setdash 2 copy moveto
	2 copy vpt 90 180 arc closepath fill
	vpt 0 360 arc closepath} bind def
/C3 {BL [] 0 setdash 2 copy moveto
	2 copy vpt 0 180 arc closepath fill
	vpt 0 360 arc closepath} bind def
/C4 {BL [] 0 setdash 2 copy moveto
	2 copy vpt 180 270 arc closepath fill
	vpt 0 360 arc closepath} bind def
/C5 {BL [] 0 setdash 2 copy moveto
	2 copy vpt 0 90 arc
	2 copy moveto
	2 copy vpt 180 270 arc closepath fill
	vpt 0 360 arc} bind def
/C6 {BL [] 0 setdash 2 copy moveto
	2 copy vpt 90 270 arc closepath fill
	vpt 0 360 arc closepath} bind def
/C7 {BL [] 0 setdash 2 copy moveto
	2 copy vpt 0 270 arc closepath fill
	vpt 0 360 arc closepath} bind def
/C8 {BL [] 0 setdash 2 copy moveto
	2 copy vpt 270 360 arc closepath fill
	vpt 0 360 arc closepath} bind def
/C9 {BL [] 0 setdash 2 copy moveto
	2 copy vpt 270 450 arc closepath fill
	vpt 0 360 arc closepath} bind def
/C10 {BL [] 0 setdash 2 copy 2 copy moveto vpt 270 360 arc closepath fill
	2 copy moveto
	2 copy vpt 90 180 arc closepath fill
	vpt 0 360 arc closepath} bind def
/C11 {BL [] 0 setdash 2 copy moveto
	2 copy vpt 0 180 arc closepath fill
	2 copy moveto
	2 copy vpt 270 360 arc closepath fill
	vpt 0 360 arc closepath} bind def
/C12 {BL [] 0 setdash 2 copy moveto
	2 copy vpt 180 360 arc closepath fill
	vpt 0 360 arc closepath} bind def
/C13 {BL [] 0 setdash 2 copy moveto
	2 copy vpt 0 90 arc closepath fill
	2 copy moveto
	2 copy vpt 180 360 arc closepath fill
	vpt 0 360 arc closepath} bind def
/C14 {BL [] 0 setdash 2 copy moveto
	2 copy vpt 90 360 arc closepath fill
	vpt 0 360 arc} bind def
/C15 {BL [] 0 setdash 2 copy vpt 0 360 arc closepath fill
	vpt 0 360 arc closepath} bind def
/Rec {newpath 4 2 roll moveto 1 index 0 rlineto 0 exch rlineto
	neg 0 rlineto closepath} bind def
/Square {dup Rec} bind def
/Bsquare {vpt sub exch vpt sub exch vpt2 Square} bind def
/S0 {BL [] 0 setdash 2 copy moveto 0 vpt rlineto BL Bsquare} bind def
/S1 {BL [] 0 setdash 2 copy vpt Square fill Bsquare} bind def
/S2 {BL [] 0 setdash 2 copy exch vpt sub exch vpt Square fill Bsquare} bind def
/S3 {BL [] 0 setdash 2 copy exch vpt sub exch vpt2 vpt Rec fill Bsquare} bind def
/S4 {BL [] 0 setdash 2 copy exch vpt sub exch vpt sub vpt Square fill Bsquare} bind def
/S5 {BL [] 0 setdash 2 copy 2 copy vpt Square fill
	exch vpt sub exch vpt sub vpt Square fill Bsquare} bind def
/S6 {BL [] 0 setdash 2 copy exch vpt sub exch vpt sub vpt vpt2 Rec fill Bsquare} bind def
/S7 {BL [] 0 setdash 2 copy exch vpt sub exch vpt sub vpt vpt2 Rec fill
	2 copy vpt Square fill Bsquare} bind def
/S8 {BL [] 0 setdash 2 copy vpt sub vpt Square fill Bsquare} bind def
/S9 {BL [] 0 setdash 2 copy vpt sub vpt vpt2 Rec fill Bsquare} bind def
/S10 {BL [] 0 setdash 2 copy vpt sub vpt Square fill 2 copy exch vpt sub exch vpt Square fill
	Bsquare} bind def
/S11 {BL [] 0 setdash 2 copy vpt sub vpt Square fill 2 copy exch vpt sub exch vpt2 vpt Rec fill
	Bsquare} bind def
/S12 {BL [] 0 setdash 2 copy exch vpt sub exch vpt sub vpt2 vpt Rec fill Bsquare} bind def
/S13 {BL [] 0 setdash 2 copy exch vpt sub exch vpt sub vpt2 vpt Rec fill
	2 copy vpt Square fill Bsquare} bind def
/S14 {BL [] 0 setdash 2 copy exch vpt sub exch vpt sub vpt2 vpt Rec fill
	2 copy exch vpt sub exch vpt Square fill Bsquare} bind def
/S15 {BL [] 0 setdash 2 copy Bsquare fill Bsquare} bind def
/D0 {gsave translate 45 rotate 0 0 S0 stroke grestore} bind def
/D1 {gsave translate 45 rotate 0 0 S1 stroke grestore} bind def
/D2 {gsave translate 45 rotate 0 0 S2 stroke grestore} bind def
/D3 {gsave translate 45 rotate 0 0 S3 stroke grestore} bind def
/D4 {gsave translate 45 rotate 0 0 S4 stroke grestore} bind def
/D5 {gsave translate 45 rotate 0 0 S5 stroke grestore} bind def
/D6 {gsave translate 45 rotate 0 0 S6 stroke grestore} bind def
/D7 {gsave translate 45 rotate 0 0 S7 stroke grestore} bind def
/D8 {gsave translate 45 rotate 0 0 S8 stroke grestore} bind def
/D9 {gsave translate 45 rotate 0 0 S9 stroke grestore} bind def
/D10 {gsave translate 45 rotate 0 0 S10 stroke grestore} bind def
/D11 {gsave translate 45 rotate 0 0 S11 stroke grestore} bind def
/D12 {gsave translate 45 rotate 0 0 S12 stroke grestore} bind def
/D13 {gsave translate 45 rotate 0 0 S13 stroke grestore} bind def
/D14 {gsave translate 45 rotate 0 0 S14 stroke grestore} bind def
/D15 {gsave translate 45 rotate 0 0 S15 stroke grestore} bind def
/DiaE {stroke [] 0 setdash vpt add M
  hpt neg vpt neg V hpt vpt neg V
  hpt vpt V hpt neg vpt V closepath stroke} def
/BoxE {stroke [] 0 setdash exch hpt sub exch vpt add M
  0 vpt2 neg V hpt2 0 V 0 vpt2 V
  hpt2 neg 0 V closepath stroke} def
/TriUE {stroke [] 0 setdash vpt 1.12 mul add M
  hpt neg vpt -1.62 mul V
  hpt 2 mul 0 V
  hpt neg vpt 1.62 mul V closepath stroke} def
/TriDE {stroke [] 0 setdash vpt 1.12 mul sub M
  hpt neg vpt 1.62 mul V
  hpt 2 mul 0 V
  hpt neg vpt -1.62 mul V closepath stroke} def
/PentE {stroke [] 0 setdash gsave
  translate 0 hpt M 4 {72 rotate 0 hpt L} repeat
  closepath stroke grestore} def
/CircE {stroke [] 0 setdash 
  hpt 0 360 arc stroke} def
/Opaque {gsave closepath 1 setgray fill grestore 0 setgray closepath} def
/DiaW {stroke [] 0 setdash vpt add M
  hpt neg vpt neg V hpt vpt neg V
  hpt vpt V hpt neg vpt V Opaque stroke} def
/BoxW {stroke [] 0 setdash exch hpt sub exch vpt add M
  0 vpt2 neg V hpt2 0 V 0 vpt2 V
  hpt2 neg 0 V Opaque stroke} def
/TriUW {stroke [] 0 setdash vpt 1.12 mul add M
  hpt neg vpt -1.62 mul V
  hpt 2 mul 0 V
  hpt neg vpt 1.62 mul V Opaque stroke} def
/TriDW {stroke [] 0 setdash vpt 1.12 mul sub M
  hpt neg vpt 1.62 mul V
  hpt 2 mul 0 V
  hpt neg vpt -1.62 mul V Opaque stroke} def
/PentW {stroke [] 0 setdash gsave
  translate 0 hpt M 4 {72 rotate 0 hpt L} repeat
  Opaque stroke grestore} def
/CircW {stroke [] 0 setdash 
  hpt 0 360 arc Opaque stroke} def
/BoxFill {gsave Rec 1 setgray fill grestore} def
/Density {
  /Fillden exch def
  currentrgbcolor
  /ColB exch def /ColG exch def /ColR exch def
  /ColR ColR Fillden mul Fillden sub 1 add def
  /ColG ColG Fillden mul Fillden sub 1 add def
  /ColB ColB Fillden mul Fillden sub 1 add def
  ColR ColG ColB setrgbcolor} def
/BoxColFill {gsave Rec PolyFill} def
/PolyFill {gsave Density fill grestore grestore} def
/h {rlineto rlineto rlineto gsave closepath fill grestore} bind def
%
% PostScript Level 1 Pattern Fill routine for rectangles
% Usage: x y w h s a XX PatternFill
%	x,y = lower left corner of box to be filled
%	w,h = width and height of box
%	  a = angle in degrees between lines and x-axis
%	 XX = 0/1 for no/yes cross-hatch
%
/PatternFill {gsave /PFa [ 9 2 roll ] def
  PFa 0 get PFa 2 get 2 div add PFa 1 get PFa 3 get 2 div add translate
  PFa 2 get -2 div PFa 3 get -2 div PFa 2 get PFa 3 get Rec
  TransparentPatterns {} {gsave 1 setgray fill grestore} ifelse
  clip
  currentlinewidth 0.5 mul setlinewidth
  /PFs PFa 2 get dup mul PFa 3 get dup mul add sqrt def
  0 0 M PFa 5 get rotate PFs -2 div dup translate
  0 1 PFs PFa 4 get div 1 add floor cvi
	{PFa 4 get mul 0 M 0 PFs V} for
  0 PFa 6 get ne {
	0 1 PFs PFa 4 get div 1 add floor cvi
	{PFa 4 get mul 0 2 1 roll M PFs 0 V} for
 } if
  stroke grestore} def
%
/languagelevel where
 {pop languagelevel} {1} ifelse
dup 2 lt
	{/InterpretLevel1 true def
	 /InterpretLevel3 false def}
	{/InterpretLevel1 Level1 def
	 2 gt
	    {/InterpretLevel3 Level3 def}
	    {/InterpretLevel3 false def}
	 ifelse }
 ifelse
%
% PostScript level 2 pattern fill definitions
%
/Level2PatternFill {
/Tile8x8 {/PaintType 2 /PatternType 1 /TilingType 1 /BBox [0 0 8 8] /XStep 8 /YStep 8}
	bind def
/KeepColor {currentrgbcolor [/Pattern /DeviceRGB] setcolorspace} bind def
<< Tile8x8
 /PaintProc {0.5 setlinewidth pop 0 0 M 8 8 L 0 8 M 8 0 L stroke} 
>> matrix makepattern
/Pat1 exch def
<< Tile8x8
 /PaintProc {0.5 setlinewidth pop 0 0 M 8 8 L 0 8 M 8 0 L stroke
	0 4 M 4 8 L 8 4 L 4 0 L 0 4 L stroke}
>> matrix makepattern
/Pat2 exch def
<< Tile8x8
 /PaintProc {0.5 setlinewidth pop 0 0 M 0 8 L
	8 8 L 8 0 L 0 0 L fill}
>> matrix makepattern
/Pat3 exch def
<< Tile8x8
 /PaintProc {0.5 setlinewidth pop -4 8 M 8 -4 L
	0 12 M 12 0 L stroke}
>> matrix makepattern
/Pat4 exch def
<< Tile8x8
 /PaintProc {0.5 setlinewidth pop -4 0 M 8 12 L
	0 -4 M 12 8 L stroke}
>> matrix makepattern
/Pat5 exch def
<< Tile8x8
 /PaintProc {0.5 setlinewidth pop -2 8 M 4 -4 L
	0 12 M 8 -4 L 4 12 M 10 0 L stroke}
>> matrix makepattern
/Pat6 exch def
<< Tile8x8
 /PaintProc {0.5 setlinewidth pop -2 0 M 4 12 L
	0 -4 M 8 12 L 4 -4 M 10 8 L stroke}
>> matrix makepattern
/Pat7 exch def
<< Tile8x8
 /PaintProc {0.5 setlinewidth pop 8 -2 M -4 4 L
	12 0 M -4 8 L 12 4 M 0 10 L stroke}
>> matrix makepattern
/Pat8 exch def
<< Tile8x8
 /PaintProc {0.5 setlinewidth pop 0 -2 M 12 4 L
	-4 0 M 12 8 L -4 4 M 8 10 L stroke}
>> matrix makepattern
/Pat9 exch def
/Pattern1 {PatternBgnd KeepColor Pat1 setpattern} bind def
/Pattern2 {PatternBgnd KeepColor Pat2 setpattern} bind def
/Pattern3 {PatternBgnd KeepColor Pat3 setpattern} bind def
/Pattern4 {PatternBgnd KeepColor Landscape {Pat5} {Pat4} ifelse setpattern} bind def
/Pattern5 {PatternBgnd KeepColor Landscape {Pat4} {Pat5} ifelse setpattern} bind def
/Pattern6 {PatternBgnd KeepColor Landscape {Pat9} {Pat6} ifelse setpattern} bind def
/Pattern7 {PatternBgnd KeepColor Landscape {Pat8} {Pat7} ifelse setpattern} bind def
} def
%
%
%End of PostScript Level 2 code
%
/PatternBgnd {
  TransparentPatterns {} {gsave 1 setgray fill grestore} ifelse
} def
%
% Substitute for Level 2 pattern fill codes with
% grayscale if Level 2 support is not selected.
%
/Level1PatternFill {
/Pattern1 {0.250 Density} bind def
/Pattern2 {0.500 Density} bind def
/Pattern3 {0.750 Density} bind def
/Pattern4 {0.125 Density} bind def
/Pattern5 {0.375 Density} bind def
/Pattern6 {0.625 Density} bind def
/Pattern7 {0.875 Density} bind def
} def
%
% Now test for support of Level 2 code
%
Level1 {Level1PatternFill} {Level2PatternFill} ifelse
%
/Symbol-Oblique /Symbol findfont [1 0 .167 1 0 0] makefont
dup length dict begin {1 index /FID eq {pop pop} {def} ifelse} forall
currentdict end definefont pop
%
/MFshow {
   { dup 5 get 3 ge
     { 5 get 3 eq {gsave} {grestore} ifelse }
     {dup dup 0 get findfont exch 1 get scalefont setfont
     [ currentpoint ] exch dup 2 get 0 exch R dup 5 get 2 ne {dup dup 6
     get exch 4 get {textshow} {stringwidth pop 0 R} ifelse }if dup 5 get 0 eq
     {dup 3 get {2 get neg 0 exch R pop} {pop aload pop M} ifelse} {dup 5
     get 1 eq {dup 2 get exch dup 3 get exch 6 get stringwidth pop -2 div
     dup 0 R} {dup 6 get stringwidth pop -2 div 0 R 6 get
     textshow 2 index {aload pop M neg 3 -1 roll neg R pop pop} {pop pop pop
     pop aload pop M} ifelse }ifelse }ifelse }
     ifelse }
   forall} def
/Gswidth {dup type /stringtype eq {stringwidth} {pop (n) stringwidth} ifelse} def
/MFwidth {0 exch { dup 5 get 3 ge { 5 get 3 eq { 0 } { pop } ifelse }
 {dup 3 get{dup dup 0 get findfont exch 1 get scalefont setfont
     6 get Gswidth pop add} {pop} ifelse} ifelse} forall} def
/MLshow { currentpoint stroke M
  0 exch R
  Blacktext {gsave 0 setgray MFshow grestore} {MFshow} ifelse } bind def
/MRshow { currentpoint stroke M
  exch dup MFwidth neg 3 -1 roll R
  Blacktext {gsave 0 setgray MFshow grestore} {MFshow} ifelse } bind def
/MCshow { currentpoint stroke M
  exch dup MFwidth -2 div 3 -1 roll R
  Blacktext {gsave 0 setgray MFshow grestore} {MFshow} ifelse } bind def
/XYsave    { [( ) 1 2 true false 3 ()] } bind def
/XYrestore { [( ) 1 2 true false 4 ()] } bind def
Level1 SuppressPDFMark or 
{} {
/SDict 10 dict def
systemdict /pdfmark known not {
  userdict /pdfmark systemdict /cleartomark get put
} if
SDict begin [
  /Title (splinefit3.eps)
  /Subject (gnuplot plot)
  /Creator (gnuplot 5.0 patchlevel 2)
  /Author (jwe)
%  /Producer (gnuplot)
%  /Keywords ()
  /CreationDate (Fri Jul  1 14:57:39 2016)
  /DOCINFO pdfmark
end
} ifelse
%
% Support for boxed text - Ethan A Merritt May 2005
%
/InitTextBox { userdict /TBy2 3 -1 roll put userdict /TBx2 3 -1 roll put
           userdict /TBy1 3 -1 roll put userdict /TBx1 3 -1 roll put
	   /Boxing true def } def
/ExtendTextBox { Boxing
    { gsave dup false charpath pathbbox
      dup TBy2 gt {userdict /TBy2 3 -1 roll put} {pop} ifelse
      dup TBx2 gt {userdict /TBx2 3 -1 roll put} {pop} ifelse
      dup TBy1 lt {userdict /TBy1 3 -1 roll put} {pop} ifelse
      dup TBx1 lt {userdict /TBx1 3 -1 roll put} {pop} ifelse
      grestore } if } def
/PopTextBox { newpath TBx1 TBxmargin sub TBy1 TBymargin sub M
               TBx1 TBxmargin sub TBy2 TBymargin add L
	       TBx2 TBxmargin add TBy2 TBymargin add L
	       TBx2 TBxmargin add TBy1 TBymargin sub L closepath } def
/DrawTextBox { PopTextBox stroke /Boxing false def} def
/FillTextBox { gsave PopTextBox 1 1 1 setrgbcolor fill grestore /Boxing false def} def
0 0 0 0 InitTextBox
/TBxmargin 20 def
/TBymargin 20 def
/Boxing false def
/textshow { ExtendTextBox Gshow } def
%
% redundant definitions for compatibility with prologue.ps older than 5.0.2
/LTB {BL [] LCb DL} def
/LTb {PL [] LCb DL} def
end
%%EndProlog
%%Page: 1 1
gnudict begin
gsave
doclip
50 50 translate
0.050 0.050 scale
0 setgray
newpath
(Helvetica) findfont 200 scalefont setfont
BackgroundColor 0 lt 3 1 roll 0 lt exch 0 lt or or not {BackgroundColor C 1.000 0 0 7200.00 5040.00 BoxColFill} if
gsave % colour palette begin
/maxcolors 64 def
/HSV2RGB {  exch dup 0.0 eq {pop exch pop dup dup} % achromatic gray
  { /HSVs exch def /HSVv exch def 6.0 mul dup floor dup 3 1 roll sub
     /HSVf exch def /HSVi exch cvi def /HSVp HSVv 1.0 HSVs sub mul def
	 /HSVq HSVv 1.0 HSVs HSVf mul sub mul def 
	 /HSVt HSVv 1.0 HSVs 1.0 HSVf sub mul sub mul def
	 /HSVi HSVi 6 mod def 0 HSVi eq {HSVv HSVt HSVp}
	 {1 HSVi eq {HSVq HSVv HSVp}{2 HSVi eq {HSVp HSVv HSVt}
	 {3 HSVi eq {HSVp HSVq HSVv}{4 HSVi eq {HSVt HSVp HSVv}
	 {HSVv HSVp HSVq} ifelse} ifelse} ifelse} ifelse} ifelse
  } ifelse} def
/Constrain {
  dup 0 lt {0 exch pop}{dup 1 gt {1 exch pop} if} ifelse} def
/YIQ2RGB {
  3 copy -1.702 mul exch -1.105 mul add add Constrain 4 1 roll
  3 copy -0.647 mul exch -0.272 mul add add Constrain 5 1 roll
  0.621 mul exch -0.956 mul add add Constrain 3 1 roll } def
/CMY2RGB {  1 exch sub exch 1 exch sub 3 2 roll 1 exch sub 3 1 roll exch } def
/XYZ2RGB {  3 copy -0.9017 mul exch -0.1187 mul add exch 0.0585 mul exch add
  Constrain 4 1 roll 3 copy -0.0279 mul exch 1.999 mul add exch
  -0.9844 mul add Constrain 5 1 roll -0.2891 mul exch -0.5338 mul add
  exch 1.91 mul exch add Constrain 3 1 roll} def
/SelectSpace {ColorSpace (HSV) eq {HSV2RGB}{ColorSpace (XYZ) eq {
  XYZ2RGB}{ColorSpace (CMY) eq {CMY2RGB}{ColorSpace (YIQ) eq {YIQ2RGB}
  if} ifelse} ifelse} ifelse} def
/InterpolatedColor true def
/grayindex {/gidx 0 def
  {GrayA gidx get grayv ge {exit} if /gidx gidx 1 add def} loop} def
/dgdx {grayv GrayA gidx get sub GrayA gidx 1 sub get
  GrayA gidx get sub div} def 
/redvalue {RedA gidx get RedA gidx 1 sub get
  RedA gidx get sub dgdxval mul add} def
/greenvalue {GreenA gidx get GreenA gidx 1 sub get
  GreenA gidx get sub dgdxval mul add} def
/bluevalue {BlueA gidx get BlueA gidx 1 sub get
  BlueA gidx get sub dgdxval mul add} def
/interpolate {
  grayindex grayv GrayA gidx get sub abs 1e-5 le
    {RedA gidx get GreenA gidx get BlueA gidx get}
    {/dgdxval dgdx def redvalue greenvalue bluevalue} ifelse} def
/GrayA [0 .0159 .0317 .0476 .0635 .0794 .0952 .1111 .127 .1429 .1587 .1746 
  .1905 .2063 .2222 .2381 .254 .2698 .2857 .3016 .3175 .3333 .3492 .3651 
  .381 .3968 .4127 .4286 .4444 .4603 .4762 .4921 .5079 .5238 .5397 .5556 
  .5714 .5873 .6032 .619 .6349 .6508 .6667 .6825 .6984 .7143 .7302 .746 
  .7619 .7778 .7937 .8095 .8254 .8413 .8571 .873 .8889 .9048 .9206 .9365 
  .9524 .9683 .9841 1 ] def
/RedA [0 0 0 0 0 0 0 0 0 0 0 0 0 0 0 0 0 0 0 0 0 0 0 0 .0238 .0873 .1508 
  .2143 .2778 .3413 .4048 .4683 .5317 .5952 .6587 .7222 .7857 .8492 .9127 
  .9762 1 1 1 1 1 1 1 1 1 1 1 1 1 1 1 1 .9444 .881 .8175 .754 .6905 .627 
  .5635 .5 ] def
/GreenA [0 0 0 0 0 0 0 0 .0079 .0714 .1349 .1984 .2619 .3254 .3889 .4524 
  .5159 .5794 .6429 .7063 .7698 .8333 .8968 .9603 1 1 1 1 1 1 1 1 1 1 1 1 1 
  1 1 1 .9603 .8968 .8333 .7698 .7063 .6429 .5794 .5159 .4524 .3889 .3254 
  .2619 .1984 .1349 .0714 .0079 0 0 0 0 0 0 0 0 ] def
/BlueA [.5 .5635 .627 .6905 .754 .8175 .881 .9444 1 1 1 1 1 1 1 1 1 1 1 1 1 
  1 1 1 .9762 .9127 .8492 .7857 .7222 .6587 .5952 .5317 .4683 .4048 .3413 
  .2778 .2143 .1508 .0873 .0238 0 0 0 0 0 0 0 0 0 0 0 0 0 0 0 0 0 0 0 0 0 0 
  0 0 ] def
/pm3dround {maxcolors 0 gt {dup 1 ge
	{pop 1} {maxcolors mul floor maxcolors 1 sub div} ifelse} if} def
/pm3dGamma 1.0 1.5 Gamma mul div def
/ColorSpace (RGB) def
Color InterpolatedColor or { % COLOUR vs. GRAY map
  InterpolatedColor { %% Interpolation vs. RGB-Formula
    /g {stroke pm3dround /grayv exch def interpolate
        SelectSpace setrgbcolor} bind def
  }{
  /g {stroke pm3dround dup cF7 Constrain exch dup cF5 Constrain exch cF15 Constrain 
       SelectSpace setrgbcolor} bind def
  } ifelse
}{
  /g {stroke pm3dround pm3dGamma exp setgray} bind def
} ifelse
1.000 UL
LTb
1.00 1.00 1.00 C 1.000 540 400 6298 4398 BoxColFill
0.500 UL
LTb
LCb setrgbcolor
540 400 M
88 0 V
6211 0 R
-88 0 V
stroke
0.00 0.00 0.00 C 420 400 M
[ [({}) 200.0 0.0 true true 0 (-2)]
] -66.7 MRshow
0.500 UL
LTb
LCb setrgbcolor
540 1280 M
88 0 V
6211 0 R
-88 0 V
stroke
0.00 0.00 0.00 C 420 1280 M
[ [({}) 200.0 0.0 true true 0 (-1)]
] -66.7 MRshow
0.500 UL
LTb
LCb setrgbcolor
540 2160 M
88 0 V
6211 0 R
-88 0 V
stroke
0.00 0.00 0.00 C 420 2160 M
[ [({}) 200.0 0.0 true true 0 (0)]
] -66.7 MRshow
0.500 UL
LTb
LCb setrgbcolor
540 3039 M
88 0 V
6211 0 R
-88 0 V
stroke
0.00 0.00 0.00 C 420 3039 M
[ [({}) 200.0 0.0 true true 0 (1)]
] -66.7 MRshow
0.500 UL
LTb
LCb setrgbcolor
540 3919 M
88 0 V
6211 0 R
-88 0 V
stroke
0.00 0.00 0.00 C 420 3919 M
[ [({}) 200.0 0.0 true true 0 (2)]
] -66.7 MRshow
0.500 UL
LTb
LCb setrgbcolor
540 4799 M
88 0 V
6211 0 R
-88 0 V
stroke
0.00 0.00 0.00 C 420 4799 M
[ [({}) 200.0 0.0 true true 0 (3)]
] -66.7 MRshow
0.500 UL
LTb
LCb setrgbcolor
540 400 M
0 88 V
0 4311 R
0 -88 V
stroke
0.00 0.00 0.00 C 540 200 M
[ [({}) 200.0 0.0 true true 0 (0)]
] -66.7 MCshow
0.500 UL
LTb
LCb setrgbcolor
1543 400 M
0 88 V
0 4311 R
0 -88 V
stroke
0.00 0.00 0.00 C 1543 200 M
[ [({}) 200.0 0.0 true true 0 (1)]
] -66.7 MCshow
0.500 UL
LTb
LCb setrgbcolor
2545 400 M
0 88 V
0 4311 R
0 -88 V
stroke
0.00 0.00 0.00 C 2545 200 M
[ [({}) 200.0 0.0 true true 0 (2)]
] -66.7 MCshow
0.500 UL
LTb
LCb setrgbcolor
3548 400 M
0 88 V
0 4311 R
0 -88 V
stroke
0.00 0.00 0.00 C 3548 200 M
[ [({}) 200.0 0.0 true true 0 (3)]
] -66.7 MCshow
0.500 UL
LTb
LCb setrgbcolor
4550 400 M
0 88 V
0 4311 R
0 -88 V
stroke
0.00 0.00 0.00 C 4550 200 M
[ [({}) 200.0 0.0 true true 0 (4)]
] -66.7 MCshow
0.500 UL
LTb
LCb setrgbcolor
5553 400 M
0 88 V
0 4311 R
0 -88 V
stroke
0.00 0.00 0.00 C 5553 200 M
[ [({}) 200.0 0.0 true true 0 (5)]
] -66.7 MCshow
0.500 UL
LTb
LCb setrgbcolor
6555 400 M
0 88 V
0 4311 R
0 -88 V
stroke
0.00 0.00 0.00 C 6555 200 M
[ [({}) 200.0 0.0 true true 0 (6)]
] -66.7 MCshow
0.500 UL
LTb
LCb setrgbcolor
0.500 UL
LTB
LCb setrgbcolor
540 4799 N
540 400 L
6299 0 V
0 4399 V
-6299 0 V
Z stroke
1.000 UP
0.500 UL
LTb
LCb setrgbcolor
1.000 UL
LTb
LCb setrgbcolor
4256 3236 N
0 1500 V
2463 0 V
0 -1500 V
-2463 0 V
Z stroke
% Begin plot #1
0.667 UP
0.500 UL
LTb
0.00 0.00 1.00 C 0.00 0.00 0.00 C 6719 4486 M
[ [({}) 200.0 0.0 true true 0 (data)]
] -66.7 MRshow
0.667 UP
0.500 UL
LTb
0.00 0.00 1.00 C 540 1222 CircleF
2274 3652 CircleF
3179 2332 CircleF
6794 1436 CircleF
5015 2023 CircleF
4960 2160 CircleF
3088 1981 CircleF
5601 2003 CircleF
603 1132 CircleF
4208 1114 CircleF
6662 1317 CircleF
2154 4444 CircleF
1045 2037 CircleF
5536 1818 CircleF
5210 2139 CircleF
764 1489 CircleF
4723 1728 CircleF
3295 1584 CircleF
3634 1451 CircleF
6039 1728 CircleF
1935 4150 CircleF
2687 3363 CircleF
3850 1270 CircleF
2298 3492 CircleF
5485 1776 CircleF
5565 2130 CircleF
4469 1374 CircleF
6236 1530 CircleF
3585 1156 CircleF
5441 2195 CircleF
6282 1417 CircleF
6307 1332 CircleF
698 1511 CircleF
4353 1322 CircleF
5930 1391 CircleF
3929 1009 CircleF
3115 2342 CircleF
3822 1121 CircleF
1198 2695 CircleF
3478 1665 CircleF
4720 1746 CircleF
4094 1232 CircleF
3904 829 CircleF
1927 3658 CircleF
2083 4136 CircleF
5250 2345 CircleF
5302 2080 CircleF
2365 4044 CircleF
5576 1922 CircleF
5267 1801 CircleF
3493 1476 CircleF
1231 2476 CircleF
5726 2040 CircleF
1588 3367 CircleF
3538 1655 CircleF
552 1133 CircleF
3784 856 CircleF
6733 1390 CircleF
2411 3609 CircleF
3501 1489 CircleF
3508 1471 CircleF
4608 1395 CircleF
2698 3436 CircleF
4607 1358 CircleF
5572 2079 CircleF
4370 1660 CircleF
2122 4027 CircleF
3452 1684 CircleF
5722 2008 CircleF
4372 1513 CircleF
2895 2670 CircleF
2378 3933 CircleF
5363 2104 CircleF
6337 1343 CircleF
5691 1799 CircleF
627 1631 CircleF
1395 2832 CircleF
897 2110 CircleF
2474 3450 CircleF
3698 1456 CircleF
2996 2631 CircleF
6417 1131 CircleF
4061 1344 CircleF
1152 2615 CircleF
2100 3852 CircleF
1103 2127 CircleF
3563 1625 CircleF
2934 2599 CircleF
6302 947 CircleF
4365 1334 CircleF
2395 4116 CircleF
4757 1598 CircleF
2304 3703 CircleF
921 2027 CircleF
4513 1542 CircleF
5825 1737 CircleF
5720 1740 CircleF
1640 3272 CircleF
2637 3094 CircleF
6839 1097 CircleF
4648 4486 CircleF
% End plot #1
% Begin plot #2
0.500 UL
LTb
0.00 0.50 0.00 C 0.00 0.00 0.00 C 6719 3986 M
[ [({}) 200.0 0.0 true true 0 (no constraints)]
] -66.7 MRshow
0.500 UL
LTb
0.00 0.50 0.00 C 4376 3986 M
543 0 V
540 1177 M
16 28 V
16 31 V
15 32 V
16 33 V
16 34 V
16 36 V
16 36 V
15 36 V
16 37 V
16 36 V
16 37 V
15 37 V
16 36 V
16 36 V
16 35 V
16 35 V
15 35 V
16 34 V
16 33 V
16 33 V
16 32 V
15 31 V
16 31 V
16 30 V
16 30 V
15 30 V
16 28 V
16 29 V
16 28 V
16 28 V
15 28 V
16 27 V
16 28 V
16 27 V
16 27 V
15 28 V
16 27 V
16 28 V
16 28 V
15 28 V
16 29 V
16 29 V
16 29 V
16 30 V
15 30 V
16 30 V
16 31 V
16 31 V
16 31 V
15 32 V
16 33 V
16 32 V
16 33 V
15 34 V
16 34 V
16 34 V
16 34 V
16 34 V
15 35 V
16 34 V
16 35 V
16 35 V
16 35 V
15 35 V
16 34 V
16 35 V
16 34 V
16 34 V
15 34 V
16 34 V
16 33 V
16 32 V
15 32 V
16 32 V
16 31 V
16 30 V
16 29 V
15 29 V
16 27 V
16 27 V
16 26 V
16 25 V
15 24 V
16 22 V
16 22 V
16 20 V
15 19 V
16 18 V
16 16 V
16 15 V
16 14 V
15 12 V
16 11 V
16 9 V
16 8 V
16 6 V
15 5 V
16 3 V
16 2 V
16 0 V
15 -1 V
16 -3 V
stroke 2150 3999 M
16 -5 V
16 -6 V
16 -7 V
15 -9 V
16 -11 V
16 -12 V
16 -13 V
16 -15 V
15 -16 V
16 -17 V
16 -19 V
16 -20 V
16 -21 V
15 -22 V
16 -23 V
16 -24 V
16 -25 V
15 -26 V
16 -27 V
16 -28 V
16 -28 V
16 -30 V
15 -30 V
16 -30 V
16 -32 V
16 -31 V
16 -33 V
15 -33 V
16 -33 V
16 -33 V
16 -34 V
15 -34 V
16 -35 V
16 -35 V
16 -34 V
16 -36 V
15 -35 V
16 -35 V
16 -36 V
16 -35 V
16 -36 V
15 -36 V
16 -36 V
16 -35 V
16 -36 V
15 -36 V
16 -35 V
16 -36 V
16 -35 V
16 -36 V
15 -35 V
16 -35 V
16 -36 V
16 -34 V
16 -35 V
15 -35 V
16 -34 V
16 -35 V
16 -34 V
15 -34 V
16 -34 V
16 -33 V
16 -33 V
16 -34 V
15 -32 V
16 -33 V
16 -32 V
16 -32 V
16 -32 V
15 -32 V
16 -31 V
16 -31 V
16 -30 V
16 -31 V
15 -30 V
16 -29 V
16 -29 V
16 -29 V
15 -28 V
16 -28 V
16 -28 V
16 -26 V
16 -27 V
15 -26 V
16 -25 V
16 -25 V
16 -24 V
16 -24 V
15 -23 V
16 -22 V
16 -22 V
16 -21 V
15 -20 V
16 -19 V
16 -19 V
16 -18 V
16 -17 V
15 -16 V
16 -16 V
16 -14 V
16 -14 V
16 -13 V
15 -12 V
16 -11 V
stroke 3792 1182 M
16 -10 V
16 -9 V
15 -8 V
16 -8 V
16 -6 V
16 -6 V
16 -4 V
15 -4 V
16 -3 V
16 -2 V
16 -1 V
16 0 V
15 0 V
16 2 V
16 2 V
16 3 V
15 4 V
16 5 V
16 5 V
16 6 V
16 7 V
15 8 V
16 8 V
16 9 V
16 10 V
16 10 V
15 11 V
16 12 V
16 12 V
16 12 V
16 13 V
15 14 V
16 14 V
16 14 V
16 15 V
15 16 V
16 15 V
16 16 V
16 16 V
16 17 V
15 17 V
16 17 V
16 17 V
16 17 V
16 18 V
15 18 V
16 17 V
16 18 V
16 18 V
15 18 V
16 18 V
16 18 V
16 18 V
16 17 V
15 18 V
16 18 V
16 17 V
16 17 V
16 17 V
15 17 V
16 17 V
16 16 V
16 16 V
15 16 V
16 15 V
16 15 V
16 15 V
16 14 V
15 14 V
16 14 V
16 13 V
16 13 V
16 12 V
15 12 V
16 11 V
16 11 V
16 11 V
15 9 V
16 10 V
16 9 V
16 8 V
16 8 V
15 7 V
16 7 V
16 6 V
16 5 V
16 5 V
15 5 V
16 3 V
16 4 V
16 2 V
16 3 V
15 1 V
16 1 V
16 0 V
16 0 V
15 -1 V
16 -1 V
16 -2 V
16 -2 V
16 -3 V
15 -4 V
16 -4 V
16 -5 V
stroke 5434 2053 M
16 -5 V
16 -6 V
15 -6 V
16 -7 V
16 -8 V
16 -8 V
15 -8 V
16 -9 V
16 -10 V
16 -10 V
16 -11 V
15 -11 V
16 -11 V
16 -12 V
16 -13 V
16 -13 V
15 -14 V
16 -14 V
16 -14 V
16 -15 V
15 -15 V
16 -16 V
16 -16 V
16 -17 V
16 -16 V
15 -18 V
16 -17 V
16 -18 V
16 -18 V
16 -18 V
15 -19 V
16 -19 V
16 -18 V
16 -19 V
16 -19 V
15 -19 V
16 -19 V
16 -19 V
16 -19 V
15 -19 V
16 -18 V
16 -18 V
16 -17 V
16 -17 V
15 -17 V
16 -16 V
16 -15 V
16 -15 V
16 -13 V
15 -13 V
16 -12 V
16 -11 V
16 -10 V
15 -9 V
16 -7 V
16 -7 V
16 -5 V
16 -4 V
15 -3 V
16 -2 V
16 0 V
16 1 V
16 2 V
15 3 V
16 4 V
16 5 V
16 6 V
15 6 V
16 8 V
16 8 V
16 8 V
16 8 V
15 8 V
16 8 V
16 8 V
16 6 V
16 6 V
15 4 V
16 3 V
16 0 V
16 -2 V
15 -4 V
16 -8 V
16 -12 V
16 -16 V
16 -21 V
15 -26 V
16 -32 V
16 -38 V
% End plot #2
% Begin plot #3
stroke
LTb
1.00 0.00 0.00 C 0.00 0.00 0.00 C 6719 3486 M
[ [({}) 200.0 0.0 true true 0 (periodic)]
] -66.7 MRshow
0.500 UL
LTb
1.00 0.00 0.00 C 4376 3486 M
543 0 V
540 1323 M
16 14 V
16 15 V
15 16 V
16 17 V
16 18 V
16 18 V
16 19 V
15 20 V
16 20 V
16 22 V
16 22 V
15 22 V
16 24 V
16 24 V
16 25 V
16 26 V
15 26 V
16 27 V
16 28 V
16 28 V
16 29 V
15 30 V
16 30 V
16 31 V
16 31 V
15 32 V
16 33 V
16 33 V
16 33 V
16 34 V
15 34 V
16 35 V
16 35 V
16 36 V
16 36 V
15 36 V
16 37 V
16 37 V
16 37 V
15 38 V
16 37 V
16 38 V
16 38 V
16 38 V
15 39 V
16 38 V
16 38 V
16 39 V
16 38 V
15 38 V
16 38 V
16 38 V
16 38 V
15 38 V
16 37 V
16 37 V
16 37 V
16 37 V
15 36 V
16 36 V
16 35 V
16 35 V
16 35 V
15 34 V
16 33 V
16 33 V
16 32 V
16 32 V
15 31 V
16 30 V
16 29 V
16 29 V
15 28 V
16 27 V
16 26 V
16 25 V
16 25 V
15 23 V
16 23 V
16 22 V
16 20 V
16 20 V
15 18 V
16 18 V
16 16 V
16 15 V
15 14 V
16 14 V
16 11 V
16 11 V
16 10 V
15 8 V
16 7 V
16 6 V
16 5 V
16 4 V
15 2 V
16 1 V
16 0 V
16 -1 V
15 -2 V
16 -4 V
stroke 2150 3964 M
16 -5 V
16 -6 V
16 -7 V
15 -8 V
16 -10 V
16 -10 V
16 -12 V
16 -13 V
15 -14 V
16 -15 V
16 -16 V
16 -18 V
16 -18 V
15 -19 V
16 -20 V
16 -21 V
16 -22 V
15 -23 V
16 -24 V
16 -25 V
16 -25 V
16 -27 V
15 -27 V
16 -28 V
16 -28 V
16 -29 V
16 -30 V
15 -31 V
16 -31 V
16 -31 V
16 -33 V
15 -32 V
16 -33 V
16 -34 V
16 -34 V
16 -35 V
15 -35 V
16 -35 V
16 -35 V
16 -36 V
16 -36 V
15 -37 V
16 -36 V
16 -37 V
16 -37 V
15 -37 V
16 -37 V
16 -37 V
16 -38 V
16 -37 V
15 -37 V
16 -38 V
16 -37 V
16 -37 V
16 -37 V
15 -37 V
16 -37 V
16 -37 V
16 -36 V
15 -36 V
16 -36 V
16 -36 V
16 -36 V
16 -35 V
15 -35 V
16 -34 V
16 -34 V
16 -34 V
16 -33 V
15 -33 V
16 -33 V
16 -32 V
16 -31 V
16 -31 V
15 -31 V
16 -30 V
16 -29 V
16 -29 V
15 -28 V
16 -28 V
16 -27 V
16 -26 V
16 -26 V
15 -25 V
16 -24 V
16 -24 V
16 -23 V
16 -22 V
15 -22 V
16 -20 V
16 -20 V
16 -20 V
15 -18 V
16 -18 V
16 -17 V
16 -16 V
16 -16 V
15 -14 V
16 -14 V
16 -13 V
16 -12 V
16 -12 V
15 -11 V
16 -9 V
stroke 3792 1194 M
16 -9 V
16 -8 V
15 -8 V
16 -6 V
16 -6 V
16 -5 V
16 -4 V
15 -4 V
16 -2 V
16 -2 V
16 -1 V
16 0 V
15 0 V
16 1 V
16 2 V
16 3 V
15 3 V
16 4 V
16 5 V
16 6 V
16 6 V
15 7 V
16 7 V
16 8 V
16 9 V
16 9 V
15 10 V
16 11 V
16 11 V
16 11 V
16 12 V
15 13 V
16 13 V
16 13 V
16 14 V
15 14 V
16 15 V
16 15 V
16 15 V
16 16 V
15 16 V
16 16 V
16 17 V
16 16 V
16 17 V
15 18 V
16 17 V
16 17 V
16 18 V
15 18 V
16 17 V
16 18 V
16 18 V
16 18 V
15 17 V
16 18 V
16 18 V
16 17 V
16 18 V
15 17 V
16 17 V
16 17 V
16 16 V
15 16 V
16 17 V
16 15 V
16 16 V
16 15 V
15 15 V
16 14 V
16 14 V
16 14 V
16 13 V
15 12 V
16 13 V
16 11 V
16 12 V
15 10 V
16 11 V
16 9 V
16 9 V
16 9 V
15 8 V
16 7 V
16 7 V
16 6 V
16 6 V
15 5 V
16 4 V
16 3 V
16 3 V
16 3 V
15 1 V
16 1 V
16 1 V
16 -1 V
15 -1 V
16 -1 V
16 -2 V
16 -3 V
16 -4 V
15 -4 V
16 -5 V
16 -6 V
stroke 5434 2061 M
16 -6 V
16 -6 V
15 -8 V
16 -8 V
16 -8 V
16 -10 V
15 -9 V
16 -11 V
16 -10 V
16 -12 V
16 -11 V
15 -13 V
16 -13 V
16 -13 V
16 -14 V
16 -14 V
15 -14 V
16 -15 V
16 -15 V
16 -16 V
15 -15 V
16 -16 V
16 -17 V
16 -16 V
16 -17 V
15 -17 V
16 -17 V
16 -17 V
16 -17 V
16 -17 V
15 -18 V
16 -17 V
16 -17 V
16 -18 V
16 -17 V
15 -17 V
16 -17 V
16 -17 V
16 -16 V
15 -17 V
16 -16 V
16 -16 V
16 -16 V
16 -15 V
15 -15 V
16 -15 V
16 -14 V
16 -14 V
16 -14 V
15 -13 V
16 -13 V
16 -12 V
16 -12 V
15 -11 V
16 -11 V
16 -10 V
16 -10 V
16 -9 V
15 -9 V
16 -8 V
16 -7 V
16 -7 V
16 -6 V
15 -5 V
16 -5 V
16 -4 V
16 -4 V
15 -2 V
16 -2 V
16 -2 V
16 0 V
16 0 V
15 1 V
16 2 V
16 2 V
16 3 V
16 4 V
15 5 V
16 6 V
16 6 V
16 7 V
15 8 V
16 9 V
16 9 V
16 11 V
16 11 V
15 12 V
16 12 V
16 14 V
% End plot #3
stroke
2.000 UL
LTb
LCb setrgbcolor
1.000 UP
0.500 UL
LTb
LCb setrgbcolor
grestore % colour palette end
stroke
grestore
end
showpage
%%Trailer
%%DocumentFonts: Helvetica
