%!PS-Adobe-2.0 EPSF-2.0
%%Title: spmatrix.eps
%%Creator: gnuplot 5.0 patchlevel 2
%%CreationDate: Fri Jul  1 14:57:38 2016
%%DocumentFonts: (atend)
%%BoundingBox: 50 50 410 302
%%EndComments
%%BeginProlog
/gnudict 256 dict def
gnudict begin
%
% The following true/false flags may be edited by hand if desired.
% The unit line width and grayscale image gamma correction may also be changed.
%
/Color true def
/Blacktext false def
/Solid false def
/Dashlength 2 def
/Landscape false def
/Level1 false def
/Level3 false def
/Rounded false def
/ClipToBoundingBox false def
/SuppressPDFMark false def
/TransparentPatterns false def
/gnulinewidth 5.000 def
/userlinewidth gnulinewidth def
/Gamma 1.0 def
/BackgroundColor {-1.000 -1.000 -1.000} def
%
/vshift -66 def
/dl1 {
  10.0 Dashlength userlinewidth gnulinewidth div mul mul mul
  Rounded { currentlinewidth 0.75 mul sub dup 0 le { pop 0.01 } if } if
} def
/dl2 {
  10.0 Dashlength userlinewidth gnulinewidth div mul mul mul
  Rounded { currentlinewidth 0.75 mul add } if
} def
/hpt_ 31.5 def
/vpt_ 31.5 def
/hpt hpt_ def
/vpt vpt_ def
/doclip {
  ClipToBoundingBox {
    newpath 50 50 moveto 410 50 lineto 410 302 lineto 50 302 lineto closepath
    clip
  } if
} def
%
% Gnuplot Prolog Version 5.1 (Oct 2015)
%
%/SuppressPDFMark true def
%
/M {moveto} bind def
/L {lineto} bind def
/R {rmoveto} bind def
/V {rlineto} bind def
/N {newpath moveto} bind def
/Z {closepath} bind def
/C {setrgbcolor} bind def
/f {rlineto fill} bind def
/g {setgray} bind def
/Gshow {show} def   % May be redefined later in the file to support UTF-8
/vpt2 vpt 2 mul def
/hpt2 hpt 2 mul def
/Lshow {currentpoint stroke M 0 vshift R 
	Blacktext {gsave 0 setgray textshow grestore} {textshow} ifelse} def
/Rshow {currentpoint stroke M dup stringwidth pop neg vshift R
	Blacktext {gsave 0 setgray textshow grestore} {textshow} ifelse} def
/Cshow {currentpoint stroke M dup stringwidth pop -2 div vshift R 
	Blacktext {gsave 0 setgray textshow grestore} {textshow} ifelse} def
/UP {dup vpt_ mul /vpt exch def hpt_ mul /hpt exch def
  /hpt2 hpt 2 mul def /vpt2 vpt 2 mul def} def
/DL {Color {setrgbcolor Solid {pop []} if 0 setdash}
 {pop pop pop 0 setgray Solid {pop []} if 0 setdash} ifelse} def
/BL {stroke userlinewidth 2 mul setlinewidth
	Rounded {1 setlinejoin 1 setlinecap} if} def
/AL {stroke userlinewidth 2 div setlinewidth
	Rounded {1 setlinejoin 1 setlinecap} if} def
/UL {dup gnulinewidth mul /userlinewidth exch def
	dup 1 lt {pop 1} if 10 mul /udl exch def} def
/PL {stroke userlinewidth setlinewidth
	Rounded {1 setlinejoin 1 setlinecap} if} def
3.8 setmiterlimit
% Classic Line colors (version 5.0)
/LCw {1 1 1} def
/LCb {0 0 0} def
/LCa {0 0 0} def
/LC0 {1 0 0} def
/LC1 {0 1 0} def
/LC2 {0 0 1} def
/LC3 {1 0 1} def
/LC4 {0 1 1} def
/LC5 {1 1 0} def
/LC6 {0 0 0} def
/LC7 {1 0.3 0} def
/LC8 {0.5 0.5 0.5} def
% Default dash patterns (version 5.0)
/LTB {BL [] LCb DL} def
/LTw {PL [] 1 setgray} def
/LTb {PL [] LCb DL} def
/LTa {AL [1 udl mul 2 udl mul] 0 setdash LCa setrgbcolor} def
/LT0 {PL [] LC0 DL} def
/LT1 {PL [2 dl1 3 dl2] LC1 DL} def
/LT2 {PL [1 dl1 1.5 dl2] LC2 DL} def
/LT3 {PL [6 dl1 2 dl2 1 dl1 2 dl2] LC3 DL} def
/LT4 {PL [1 dl1 2 dl2 6 dl1 2 dl2 1 dl1 2 dl2] LC4 DL} def
/LT5 {PL [4 dl1 2 dl2] LC5 DL} def
/LT6 {PL [1.5 dl1 1.5 dl2 1.5 dl1 1.5 dl2 1.5 dl1 6 dl2] LC6 DL} def
/LT7 {PL [3 dl1 3 dl2 1 dl1 3 dl2] LC7 DL} def
/LT8 {PL [2 dl1 2 dl2 2 dl1 6 dl2] LC8 DL} def
/SL {[] 0 setdash} def
/Pnt {stroke [] 0 setdash gsave 1 setlinecap M 0 0 V stroke grestore} def
/Dia {stroke [] 0 setdash 2 copy vpt add M
  hpt neg vpt neg V hpt vpt neg V
  hpt vpt V hpt neg vpt V closepath stroke
  Pnt} def
/Pls {stroke [] 0 setdash vpt sub M 0 vpt2 V
  currentpoint stroke M
  hpt neg vpt neg R hpt2 0 V stroke
 } def
/Box {stroke [] 0 setdash 2 copy exch hpt sub exch vpt add M
  0 vpt2 neg V hpt2 0 V 0 vpt2 V
  hpt2 neg 0 V closepath stroke
  Pnt} def
/Crs {stroke [] 0 setdash exch hpt sub exch vpt add M
  hpt2 vpt2 neg V currentpoint stroke M
  hpt2 neg 0 R hpt2 vpt2 V stroke} def
/TriU {stroke [] 0 setdash 2 copy vpt 1.12 mul add M
  hpt neg vpt -1.62 mul V
  hpt 2 mul 0 V
  hpt neg vpt 1.62 mul V closepath stroke
  Pnt} def
/Star {2 copy Pls Crs} def
/BoxF {stroke [] 0 setdash exch hpt sub exch vpt add M
  0 vpt2 neg V hpt2 0 V 0 vpt2 V
  hpt2 neg 0 V closepath fill} def
/TriUF {stroke [] 0 setdash vpt 1.12 mul add M
  hpt neg vpt -1.62 mul V
  hpt 2 mul 0 V
  hpt neg vpt 1.62 mul V closepath fill} def
/TriD {stroke [] 0 setdash 2 copy vpt 1.12 mul sub M
  hpt neg vpt 1.62 mul V
  hpt 2 mul 0 V
  hpt neg vpt -1.62 mul V closepath stroke
  Pnt} def
/TriDF {stroke [] 0 setdash vpt 1.12 mul sub M
  hpt neg vpt 1.62 mul V
  hpt 2 mul 0 V
  hpt neg vpt -1.62 mul V closepath fill} def
/DiaF {stroke [] 0 setdash vpt add M
  hpt neg vpt neg V hpt vpt neg V
  hpt vpt V hpt neg vpt V closepath fill} def
/Pent {stroke [] 0 setdash 2 copy gsave
  translate 0 hpt M 4 {72 rotate 0 hpt L} repeat
  closepath stroke grestore Pnt} def
/PentF {stroke [] 0 setdash gsave
  translate 0 hpt M 4 {72 rotate 0 hpt L} repeat
  closepath fill grestore} def
/Circle {stroke [] 0 setdash 2 copy
  hpt 0 360 arc stroke Pnt} def
/CircleF {stroke [] 0 setdash hpt 0 360 arc fill} def
/C0 {BL [] 0 setdash 2 copy moveto vpt 90 450 arc} bind def
/C1 {BL [] 0 setdash 2 copy moveto
	2 copy vpt 0 90 arc closepath fill
	vpt 0 360 arc closepath} bind def
/C2 {BL [] 0 setdash 2 copy moveto
	2 copy vpt 90 180 arc closepath fill
	vpt 0 360 arc closepath} bind def
/C3 {BL [] 0 setdash 2 copy moveto
	2 copy vpt 0 180 arc closepath fill
	vpt 0 360 arc closepath} bind def
/C4 {BL [] 0 setdash 2 copy moveto
	2 copy vpt 180 270 arc closepath fill
	vpt 0 360 arc closepath} bind def
/C5 {BL [] 0 setdash 2 copy moveto
	2 copy vpt 0 90 arc
	2 copy moveto
	2 copy vpt 180 270 arc closepath fill
	vpt 0 360 arc} bind def
/C6 {BL [] 0 setdash 2 copy moveto
	2 copy vpt 90 270 arc closepath fill
	vpt 0 360 arc closepath} bind def
/C7 {BL [] 0 setdash 2 copy moveto
	2 copy vpt 0 270 arc closepath fill
	vpt 0 360 arc closepath} bind def
/C8 {BL [] 0 setdash 2 copy moveto
	2 copy vpt 270 360 arc closepath fill
	vpt 0 360 arc closepath} bind def
/C9 {BL [] 0 setdash 2 copy moveto
	2 copy vpt 270 450 arc closepath fill
	vpt 0 360 arc closepath} bind def
/C10 {BL [] 0 setdash 2 copy 2 copy moveto vpt 270 360 arc closepath fill
	2 copy moveto
	2 copy vpt 90 180 arc closepath fill
	vpt 0 360 arc closepath} bind def
/C11 {BL [] 0 setdash 2 copy moveto
	2 copy vpt 0 180 arc closepath fill
	2 copy moveto
	2 copy vpt 270 360 arc closepath fill
	vpt 0 360 arc closepath} bind def
/C12 {BL [] 0 setdash 2 copy moveto
	2 copy vpt 180 360 arc closepath fill
	vpt 0 360 arc closepath} bind def
/C13 {BL [] 0 setdash 2 copy moveto
	2 copy vpt 0 90 arc closepath fill
	2 copy moveto
	2 copy vpt 180 360 arc closepath fill
	vpt 0 360 arc closepath} bind def
/C14 {BL [] 0 setdash 2 copy moveto
	2 copy vpt 90 360 arc closepath fill
	vpt 0 360 arc} bind def
/C15 {BL [] 0 setdash 2 copy vpt 0 360 arc closepath fill
	vpt 0 360 arc closepath} bind def
/Rec {newpath 4 2 roll moveto 1 index 0 rlineto 0 exch rlineto
	neg 0 rlineto closepath} bind def
/Square {dup Rec} bind def
/Bsquare {vpt sub exch vpt sub exch vpt2 Square} bind def
/S0 {BL [] 0 setdash 2 copy moveto 0 vpt rlineto BL Bsquare} bind def
/S1 {BL [] 0 setdash 2 copy vpt Square fill Bsquare} bind def
/S2 {BL [] 0 setdash 2 copy exch vpt sub exch vpt Square fill Bsquare} bind def
/S3 {BL [] 0 setdash 2 copy exch vpt sub exch vpt2 vpt Rec fill Bsquare} bind def
/S4 {BL [] 0 setdash 2 copy exch vpt sub exch vpt sub vpt Square fill Bsquare} bind def
/S5 {BL [] 0 setdash 2 copy 2 copy vpt Square fill
	exch vpt sub exch vpt sub vpt Square fill Bsquare} bind def
/S6 {BL [] 0 setdash 2 copy exch vpt sub exch vpt sub vpt vpt2 Rec fill Bsquare} bind def
/S7 {BL [] 0 setdash 2 copy exch vpt sub exch vpt sub vpt vpt2 Rec fill
	2 copy vpt Square fill Bsquare} bind def
/S8 {BL [] 0 setdash 2 copy vpt sub vpt Square fill Bsquare} bind def
/S9 {BL [] 0 setdash 2 copy vpt sub vpt vpt2 Rec fill Bsquare} bind def
/S10 {BL [] 0 setdash 2 copy vpt sub vpt Square fill 2 copy exch vpt sub exch vpt Square fill
	Bsquare} bind def
/S11 {BL [] 0 setdash 2 copy vpt sub vpt Square fill 2 copy exch vpt sub exch vpt2 vpt Rec fill
	Bsquare} bind def
/S12 {BL [] 0 setdash 2 copy exch vpt sub exch vpt sub vpt2 vpt Rec fill Bsquare} bind def
/S13 {BL [] 0 setdash 2 copy exch vpt sub exch vpt sub vpt2 vpt Rec fill
	2 copy vpt Square fill Bsquare} bind def
/S14 {BL [] 0 setdash 2 copy exch vpt sub exch vpt sub vpt2 vpt Rec fill
	2 copy exch vpt sub exch vpt Square fill Bsquare} bind def
/S15 {BL [] 0 setdash 2 copy Bsquare fill Bsquare} bind def
/D0 {gsave translate 45 rotate 0 0 S0 stroke grestore} bind def
/D1 {gsave translate 45 rotate 0 0 S1 stroke grestore} bind def
/D2 {gsave translate 45 rotate 0 0 S2 stroke grestore} bind def
/D3 {gsave translate 45 rotate 0 0 S3 stroke grestore} bind def
/D4 {gsave translate 45 rotate 0 0 S4 stroke grestore} bind def
/D5 {gsave translate 45 rotate 0 0 S5 stroke grestore} bind def
/D6 {gsave translate 45 rotate 0 0 S6 stroke grestore} bind def
/D7 {gsave translate 45 rotate 0 0 S7 stroke grestore} bind def
/D8 {gsave translate 45 rotate 0 0 S8 stroke grestore} bind def
/D9 {gsave translate 45 rotate 0 0 S9 stroke grestore} bind def
/D10 {gsave translate 45 rotate 0 0 S10 stroke grestore} bind def
/D11 {gsave translate 45 rotate 0 0 S11 stroke grestore} bind def
/D12 {gsave translate 45 rotate 0 0 S12 stroke grestore} bind def
/D13 {gsave translate 45 rotate 0 0 S13 stroke grestore} bind def
/D14 {gsave translate 45 rotate 0 0 S14 stroke grestore} bind def
/D15 {gsave translate 45 rotate 0 0 S15 stroke grestore} bind def
/DiaE {stroke [] 0 setdash vpt add M
  hpt neg vpt neg V hpt vpt neg V
  hpt vpt V hpt neg vpt V closepath stroke} def
/BoxE {stroke [] 0 setdash exch hpt sub exch vpt add M
  0 vpt2 neg V hpt2 0 V 0 vpt2 V
  hpt2 neg 0 V closepath stroke} def
/TriUE {stroke [] 0 setdash vpt 1.12 mul add M
  hpt neg vpt -1.62 mul V
  hpt 2 mul 0 V
  hpt neg vpt 1.62 mul V closepath stroke} def
/TriDE {stroke [] 0 setdash vpt 1.12 mul sub M
  hpt neg vpt 1.62 mul V
  hpt 2 mul 0 V
  hpt neg vpt -1.62 mul V closepath stroke} def
/PentE {stroke [] 0 setdash gsave
  translate 0 hpt M 4 {72 rotate 0 hpt L} repeat
  closepath stroke grestore} def
/CircE {stroke [] 0 setdash 
  hpt 0 360 arc stroke} def
/Opaque {gsave closepath 1 setgray fill grestore 0 setgray closepath} def
/DiaW {stroke [] 0 setdash vpt add M
  hpt neg vpt neg V hpt vpt neg V
  hpt vpt V hpt neg vpt V Opaque stroke} def
/BoxW {stroke [] 0 setdash exch hpt sub exch vpt add M
  0 vpt2 neg V hpt2 0 V 0 vpt2 V
  hpt2 neg 0 V Opaque stroke} def
/TriUW {stroke [] 0 setdash vpt 1.12 mul add M
  hpt neg vpt -1.62 mul V
  hpt 2 mul 0 V
  hpt neg vpt 1.62 mul V Opaque stroke} def
/TriDW {stroke [] 0 setdash vpt 1.12 mul sub M
  hpt neg vpt 1.62 mul V
  hpt 2 mul 0 V
  hpt neg vpt -1.62 mul V Opaque stroke} def
/PentW {stroke [] 0 setdash gsave
  translate 0 hpt M 4 {72 rotate 0 hpt L} repeat
  Opaque stroke grestore} def
/CircW {stroke [] 0 setdash 
  hpt 0 360 arc Opaque stroke} def
/BoxFill {gsave Rec 1 setgray fill grestore} def
/Density {
  /Fillden exch def
  currentrgbcolor
  /ColB exch def /ColG exch def /ColR exch def
  /ColR ColR Fillden mul Fillden sub 1 add def
  /ColG ColG Fillden mul Fillden sub 1 add def
  /ColB ColB Fillden mul Fillden sub 1 add def
  ColR ColG ColB setrgbcolor} def
/BoxColFill {gsave Rec PolyFill} def
/PolyFill {gsave Density fill grestore grestore} def
/h {rlineto rlineto rlineto gsave closepath fill grestore} bind def
%
% PostScript Level 1 Pattern Fill routine for rectangles
% Usage: x y w h s a XX PatternFill
%	x,y = lower left corner of box to be filled
%	w,h = width and height of box
%	  a = angle in degrees between lines and x-axis
%	 XX = 0/1 for no/yes cross-hatch
%
/PatternFill {gsave /PFa [ 9 2 roll ] def
  PFa 0 get PFa 2 get 2 div add PFa 1 get PFa 3 get 2 div add translate
  PFa 2 get -2 div PFa 3 get -2 div PFa 2 get PFa 3 get Rec
  TransparentPatterns {} {gsave 1 setgray fill grestore} ifelse
  clip
  currentlinewidth 0.5 mul setlinewidth
  /PFs PFa 2 get dup mul PFa 3 get dup mul add sqrt def
  0 0 M PFa 5 get rotate PFs -2 div dup translate
  0 1 PFs PFa 4 get div 1 add floor cvi
	{PFa 4 get mul 0 M 0 PFs V} for
  0 PFa 6 get ne {
	0 1 PFs PFa 4 get div 1 add floor cvi
	{PFa 4 get mul 0 2 1 roll M PFs 0 V} for
 } if
  stroke grestore} def
%
/languagelevel where
 {pop languagelevel} {1} ifelse
dup 2 lt
	{/InterpretLevel1 true def
	 /InterpretLevel3 false def}
	{/InterpretLevel1 Level1 def
	 2 gt
	    {/InterpretLevel3 Level3 def}
	    {/InterpretLevel3 false def}
	 ifelse }
 ifelse
%
% PostScript level 2 pattern fill definitions
%
/Level2PatternFill {
/Tile8x8 {/PaintType 2 /PatternType 1 /TilingType 1 /BBox [0 0 8 8] /XStep 8 /YStep 8}
	bind def
/KeepColor {currentrgbcolor [/Pattern /DeviceRGB] setcolorspace} bind def
<< Tile8x8
 /PaintProc {0.5 setlinewidth pop 0 0 M 8 8 L 0 8 M 8 0 L stroke} 
>> matrix makepattern
/Pat1 exch def
<< Tile8x8
 /PaintProc {0.5 setlinewidth pop 0 0 M 8 8 L 0 8 M 8 0 L stroke
	0 4 M 4 8 L 8 4 L 4 0 L 0 4 L stroke}
>> matrix makepattern
/Pat2 exch def
<< Tile8x8
 /PaintProc {0.5 setlinewidth pop 0 0 M 0 8 L
	8 8 L 8 0 L 0 0 L fill}
>> matrix makepattern
/Pat3 exch def
<< Tile8x8
 /PaintProc {0.5 setlinewidth pop -4 8 M 8 -4 L
	0 12 M 12 0 L stroke}
>> matrix makepattern
/Pat4 exch def
<< Tile8x8
 /PaintProc {0.5 setlinewidth pop -4 0 M 8 12 L
	0 -4 M 12 8 L stroke}
>> matrix makepattern
/Pat5 exch def
<< Tile8x8
 /PaintProc {0.5 setlinewidth pop -2 8 M 4 -4 L
	0 12 M 8 -4 L 4 12 M 10 0 L stroke}
>> matrix makepattern
/Pat6 exch def
<< Tile8x8
 /PaintProc {0.5 setlinewidth pop -2 0 M 4 12 L
	0 -4 M 8 12 L 4 -4 M 10 8 L stroke}
>> matrix makepattern
/Pat7 exch def
<< Tile8x8
 /PaintProc {0.5 setlinewidth pop 8 -2 M -4 4 L
	12 0 M -4 8 L 12 4 M 0 10 L stroke}
>> matrix makepattern
/Pat8 exch def
<< Tile8x8
 /PaintProc {0.5 setlinewidth pop 0 -2 M 12 4 L
	-4 0 M 12 8 L -4 4 M 8 10 L stroke}
>> matrix makepattern
/Pat9 exch def
/Pattern1 {PatternBgnd KeepColor Pat1 setpattern} bind def
/Pattern2 {PatternBgnd KeepColor Pat2 setpattern} bind def
/Pattern3 {PatternBgnd KeepColor Pat3 setpattern} bind def
/Pattern4 {PatternBgnd KeepColor Landscape {Pat5} {Pat4} ifelse setpattern} bind def
/Pattern5 {PatternBgnd KeepColor Landscape {Pat4} {Pat5} ifelse setpattern} bind def
/Pattern6 {PatternBgnd KeepColor Landscape {Pat9} {Pat6} ifelse setpattern} bind def
/Pattern7 {PatternBgnd KeepColor Landscape {Pat8} {Pat7} ifelse setpattern} bind def
} def
%
%
%End of PostScript Level 2 code
%
/PatternBgnd {
  TransparentPatterns {} {gsave 1 setgray fill grestore} ifelse
} def
%
% Substitute for Level 2 pattern fill codes with
% grayscale if Level 2 support is not selected.
%
/Level1PatternFill {
/Pattern1 {0.250 Density} bind def
/Pattern2 {0.500 Density} bind def
/Pattern3 {0.750 Density} bind def
/Pattern4 {0.125 Density} bind def
/Pattern5 {0.375 Density} bind def
/Pattern6 {0.625 Density} bind def
/Pattern7 {0.875 Density} bind def
} def
%
% Now test for support of Level 2 code
%
Level1 {Level1PatternFill} {Level2PatternFill} ifelse
%
/Symbol-Oblique /Symbol findfont [1 0 .167 1 0 0] makefont
dup length dict begin {1 index /FID eq {pop pop} {def} ifelse} forall
currentdict end definefont pop
%
/MFshow {
   { dup 5 get 3 ge
     { 5 get 3 eq {gsave} {grestore} ifelse }
     {dup dup 0 get findfont exch 1 get scalefont setfont
     [ currentpoint ] exch dup 2 get 0 exch R dup 5 get 2 ne {dup dup 6
     get exch 4 get {textshow} {stringwidth pop 0 R} ifelse }if dup 5 get 0 eq
     {dup 3 get {2 get neg 0 exch R pop} {pop aload pop M} ifelse} {dup 5
     get 1 eq {dup 2 get exch dup 3 get exch 6 get stringwidth pop -2 div
     dup 0 R} {dup 6 get stringwidth pop -2 div 0 R 6 get
     textshow 2 index {aload pop M neg 3 -1 roll neg R pop pop} {pop pop pop
     pop aload pop M} ifelse }ifelse }ifelse }
     ifelse }
   forall} def
/Gswidth {dup type /stringtype eq {stringwidth} {pop (n) stringwidth} ifelse} def
/MFwidth {0 exch { dup 5 get 3 ge { 5 get 3 eq { 0 } { pop } ifelse }
 {dup 3 get{dup dup 0 get findfont exch 1 get scalefont setfont
     6 get Gswidth pop add} {pop} ifelse} ifelse} forall} def
/MLshow { currentpoint stroke M
  0 exch R
  Blacktext {gsave 0 setgray MFshow grestore} {MFshow} ifelse } bind def
/MRshow { currentpoint stroke M
  exch dup MFwidth neg 3 -1 roll R
  Blacktext {gsave 0 setgray MFshow grestore} {MFshow} ifelse } bind def
/MCshow { currentpoint stroke M
  exch dup MFwidth -2 div 3 -1 roll R
  Blacktext {gsave 0 setgray MFshow grestore} {MFshow} ifelse } bind def
/XYsave    { [( ) 1 2 true false 3 ()] } bind def
/XYrestore { [( ) 1 2 true false 4 ()] } bind def
Level1 SuppressPDFMark or 
{} {
/SDict 10 dict def
systemdict /pdfmark known not {
  userdict /pdfmark systemdict /cleartomark get put
} if
SDict begin [
  /Title (spmatrix.eps)
  /Subject (gnuplot plot)
  /Creator (gnuplot 5.0 patchlevel 2)
  /Author (jwe)
%  /Producer (gnuplot)
%  /Keywords ()
  /CreationDate (Fri Jul  1 14:57:38 2016)
  /DOCINFO pdfmark
end
} ifelse
%
% Support for boxed text - Ethan A Merritt May 2005
%
/InitTextBox { userdict /TBy2 3 -1 roll put userdict /TBx2 3 -1 roll put
           userdict /TBy1 3 -1 roll put userdict /TBx1 3 -1 roll put
	   /Boxing true def } def
/ExtendTextBox { Boxing
    { gsave dup false charpath pathbbox
      dup TBy2 gt {userdict /TBy2 3 -1 roll put} {pop} ifelse
      dup TBx2 gt {userdict /TBx2 3 -1 roll put} {pop} ifelse
      dup TBy1 lt {userdict /TBy1 3 -1 roll put} {pop} ifelse
      dup TBx1 lt {userdict /TBx1 3 -1 roll put} {pop} ifelse
      grestore } if } def
/PopTextBox { newpath TBx1 TBxmargin sub TBy1 TBymargin sub M
               TBx1 TBxmargin sub TBy2 TBymargin add L
	       TBx2 TBxmargin add TBy2 TBymargin add L
	       TBx2 TBxmargin add TBy1 TBymargin sub L closepath } def
/DrawTextBox { PopTextBox stroke /Boxing false def} def
/FillTextBox { gsave PopTextBox 1 1 1 setrgbcolor fill grestore /Boxing false def} def
0 0 0 0 InitTextBox
/TBxmargin 20 def
/TBymargin 20 def
/Boxing false def
/textshow { ExtendTextBox Gshow } def
%
% redundant definitions for compatibility with prologue.ps older than 5.0.2
/LTB {BL [] LCb DL} def
/LTb {PL [] LCb DL} def
end
%%EndProlog
%%Page: 1 1
gnudict begin
gsave
doclip
50 50 translate
0.050 0.050 scale
0 setgray
newpath
(Helvetica) findfont 200 scalefont setfont
BackgroundColor 0 lt 3 1 roll 0 lt exch 0 lt or or not {BackgroundColor C 1.000 0 0 7200.00 5040.00 BoxColFill} if
gsave % colour palette begin
/maxcolors 64 def
/HSV2RGB {  exch dup 0.0 eq {pop exch pop dup dup} % achromatic gray
  { /HSVs exch def /HSVv exch def 6.0 mul dup floor dup 3 1 roll sub
     /HSVf exch def /HSVi exch cvi def /HSVp HSVv 1.0 HSVs sub mul def
	 /HSVq HSVv 1.0 HSVs HSVf mul sub mul def 
	 /HSVt HSVv 1.0 HSVs 1.0 HSVf sub mul sub mul def
	 /HSVi HSVi 6 mod def 0 HSVi eq {HSVv HSVt HSVp}
	 {1 HSVi eq {HSVq HSVv HSVp}{2 HSVi eq {HSVp HSVv HSVt}
	 {3 HSVi eq {HSVp HSVq HSVv}{4 HSVi eq {HSVt HSVp HSVv}
	 {HSVv HSVp HSVq} ifelse} ifelse} ifelse} ifelse} ifelse
  } ifelse} def
/Constrain {
  dup 0 lt {0 exch pop}{dup 1 gt {1 exch pop} if} ifelse} def
/YIQ2RGB {
  3 copy -1.702 mul exch -1.105 mul add add Constrain 4 1 roll
  3 copy -0.647 mul exch -0.272 mul add add Constrain 5 1 roll
  0.621 mul exch -0.956 mul add add Constrain 3 1 roll } def
/CMY2RGB {  1 exch sub exch 1 exch sub 3 2 roll 1 exch sub 3 1 roll exch } def
/XYZ2RGB {  3 copy -0.9017 mul exch -0.1187 mul add exch 0.0585 mul exch add
  Constrain 4 1 roll 3 copy -0.0279 mul exch 1.999 mul add exch
  -0.9844 mul add Constrain 5 1 roll -0.2891 mul exch -0.5338 mul add
  exch 1.91 mul exch add Constrain 3 1 roll} def
/SelectSpace {ColorSpace (HSV) eq {HSV2RGB}{ColorSpace (XYZ) eq {
  XYZ2RGB}{ColorSpace (CMY) eq {CMY2RGB}{ColorSpace (YIQ) eq {YIQ2RGB}
  if} ifelse} ifelse} ifelse} def
/InterpolatedColor true def
/grayindex {/gidx 0 def
  {GrayA gidx get grayv ge {exit} if /gidx gidx 1 add def} loop} def
/dgdx {grayv GrayA gidx get sub GrayA gidx 1 sub get
  GrayA gidx get sub div} def 
/redvalue {RedA gidx get RedA gidx 1 sub get
  RedA gidx get sub dgdxval mul add} def
/greenvalue {GreenA gidx get GreenA gidx 1 sub get
  GreenA gidx get sub dgdxval mul add} def
/bluevalue {BlueA gidx get BlueA gidx 1 sub get
  BlueA gidx get sub dgdxval mul add} def
/interpolate {
  grayindex grayv GrayA gidx get sub abs 1e-5 le
    {RedA gidx get GreenA gidx get BlueA gidx get}
    {/dgdxval dgdx def redvalue greenvalue bluevalue} ifelse} def
/GrayA [0 .0159 .0317 .0476 .0635 .0794 .0952 .1111 .127 .1429 .1587 .1746 
  .1905 .2063 .2222 .2381 .254 .2698 .2857 .3016 .3175 .3333 .3492 .3651 
  .381 .3968 .4127 .4286 .4444 .4603 .4762 .4921 .5079 .5238 .5397 .5556 
  .5714 .5873 .6032 .619 .6349 .6508 .6667 .6825 .6984 .7143 .7302 .746 
  .7619 .7778 .7937 .8095 .8254 .8413 .8571 .873 .8889 .9048 .9206 .9365 
  .9524 .9683 .9841 1 ] def
/RedA [0 0 0 0 0 0 0 0 0 0 0 0 0 0 0 0 0 0 0 0 0 0 0 0 .0238 .0873 .1508 
  .2143 .2778 .3413 .4048 .4683 .5317 .5952 .6587 .7222 .7857 .8492 .9127 
  .9762 1 1 1 1 1 1 1 1 1 1 1 1 1 1 1 1 .9444 .881 .8175 .754 .6905 .627 
  .5635 .5 ] def
/GreenA [0 0 0 0 0 0 0 0 .0079 .0714 .1349 .1984 .2619 .3254 .3889 .4524 
  .5159 .5794 .6429 .7063 .7698 .8333 .8968 .9603 1 1 1 1 1 1 1 1 1 1 1 1 1 
  1 1 1 .9603 .8968 .8333 .7698 .7063 .6429 .5794 .5159 .4524 .3889 .3254 
  .2619 .1984 .1349 .0714 .0079 0 0 0 0 0 0 0 0 ] def
/BlueA [.5 .5635 .627 .6905 .754 .8175 .881 .9444 1 1 1 1 1 1 1 1 1 1 1 1 1 
  1 1 1 .9762 .9127 .8492 .7857 .7222 .6587 .5952 .5317 .4683 .4048 .3413 
  .2778 .2143 .1508 .0873 .0238 0 0 0 0 0 0 0 0 0 0 0 0 0 0 0 0 0 0 0 0 0 0 
  0 0 ] def
/pm3dround {maxcolors 0 gt {dup 1 ge
	{pop 1} {maxcolors mul floor maxcolors 1 sub div} ifelse} if} def
/pm3dGamma 1.0 1.5 Gamma mul div def
/ColorSpace (RGB) def
Color InterpolatedColor or { % COLOUR vs. GRAY map
  InterpolatedColor { %% Interpolation vs. RGB-Formula
    /g {stroke pm3dround /grayv exch def interpolate
        SelectSpace setrgbcolor} bind def
  }{
  /g {stroke pm3dround dup cF7 Constrain exch dup cF5 Constrain exch cF15 Constrain 
       SelectSpace setrgbcolor} bind def
  } ifelse
}{
  /g {stroke pm3dround pm3dGamma exp setgray} bind def
} ifelse
1.000 UL
LTb
1.00 1.00 1.00 C 1.000 660 400 6178 4398 BoxColFill
0.500 UL
LTb
LCb setrgbcolor
660 400 M
88 0 V
6091 0 R
-88 0 V
stroke
0.00 0.00 0.00 C 540 400 M
[ [({}) 200.0 0.0 true true 0 (0)]
] -66.7 MRshow
0.500 UL
LTb
LCb setrgbcolor
660 1494 M
88 0 V
6091 0 R
-88 0 V
stroke
0.00 0.00 0.00 C 540 1494 M
[ [({}) 200.0 0.0 true true 0 (50)]
] -66.7 MRshow
0.500 UL
LTb
LCb setrgbcolor
660 2589 M
88 0 V
6091 0 R
-88 0 V
stroke
0.00 0.00 0.00 C 540 2589 M
[ [({}) 200.0 0.0 true true 0 (100)]
] -66.7 MRshow
0.500 UL
LTb
LCb setrgbcolor
660 3683 M
88 0 V
6091 0 R
-88 0 V
stroke
0.00 0.00 0.00 C 540 3683 M
[ [({}) 200.0 0.0 true true 0 (150)]
] -66.7 MRshow
0.500 UL
LTb
LCb setrgbcolor
660 4777 M
88 0 V
6091 0 R
-88 0 V
stroke
0.00 0.00 0.00 C 540 4777 M
[ [({}) 200.0 0.0 true true 0 (200)]
] -66.7 MRshow
0.500 UL
LTb
LCb setrgbcolor
660 400 M
0 88 V
0 4311 R
0 -88 V
stroke
0.00 0.00 0.00 C 660 200 M
[ [({}) 200.0 0.0 true true 0 (0)]
] -66.7 MCshow
0.500 UL
LTb
LCb setrgbcolor
2197 400 M
0 88 V
0 4311 R
0 -88 V
stroke
0.00 0.00 0.00 C 2197 200 M
[ [({}) 200.0 0.0 true true 0 (50)]
] -66.7 MCshow
0.500 UL
LTb
LCb setrgbcolor
3734 400 M
0 88 V
0 4311 R
0 -88 V
stroke
0.00 0.00 0.00 C 3734 200 M
[ [({}) 200.0 0.0 true true 0 (100)]
] -66.7 MCshow
0.500 UL
LTb
LCb setrgbcolor
5271 400 M
0 88 V
0 4311 R
0 -88 V
stroke
0.00 0.00 0.00 C 5271 200 M
[ [({}) 200.0 0.0 true true 0 (150)]
] -66.7 MCshow
0.500 UL
LTb
LCb setrgbcolor
6808 400 M
0 88 V
0 4311 R
0 -88 V
stroke
0.00 0.00 0.00 C 6808 200 M
[ [({}) 200.0 0.0 true true 0 (200)]
] -66.7 MCshow
0.500 UL
LTb
LCb setrgbcolor
0.500 UL
LTB
LCb setrgbcolor
660 4799 N
660 400 L
6179 0 V
0 4399 V
-6179 0 V
Z stroke
1.000 UP
0.500 UL
LTb
LCb setrgbcolor
% Begin plot #1
2.000 UP
0.500 UL
LTb
0.00 0.00 1.00 C 691 422 Star
691 444 Star
721 422 Star
721 444 Star
721 466 Star
721 488 Star
752 444 Star
752 466 Star
752 509 Star
752 531 Star
783 444 Star
783 488 Star
783 553 Star
783 575 Star
814 466 Star
814 509 Star
814 597 Star
814 619 Star
844 466 Star
844 531 Star
844 641 Star
844 663 Star
875 488 Star
875 553 Star
875 685 Star
875 706 Star
906 488 Star
906 575 Star
906 728 Star
906 750 Star
937 509 Star
937 597 Star
937 772 Star
937 794 Star
967 509 Star
967 619 Star
967 816 Star
967 838 Star
998 531 Star
998 641 Star
998 860 Star
998 881 Star
1029 531 Star
1029 663 Star
1029 903 Star
1029 925 Star
1060 553 Star
1060 685 Star
1060 947 Star
1060 969 Star
1090 553 Star
1090 706 Star
1090 991 Star
1090 1013 Star
1121 575 Star
1121 728 Star
1121 1035 Star
1121 1057 Star
1152 575 Star
1152 750 Star
1152 1078 Star
1152 1100 Star
1183 597 Star
1183 772 Star
1183 1122 Star
1183 1144 Star
1213 597 Star
1213 794 Star
1213 1166 Star
1213 1188 Star
1244 619 Star
1244 816 Star
1244 1210 Star
1244 1232 Star
1275 619 Star
1275 838 Star
1275 1254 Star
1275 1275 Star
1306 641 Star
1306 860 Star
1306 1297 Star
1306 1319 Star
1336 641 Star
1336 881 Star
1336 1341 Star
1336 1363 Star
1367 663 Star
1367 903 Star
1367 1385 Star
1367 1407 Star
1398 663 Star
1398 925 Star
1398 1429 Star
1398 1451 Star
1429 685 Star
1429 947 Star
1429 1472 Star
1429 1494 Star
1459 685 Star
1459 969 Star
1459 1516 Star
1459 1538 Star
1490 706 Star
1490 991 Star
1490 1560 Star
1490 1582 Star
1521 706 Star
1521 1013 Star
1521 1604 Star
1521 1626 Star
1551 728 Star
1551 1035 Star
1551 1647 Star
1551 1669 Star
1582 728 Star
1582 1057 Star
1582 1691 Star
1582 1713 Star
1613 750 Star
1613 1078 Star
1613 1735 Star
1613 1757 Star
1644 750 Star
1644 1100 Star
1644 1779 Star
1644 1801 Star
1674 772 Star
1674 1122 Star
1674 1823 Star
1674 1844 Star
1705 772 Star
1705 1144 Star
1705 1866 Star
1705 1888 Star
1736 794 Star
1736 1166 Star
1736 1910 Star
1736 1932 Star
1767 794 Star
1767 1188 Star
1767 1954 Star
1767 1976 Star
1797 816 Star
1797 1210 Star
1797 1998 Star
1797 2020 Star
1828 816 Star
1828 1232 Star
1828 2041 Star
1828 2063 Star
1859 838 Star
1859 1254 Star
1859 2085 Star
1859 2107 Star
1890 838 Star
1890 1275 Star
1890 2129 Star
1890 2151 Star
1920 860 Star
1920 1297 Star
1920 2173 Star
1920 2195 Star
1951 860 Star
1951 1319 Star
1951 2217 Star
1951 2238 Star
1982 881 Star
1982 1341 Star
1982 2260 Star
1982 2282 Star
2013 881 Star
2013 1363 Star
2013 2304 Star
2013 2326 Star
2043 903 Star
2043 1385 Star
2043 2348 Star
2043 2370 Star
2074 903 Star
2074 1407 Star
2074 2392 Star
2074 2413 Star
2105 925 Star
2105 1429 Star
2105 2435 Star
2105 2457 Star
2136 925 Star
2136 1451 Star
2136 2479 Star
2136 2501 Star
2166 947 Star
2166 1472 Star
2166 2523 Star
2166 2545 Star
2197 947 Star
2197 1494 Star
2197 2567 Star
2197 2589 Star
2228 969 Star
2228 1516 Star
2228 2610 Star
2228 2632 Star
2259 969 Star
2259 1538 Star
2259 2654 Star
2259 2676 Star
2289 991 Star
2289 1560 Star
2289 2698 Star
2289 2720 Star
2320 991 Star
2320 1582 Star
2320 2742 Star
2320 2764 Star
2351 1013 Star
2351 1604 Star
2351 2786 Star
2351 2807 Star
2382 1013 Star
2382 1626 Star
2382 2829 Star
2382 2851 Star
2412 1035 Star
2412 1647 Star
2412 2873 Star
2412 2895 Star
2443 1035 Star
2443 1669 Star
2443 2917 Star
2443 2939 Star
2474 1057 Star
2474 1691 Star
2474 2961 Star
2474 2982 Star
2504 1057 Star
2504 1713 Star
2504 3004 Star
2504 3026 Star
2535 1078 Star
2535 1735 Star
2535 3048 Star
2535 3070 Star
2566 1078 Star
2566 1757 Star
2566 3092 Star
2566 3114 Star
2597 1100 Star
2597 1779 Star
2597 3136 Star
2597 3158 Star
2627 1100 Star
2627 1801 Star
2627 3179 Star
2627 3201 Star
2658 1122 Star
2658 1823 Star
2658 3223 Star
2658 3245 Star
2689 1122 Star
2689 1844 Star
2689 3267 Star
2689 3289 Star
2720 1144 Star
2720 1866 Star
2720 3311 Star
2720 3333 Star
2750 1144 Star
2750 1888 Star
2750 3355 Star
2750 3376 Star
2781 1166 Star
2781 1910 Star
2781 3398 Star
2781 3420 Star
2812 1166 Star
2812 1932 Star
2812 3442 Star
2812 3464 Star
2843 1188 Star
2843 1954 Star
2843 3486 Star
2843 3508 Star
2873 1188 Star
2873 1976 Star
2873 3530 Star
2873 3552 Star
2904 1210 Star
2904 1998 Star
2904 3573 Star
2904 3595 Star
2935 1210 Star
2935 2020 Star
2935 3617 Star
2935 3639 Star
2966 1232 Star
2966 2041 Star
2966 3661 Star
2966 3683 Star
2996 1232 Star
2996 2063 Star
2996 3705 Star
2996 3727 Star
3027 1254 Star
3027 2085 Star
3027 3748 Star
3027 3770 Star
3058 1254 Star
3058 2107 Star
3058 3792 Star
3058 3814 Star
3089 1275 Star
3089 2129 Star
3089 3836 Star
3089 3858 Star
3119 1275 Star
3119 2151 Star
3119 3880 Star
3119 3902 Star
3150 1297 Star
3150 2173 Star
3150 3924 Star
3150 3945 Star
3181 1297 Star
3181 2195 Star
3181 3967 Star
3181 3989 Star
3212 1319 Star
3212 2217 Star
3212 4011 Star
3212 4033 Star
3242 1319 Star
3242 2238 Star
3242 4055 Star
3242 4077 Star
3273 1341 Star
3273 2260 Star
3273 4099 Star
3273 4121 Star
3304 1341 Star
3304 2282 Star
3304 4142 Star
3304 4164 Star
3334 1363 Star
3334 2304 Star
3334 4186 Star
3334 4208 Star
3365 1363 Star
3365 2326 Star
3365 4230 Star
3365 4252 Star
3396 1385 Star
3396 2348 Star
3396 4274 Star
3396 4296 Star
3427 1385 Star
3427 2370 Star
3427 4318 Star
3427 4339 Star
3457 1407 Star
3457 2392 Star
3457 4361 Star
3457 4383 Star
3488 1407 Star
3488 2413 Star
3488 4405 Star
3488 4427 Star
3519 1429 Star
3519 2435 Star
3519 4449 Star
3519 4471 Star
3550 1429 Star
3550 2457 Star
3550 4493 Star
3550 4514 Star
3580 1451 Star
3580 2479 Star
3580 4536 Star
3580 4558 Star
3611 1451 Star
3611 2501 Star
3611 4580 Star
3611 4602 Star
3642 1472 Star
3642 2523 Star
3642 4624 Star
3642 4646 Star
3673 1472 Star
3673 2545 Star
3673 4668 Star
3673 4690 Star
3703 1494 Star
3703 2567 Star
3703 4711 Star
3703 4733 Star
3734 1494 Star
3734 2589 Star
3734 4755 Star
3734 4777 Star
3765 1516 Star
3765 2610 Star
3796 1516 Star
3796 2632 Star
3826 1538 Star
3826 2654 Star
3857 1538 Star
3857 2676 Star
3888 1560 Star
3888 2698 Star
3919 1560 Star
3919 2720 Star
3949 1582 Star
3949 2742 Star
3980 1582 Star
3980 2764 Star
4011 1604 Star
4011 2786 Star
4042 1604 Star
4042 2807 Star
4072 1626 Star
4072 2829 Star
4103 1626 Star
4103 2851 Star
4134 1647 Star
4134 2873 Star
4165 1647 Star
4165 2895 Star
4195 1669 Star
4195 2917 Star
4226 1669 Star
4226 2939 Star
4257 1691 Star
4257 2961 Star
4287 1691 Star
4287 2982 Star
4318 1713 Star
4318 3004 Star
4349 1713 Star
4349 3026 Star
4380 1735 Star
4380 3048 Star
4410 1735 Star
4410 3070 Star
4441 1757 Star
4441 3092 Star
4472 1757 Star
4472 3114 Star
4503 1779 Star
4503 3136 Star
4533 1779 Star
4533 3158 Star
4564 1801 Star
4564 3179 Star
4595 1801 Star
4595 3201 Star
4626 1823 Star
4626 3223 Star
4656 1823 Star
4656 3245 Star
4687 1844 Star
4687 3267 Star
4718 1844 Star
4718 3289 Star
4749 1866 Star
4749 3311 Star
4779 1866 Star
4779 3333 Star
4810 1888 Star
4810 3355 Star
4841 1888 Star
4841 3376 Star
4872 1910 Star
4872 3398 Star
4902 1910 Star
4902 3420 Star
4933 1932 Star
4933 3442 Star
4964 1932 Star
4964 3464 Star
4995 1954 Star
4995 3486 Star
5025 1954 Star
5025 3508 Star
5056 1976 Star
5056 3530 Star
5087 1976 Star
5087 3552 Star
5117 1998 Star
5117 3573 Star
5148 1998 Star
5148 3595 Star
5179 2020 Star
5179 3617 Star
5210 2020 Star
5210 3639 Star
5240 2041 Star
5240 3661 Star
5271 2041 Star
5271 3683 Star
5302 2063 Star
5302 3705 Star
5333 2063 Star
5333 3727 Star
5363 2085 Star
5363 3748 Star
5394 2085 Star
5394 3770 Star
5425 2107 Star
5425 3792 Star
5456 2107 Star
5456 3814 Star
5486 2129 Star
5486 3836 Star
5517 2129 Star
5517 3858 Star
5548 2151 Star
5548 3880 Star
5579 2151 Star
5579 3902 Star
5609 2173 Star
5609 3924 Star
5640 2173 Star
5640 3945 Star
5671 2195 Star
5671 3967 Star
5702 2195 Star
5702 3989 Star
5732 2217 Star
5732 4011 Star
5763 2217 Star
5763 4033 Star
5794 2238 Star
5794 4055 Star
5825 2238 Star
5825 4077 Star
5855 2260 Star
5855 4099 Star
5886 2260 Star
5886 4121 Star
5917 2282 Star
5917 4142 Star
5948 2282 Star
5948 4164 Star
5978 2304 Star
5978 4186 Star
6009 2304 Star
6009 4208 Star
6040 2326 Star
6040 4230 Star
6070 2326 Star
6070 4252 Star
6101 2348 Star
6101 4274 Star
6132 2348 Star
6132 4296 Star
6163 2370 Star
6163 4318 Star
6193 2370 Star
6193 4339 Star
6224 2392 Star
6224 4361 Star
6255 2392 Star
6255 4383 Star
6286 2413 Star
6286 4405 Star
6316 2413 Star
6316 4427 Star
6347 2435 Star
6347 4449 Star
6378 2435 Star
6378 4471 Star
6409 2457 Star
6409 4493 Star
6439 2457 Star
6439 4514 Star
6470 2479 Star
6470 4536 Star
6501 2479 Star
6501 4558 Star
6532 2501 Star
6532 4580 Star
6562 2501 Star
6562 4602 Star
6593 2523 Star
6593 4624 Star
6624 2523 Star
6624 4646 Star
6655 2545 Star
6655 4668 Star
6685 2545 Star
6685 4690 Star
6716 2567 Star
6716 4711 Star
6747 2567 Star
6747 4733 Star
6778 2589 Star
6778 4755 Star
6808 2589 Star
6808 4777 Star
% End plot #1
2.000 UL
LTb
LCb setrgbcolor
1.000 UP
0.500 UL
LTb
LCb setrgbcolor
grestore % colour palette end
stroke
grestore
end
showpage
%%Trailer
%%DocumentFonts: Helvetica
